"eprintid","rev_number","eprint_status","userid","importid","source","dir","datestamp","lastmod","status_changed","type","succeeds","commentary","metadata_visibility","contact_email","latitude","longitude","relation_type","relation_uri","item_issues_id","item_issues_type","item_issues_description","item_issues_timestamp","item_issues_status","item_issues_reported_by","item_issues_resolved_by","item_issues_comment","item_issues_count","sword_depositor","sword_slug","creators_name.family","creators_name.given","creators_name.lineage","creators_name.honourific","creators_id","contributors_type","contributors_name.family","contributors_name.given","contributors_name.lineage","contributors_name.honourific","contributors_id","corp_creators","title","ispublished","subjects","divisions","full_text_status","monograph_type","pres_type","keywords","note","abstract","date","date_type","series","publication","volume","number","publisher","place_of_pub","pagerange","pages","event_title","event_location","event_dates","event_type","id_number","patent_applicant","institution","department","thesis_type","refereed","isbn","issn","book_title","editors_name.family","editors_name.given","editors_name.lineage","editors_name.honourific","editors_id","official_url","related_url_url","related_url_type","referencetext","funders","projects","output_media","exhibitors_name.family","exhibitors_name.given","exhibitors_name.lineage","exhibitors_name.honourific","exhibitors_id","num_pieces","composition_type","producers_name.family","producers_name.given","producers_name.lineage","producers_name.honourific","producers_id","conductors_name.family","conductors_name.given","conductors_name.lineage","conductors_name.honourific","conductors_id","lyricists_name.family","lyricists_name.given","lyricists_name.lineage","lyricists_name.honourific","lyricists_id","accompaniment","data_type","pedagogic_type","completion_time","task_purpose","skill_areas","copyright_holders","learning_level","gscholar_impact","gscholar_cluster","gscholar_datestamp","othersabs_othabstracts","othersabs_language","altloc","chapter","commref","linkdata","confdates","conference","confloc","linguabib","pubdom","reportno","countries","thesistype","handle","fp7_project","fp7_project_id","fp7_type","access_rights"
"31473","38","archive","8388",,,"disk0/00/03/14/73","2017-08-10 21:10:17","2017-08-10 21:10:17","2017-08-10 21:10:17","preprint",,,"show",,,,"","","","","","","","","","",,,,"Martínez Hernández","Diego","","",,"",,,,,"","","Acceso, Uso y Publicación en Revistas Científicas entre los Investigadores en Ciencias Sociales de Latinoamérica",,"BA","","public",,,"E-journals
Revistas científicas
Use of scientific journals
Uso de revistas científicas
Access of scientific journals
Acceso de revistas científicas
Latin America
Social sciences
Social science journals
Revistas de ciencias sociales",,"Background: The project starts from the recognition of the significant growth that scientific journals have had in Latin America in the last two decades as a result of the development of information and communication technologies, the advancement of the movement for democratization open access to knowledge (Which has a particular expression in the Public Knowledge Project and its products such as the Open Journal System), the creation and expansion of storage services and bibliographic information in the global arena (Web of Science, Scopus, DOAJ, Ulrich , Etc.), regional (Latindex, SciELO, RedALyC, CLACSO), and national (Qualis, Publindex, Revencit, etc.), and the promulgation of policies and implementation of reforms in the sectors of education and science Technology in the Countries of the region. Likewise, they are usually emphasized as indexing in recognized systems and indicators as the impact factor. However, little is known about what happens between consumers (readers) and producers (researchers) of knowledge, particularly in the social sciences. 
Purpose: The scope and impact of the Latin American journals in the different disciplinary fields of the social sciences, in terms of access, use and publication, were investigated among researchers assigned to the national science and technology systems. Technology of the region, university professors in the area of social sciences and who have publications in social science journals. It was proposed to identify the most prestigious Latin American journals in social sciences, which was given by the recognition that researchers and academics of Latin America, and the factors that influence to choose a magazine to consult and publish. 
Method: To do this, a survey on the prestige of journals was applied to a sample of social science researchers in the region, researchers were identified in the systems of science and technology, institutions of higher education, social science journals Latin American and academic networks of the research team of this project. The survey is administered through the Internet and is related to: Journals that are read the most and published by academics and social researchers in Latin America; Journals that are published in the region; Factors for selection of publications such as prestige in the academic community, cost (subscription, open access), publication format (print, electronic), language, inclusion in bibliographic information systems and recognition policies to productivity; and bibliographic information systems that researchers use to access articles and journals in social sciences. The results of the survey were analyzed quantitatively. 
Findings and conclusions: The publications identified by researchers as important, in general and by discipline, were very diverse and in few cases there was some particular leadership of some titles. Several of the identified factors were confirmed as important in selecting a journal to read or publish, for example, predilection for open access electronic journals and full text that also do not charge the authors to publish; importance of major national, regional and global bibliographic information systems; Increasing value of scientific publication for the academic career and salary of Latin American researchers in the social sciences. Spanish as a regional language is very important in the selection of a magazine to read and publish. Regional bibliographic systems are more valued than those of greater global recognition.","2014-06-02",,,,,,,,,,,,,,,,,,,"TRUE",,,,,,,,"",,"","","Aguado, Eduardo. 2010. Bibliometría, evaluación y desarrollo: atlas cienciométrico de Iberoamérica RedALyC-Fractal (ACibrf)]. Valdivia, Chile: 2do. Congreso Internacional de Editores RedALyC. Disponible en internet en: www.redalyc.uaemex.mx.
Aguado López, Eduardo, Rosario Rogel Salazar, Gustavo Garduño Oropeza, & María Fernanda Zúñiga. 2008. “RedALyC: una alternativa a las asimetrías en la distribución del conocimiento científico”. Ciencia, Docencia y Tecnología XIX (37): 11-30.
Alcain, María Dolores, & Adelaida Román. 2005. “Hacia una valoración integrada de las revistas españolas de ciencias sociales y humanas: las revistas de psicología”. Psicothema 17 (2): 179-189.
Alperín, Juan Pablo, Gustavo Fischman, & John Willinsky. 2008. “Open access and scholarly publishing in Latin America: ten flavours and a few reflections”. Liinc em Revista 4 (2): 172- 185. Disponible en internet en: www.ibict.br/liinc.
Borrego, Ángel, & Cristóbal Urbano. 2006. “La evaluación de revistas científicas en ciencias sociales y humanidades”. Información, Cultura y Sociedad 14: 11-27.
Buela-Casal, Gualberto, Pandelis Perakakis, Michael Taylor, & Purificación Checa. 2006. “Measuring internationality: reflections and perspective on academic journals.” Scientometrics 67 (1): 45-65.
Cetto, Ana María, & José Octavio Alonso, eds. 1999. Revistas científicas en América Latina. México: International Council of Scientific Unions, Universidad Nacional Autónoma de México, Consejo Nacional de Ciencia y Tecnología, Fondo de Cultura Económica.
Cetto, Ana María, José Octavio Alonso-Gamboa, & Saray Córdoba. 2010. “Ibero-American systems for the dissemination of scholarly journals
Cetto, Ana María, & Kai-Inge Hillerud. 1995. Publicaciones científicas en América Latina. México: International Council of Scientific Unions, UNESCO, Universidad Nacional Autónoma de México, Academia de Investigación Científica, Fondo de Cultura Económica.
Contreras, Oscar F. 2011. “La comunidad académica y sus medios: la consolidación de una revista de ciencias sociales”. Región y Sociedad 23 (50): 11-22.
Delgado, Jorge Enrique. 2010. “Trends in the publication of refereed journals in Spanish- and Portuguese-speaking Latin America”. Comparative and International Higher Education 2 (2): 43-49. Disponible en internet en: www.higheredsig.org/cihe.
Delgado, Jorge Enrique. 2011a. Journal publication in Chile, Colombia, and Venezuela: University responses to global, regional, and national pressures and trends. Tesis doctoral. Pittsburgh: University of Pittsburgh, School of Education. Disponible en internet en: etd.library.pitt.edu/ETD/available/etd-08102011-124121/.
Delgado, Jorge Enrique. 2011b. “Papel del acceso abierto en el surgimiento y consolidación de las revistas arbitradas en América Latina y El Caribe”. Educación Superior y Sociedad 16 (2). Disponible en internet en: ess.iesalc.unesco.org.ve.
Delgado, Jorge Enrique, & John C. Weidman. 2012. “Latin American and Caribbean countries in the global quest for world class academic recognition: an analysis of publications in Scopus and the Science Citation Index between 1990 and 2010”. Excellence in Higher Education 3 (2): 111-121. Disponible en internet en: http://ehe.pitt.edu/ojs/index.php/ehe/article/view/73/59.
Delgado-López-Cózar, Emilio, & Álvaro Cabezas-Clavijo. 2012. “Google Scholar Metrics: an unreliable tool for assessing scientific journals”. El Profesional de la Información, 21 (4): 419-427. doi:10.3145/epi.2012.jul.15
Delgado López-Cózar, Emilio, Nicolás Robinson-García, & Daniel Torres-Salinas. 2013. “The Google Scholar Experiment: how to index false papers and manipulate bibliometric indicators”. Journal of the Association for Information Science and Technology. Disponible en internet en: http://arxiv.org/ftp/arxiv/papers/1309/1309.2413.pdf.
Fischman, Gustavo E., Juan Pablo Alperín, & John Willinsky. 2010. “Visibility and quality in Spanish-language Latin American scholarly publishing.” Information Technologies & International Development 6 (4): 1-21.
Haustein, Stefanie. 2012. Multidimensional journal evaluation. Analyzing scientific periodicals beyond the impact factor. Berlin: Walter de Guyter.
Holdom, Shoshannah. 2005. “E-journal proliferation in emerging economies: the case of Latin America”. Library and Linguistic Computing 20 (3): 351-365.
Edgar, Brian D., & John Willinsky. 2010. “A survey of the scholarly journals using open journal systems”. Scholarly and Research Communication 1 (2): 1-22.
Ibáñez, Romualdo. 2010. “El texto disciplinar en la transmisión del conocimiento especializado”. Estudios Filológicos 46: 59-80.
Meneghini, Rogerio. 2002. “SciELO (Scientific Electronic Library Online) Project and the visibility of ‘peripheral’ scientific literature”. Quim Nova 26 (2): 156.
Morales Bermúdez, Jesús. 2003. “Las revistas de ciencias sociales en Chiapas: los años noventa”. Liminar 1 (1): 120-125.
Neuman, W. Lawrence. 2005. Social research methods. Qualitative and quantitative approaches. Upper Saddle River, NJ: Pearson.
Ortiz, Renato. 2006. “Social sciences and the English language”. Revista Brasileira de Ciȇncias Sociais 2.
Parodi, Giovanni. 2010. “La organización retórica del género Manual a través de cuatro disciplinas: ¿Cómo se comunica y difunde la ciencia en diferentes contextos universitarios?” Boletín de Lingüística XXII (33): 43-69.
Pozas Horcasitas, Ricardo. 2011. “La textualidad de las ciencias sociales: artículos o libros”. Revista Mexicana de Sociología 73 (4): 715-730.
Red de Revistas Científicas de América Latina, El Caribe, España y Portugal (RedALyC). 2008. Sistema de Información Científica RedALyC: la Ciencia que no se ve no Existe]. Toluca, México: Universidad Autónoma del Estado de México, Facultad de Ciencias Políticas y Administración Pública.
Red de Indicadores de Ciencia y Tecnología Iberoamericana e Interamericana (RICYT). 2013. Indicadores comparativos. Indicadores de Insumo. Buenos Aires: Centro de Estudios sobre Ciencia, Desarrollo y Educación Superior (REDES). Disponible en internet en: http://www.ricyt.org.
Rodríguez Sánchez, Yaniris, Yeny Rubio Cárdenas, & Ernestina Solórzano Álvarez. 2007. “Las ciencias sociales en Cuba: una mirada desde una perspectiva métrica”. Acimed 16 (6).
Utges, Graciela. 2008. Visibilidad, calidad y relevancia. Desafíos y oportunidades para nuestras revistas en tiempos de cambio. Tecne, Episteme y Didaxis (Spec Issue): 35-46.
Willinsky, John. 2006. The access principle. The case for open access to research and scholarship. Cambridge, MA: Massachusetts Institute of Technology.","","",,,,,,"",,,,,,,"",,,,,"",,,,,"","",,,,,"","",,,,,"Antecedentes: El presente proyecto parte del reconocimiento del crecimiento significativo que han tenido las revistas científicas en Iberoamérica en las últimas dos décadas como resultado del desarrollo de las tecnologías de la información y la comunicación (publicación electrónica), el avance del movimiento por la democratización y el acceso libre al conocimiento (que tiene una particular expresión en el Public Knowledge Project y sus productos como el Open Journal System), la creación y expansión de servicios de almacenamiento e información bibliográfica en los ámbitos mundial (Web of Science, Scopus, DOAJ, Ulrich’s, etc.), regional (Latindex, SciELO, RedALyC, CLACSO), y nacional (Qualis, Publindex, Revencit, etc.), y la promulgación de políticas y ejecución de reformas de los sectores de la educación y la ciencia y la tecnología en los países de la región. De igual modo, usualmente se enfatizan aspectos como la indización en sistemas reconocidos e indicadores como el factor de impacto. Sin embargo, poco se conoce sobre lo que ocurre entre los consumidores (lectores) y productores (investigadores) del conocimiento, particularmente en las ciencias sociales. Propósito: Se exploraron aspectos relacionados con el alcance y el impacto de las revistas latinoamericanas en los diferentes campos disciplinares de las ciencias sociales (clasificación de la UNESCO), en términos de acceso, uso y publicación, entre los investigadores adscritos a los sistemas nacionales de ciencia y tecnología de la región, profesores universitarios en el área de las ciencias sociales y aquellos que tienen publicaciones en revistas de ciencias sociales. Se propuso identificar las revistas latinoamericanas más prestigiosas en ciencias sociales, lo cual estuvo dado por el reconocimiento que les dan los investigadores y académicos de Latinoamérica, y los factores que influyen para escoger una revista para consulta y publicación. Método: Para ello, se aplicó una encuesta sobre el prestigio de las revistas a una muestra de investigadores de las ciencias sociales de la región, quienes fueron identificados en los sistemas de ciencia y tecnología, las instituciones de educación superior, revistas de ciencias sociales latinoamericanas y las redes académicas del equipo de investigadores de este proyecto. La encuesta se administró a través de internet e indagó aspectos como: Revistas que más leen y en las que más publican los académicos e investigadores sociales de Latinoamérica; revistas que son publicadas en la región; factores considerados para la selección de las publicaciones como prestigio entre la comunidad académica, costo (suscripción, acceso abierto), formato de publicación (impreso, electrónico), idioma, inclusión en sistemas de información bibliográfica, y políticas de reconocimiento a la productividad (nacional, institucional); y sistemas de información bibliográfica que usan los investigadores para acceder a los artículos y revistas en ciencias sociales. Los resultados de la encuesta fueron analizados cuantitativamente. Hallazgos y conclusiones: Las publicaciones identificadas por los investigadores como importantes, en general y por disciplina, fueron muy diversas y en pocos casos hubo algún liderazgo particular de algunos títulos. Varios de los factores identificados fueron confirmados como importantes a la hora de seleccionar una revista para leer o publicar, por ejemplo, predilección por revistas electrónicas de acceso gratuito y texto completo que además no cobren a los autores por publicar; mayor conciencia de la importancia de los sistemas nacionales, regionales y mundiales de información bibliográfica; creciente valor de la publicación científica para la carrera académica y el salario de los investigadores latinoamericanos en las ciencias sociales. El español como idioma regional es muy importante en la selección de una revista para leer y publicar. Los sistemas bibliográficos regionales son más valorados que los de mayor reconocimiento mundial.","es","https://doi.org/10.6084/m9.figshare.1041561.v1",,,,,,,"es","TRUE",,"AR-",,"http://hdl.handle.net/10760/31473","no",,"info:eu-repo/semantics/other","info:eu-repo/semantics/openAccess"
"31473",,,,,,,,,,,,,,,,,,,,,,,,,,,,,,"López","Beliji Lileth","","",,,,,,,,,,,"BG",,,,,,,,,,,,,,,,,,,,,,,,,,,,,,,,,,,,,,,,,,,,,,,,,,,,,,,,,,,,,,,,,,,,,,,,,,,,,,,,,,,,,,,,"BO-",,,,,,
"31473",,,,,,,,,,,,,,,,,,,,,,,,,,,,,,"Manco-Vega","Alejandra","","","alejandra.manco@gmail.com",,,,,,,,,,"BH",,,,,,,,,,,,,,,,,,,,,,,,,,,,,,,,,,,,,,,,,,,,,,,,,,,,,,,,,,,,,,,,,,,,,,,,,,,,,,,,,,,,,,,,"BR-",,,,,,
"31473",,,,,,,,,,,,,,,,,,,,,,,,,,,,,,"Aliaga","Francisco M.","","","Francisco.Aliaga@uv.es",,,,,,,,,,"CB",,,,,,,,,,,,,,,,,,,,,,,,,,,,,,,,,,,,,,,,,,,,,,,,,,,,,,,,,,,,,,,,,,,,,,,,,,,,,,,,,,,,,,,,"CL-",,,,,,
"31473",,,,,,,,,,,,,,,,,,,,,,,,,,,,,,"Delgado","Jorge Enrique","","",,,,,,,,,,,"ED",,,,,,,,,,,,,,,,,,,,,,,,,,,,,,,,,,,,,,,,,,,,,,,,,,,,,,,,,,,,,,,,,,,,,,,,,,,,,,,,,,,,,,,,"CO-",,,,,,
"31473",,,,,,,,,,,,,,,,,,,,,,,,,,,,,,"Tejada-Gómez","María-Alejandra-","","","maria.tejada@javeriana.edu.co",,,,,,,,,,"HN",,,,,,,,,,,,,,,,,,,,,,,,,,,,,,,,,,,,,,,,,,,,,,,,,,,,,,,,,,,,,,,,,,,,,,,,,,,,,,,,,,,,,,,,"CR-",,,,,,
"31473",,,,,,,,,,,,,,,,,,,,,,,,,,,,,,"Romero","Cristina","","",,,,,,,,,,,"HS",,,,,,,,,,,,,,,,,,,,,,,,,,,,,,,,,,,,,,,,,,,,,,,,,,,,,,,,,,,,,,,,,,,,,,,,,,,,,,,,,,,,,,,,"CU-",,,,,,
"31473",,,,,,,,,,,,,,,,,,,,,,,,,,,,,,,,,,,,,,,,,,,,,,,,,,,,,,,,,,,,,,,,,,,,,,,,,,,,,,,,,,,,,,,,,,,,,,,,,,,,,,,,,,,,,,,,,,,,,,,,,,,,,,,,,,,,"EC-",,,,,,
"31473",,,,,,,,,,,,,,,,,,,,,,,,,,,,,,,,,,,,,,,,,,,,,,,,,,,,,,,,,,,,,,,,,,,,,,,,,,,,,,,,,,,,,,,,,,,,,,,,,,,,,,,,,,,,,,,,,,,,,,,,,,,,,,,,,,,,"GT-",,,,,,
"31473",,,,,,,,,,,,,,,,,,,,,,,,,,,,,,,,,,,,,,,,,,,,,,,,,,,,,,,,,,,,,,,,,,,,,,,,,,,,,,,,,,,,,,,,,,,,,,,,,,,,,,,,,,,,,,,,,,,,,,,,,,,,,,,,,,,,"HN-",,,,,,
"31473",,,,,,,,,,,,,,,,,,,,,,,,,,,,,,,,,,,,,,,,,,,,,,,,,,,,,,,,,,,,,,,,,,,,,,,,,,,,,,,,,,,,,,,,,,,,,,,,,,,,,,,,,,,,,,,,,,,,,,,,,,,,,,,,,,,,"MX-",,,,,,
"31473",,,,,,,,,,,,,,,,,,,,,,,,,,,,,,,,,,,,,,,,,,,,,,,,,,,,,,,,,,,,,,,,,,,,,,,,,,,,,,,,,,,,,,,,,,,,,,,,,,,,,,,,,,,,,,,,,,,,,,,,,,,,,,,,,,,,"NI-",,,,,,
"31473",,,,,,,,,,,,,,,,,,,,,,,,,,,,,,,,,,,,,,,,,,,,,,,,,,,,,,,,,,,,,,,,,,,,,,,,,,,,,,,,,,,,,,,,,,,,,,,,,,,,,,,,,,,,,,,,,,,,,,,,,,,,,,,,,,,,"PE-",,,,,,
"31473",,,,,,,,,,,,,,,,,,,,,,,,,,,,,,,,,,,,,,,,,,,,,,,,,,,,,,,,,,,,,,,,,,,,,,,,,,,,,,,,,,,,,,,,,,,,,,,,,,,,,,,,,,,,,,,,,,,,,,,,,,,,,,,,,,,,"PY-",,,,,,
"31473",,,,,,,,,,,,,,,,,,,,,,,,,,,,,,,,,,,,,,,,,,,,,,,,,,,,,,,,,,,,,,,,,,,,,,,,,,,,,,,,,,,,,,,,,,,,,,,,,,,,,,,,,,,,,,,,,,,,,,,,,,,,,,,,,,,,"UY-",,,,,,
"31473",,,,,,,,,,,,,,,,,,,,,,,,,,,,,,,,,,,,,,,,,,,,,,,,,,,,,,,,,,,,,,,,,,,,,,,,,,,,,,,,,,,,,,,,,,,,,,,,,,,,,,,,,,,,,,,,,,,,,,,,,,,,,,,,,,,,"VE-",,,,,,
"33206","36","archive","9469",,,"disk0/00/03/32/06","2018-07-13 13:29:39","2018-07-13 13:34:11","2018-07-13 13:29:39","bibliography",,,"show",,,,"","","","","","","","","","",,,,"Uribe-Tirado","Alejandro","","","auribe.bibliotecologia.udea@gmail.com","",,,,,"","","Libro: Wiki ALFIN / Iberoamérica. (7 años recopilando la producción sobre Alfabetización Informacional en 22 países)","pub","C.","","public",,,"Alfabetización informacional, Iberoamérica, América Latina, wiki, estado del arte; Information Literacy, Ibero-America, Latin America, wiki, state of the art.",,"The objective of this Wiki has been to build in a collaborative and continuous way, a state of the art on the Information Literacy in Ibero-America. 
The Wiki started in 2011, and this publication present, its update until mid 2018, which reports 2400 contents. 
This publication is made, considering that due to the closure of the Wikispaces platform (http://alfiniberoamerica.wikispaces.com/), this project will migrate to another platform, but not to lose this historical memory, this State of the Art, this compilation is published, so that it continues to be available and thus be able to contribute to all those interested in information literacy.","2018-07",,,,,,"Escuela Interamericana de Bibliotecología - Universidad de Antioquia (Medellín-Colombia)",,,,,,,,,,,,,,,,,,,,,"",,"","",,"","",,,,,,"",,,,,,,"",,,,,"",,,,,"","",,,,,"","",,,,,"El objetivo de este Wiki ha sido construir de una manera colaborativa y continua, un estado del arte sobre la Alfabetización Informacional en Iberoamérica.
El Wiki inició en 2011, y esta publicación presenta, su actualización hasta mediados de 2018, la cual llega a reportar 2400 contenidos.
Se hace esta publicación, considerando que debido a el cierre de la plataforma Wikispaces (http://alfiniberoamerica.wikispaces.com/), este proyecto migrará a otra plataforma, pero para no perder esta memoria histórica, este Estado del Arte, se publica esta compilación, para que siga estando disponible y así poder aportar a todos los interesados en la alfabetización informacional.

(NOTA: Agradecimiento a los estudiantes que durante estos años apoyaron el proyecto: Mariana Jiménez, Daniel Mejía Ushima, María Isabel Flórez, Luz Stella Cossio, Katerine Tarriba).","es","http://alfineniberoamerica.wikidot.com/",,"Agradecimiento a los estudiantes que durante estos años apoyaron el proyecto: Mariana Jiménez, Daniel Mejía Ushima, María Isabel Flórez, Luz Stella Cossio, Katerine Tarriba",,,,,"es","TRUE",,"AR-",,"http://hdl.handle.net/10760/33206","no",,"info:eu-repo/semantics/other","info:eu-repo/semantics/openAccess"
"33206",,,,,,,,,,,,,,,,,,,,,,,,,,,,,,,,,,,,,,,,,,,,,,,,,,,,,,,,,,,,,,,,,,,,,,,,,,,,,,,,,,,,,,,,,,,,,,,,,,,,,,,,,,,,,,,,,,,,,,,,,,"http://alfiniberoamerica.wikispaces.com/",,,,,,,,,,"BO-",,,,,,
"33206",,,,,,,,,,,,,,,,,,,,,,,,,,,,,,,,,,,,,,,,,,,,,,,,,,,,,,,,,,,,,,,,,,,,,,,,,,,,,,,,,,,,,,,,,,,,,,,,,,,,,,,,,,,,,,,,,,,,,,,,,,,,,,,,,,,,"BR-",,,,,,
"33206",,,,,,,,,,,,,,,,,,,,,,,,,,,,,,,,,,,,,,,,,,,,,,,,,,,,,,,,,,,,,,,,,,,,,,,,,,,,,,,,,,,,,,,,,,,,,,,,,,,,,,,,,,,,,,,,,,,,,,,,,,,,,,,,,,,,"CL-",,,,,,
"33206",,,,,,,,,,,,,,,,,,,,,,,,,,,,,,,,,,,,,,,,,,,,,,,,,,,,,,,,,,,,,,,,,,,,,,,,,,,,,,,,,,,,,,,,,,,,,,,,,,,,,,,,,,,,,,,,,,,,,,,,,,,,,,,,,,,,"CO-",,,,,,
"33206",,,,,,,,,,,,,,,,,,,,,,,,,,,,,,,,,,,,,,,,,,,,,,,,,,,,,,,,,,,,,,,,,,,,,,,,,,,,,,,,,,,,,,,,,,,,,,,,,,,,,,,,,,,,,,,,,,,,,,,,,,,,,,,,,,,,"CR-",,,,,,
"33206",,,,,,,,,,,,,,,,,,,,,,,,,,,,,,,,,,,,,,,,,,,,,,,,,,,,,,,,,,,,,,,,,,,,,,,,,,,,,,,,,,,,,,,,,,,,,,,,,,,,,,,,,,,,,,,,,,,,,,,,,,,,,,,,,,,,"CU-",,,,,,
"33206",,,,,,,,,,,,,,,,,,,,,,,,,,,,,,,,,,,,,,,,,,,,,,,,,,,,,,,,,,,,,,,,,,,,,,,,,,,,,,,,,,,,,,,,,,,,,,,,,,,,,,,,,,,,,,,,,,,,,,,,,,,,,,,,,,,,"DO-",,,,,,
"33206",,,,,,,,,,,,,,,,,,,,,,,,,,,,,,,,,,,,,,,,,,,,,,,,,,,,,,,,,,,,,,,,,,,,,,,,,,,,,,,,,,,,,,,,,,,,,,,,,,,,,,,,,,,,,,,,,,,,,,,,,,,,,,,,,,,,"EC-",,,,,,
"33206",,,,,,,,,,,,,,,,,,,,,,,,,,,,,,,,,,,,,,,,,,,,,,,,,,,,,,,,,,,,,,,,,,,,,,,,,,,,,,,,,,,,,,,,,,,,,,,,,,,,,,,,,,,,,,,,,,,,,,,,,,,,,,,,,,,,"ES-",,,,,,
"33206",,,,,,,,,,,,,,,,,,,,,,,,,,,,,,,,,,,,,,,,,,,,,,,,,,,,,,,,,,,,,,,,,,,,,,,,,,,,,,,,,,,,,,,,,,,,,,,,,,,,,,,,,,,,,,,,,,,,,,,,,,,,,,,,,,,,"GT-",,,,,,
"33206",,,,,,,,,,,,,,,,,,,,,,,,,,,,,,,,,,,,,,,,,,,,,,,,,,,,,,,,,,,,,,,,,,,,,,,,,,,,,,,,,,,,,,,,,,,,,,,,,,,,,,,,,,,,,,,,,,,,,,,,,,,,,,,,,,,,"HN-",,,,,,
"33206",,,,,,,,,,,,,,,,,,,,,,,,,,,,,,,,,,,,,,,,,,,,,,,,,,,,,,,,,,,,,,,,,,,,,,,,,,,,,,,,,,,,,,,,,,,,,,,,,,,,,,,,,,,,,,,,,,,,,,,,,,,,,,,,,,,,"MX-",,,,,,
"33206",,,,,,,,,,,,,,,,,,,,,,,,,,,,,,,,,,,,,,,,,,,,,,,,,,,,,,,,,,,,,,,,,,,,,,,,,,,,,,,,,,,,,,,,,,,,,,,,,,,,,,,,,,,,,,,,,,,,,,,,,,,,,,,,,,,,"NI-",,,,,,
"33206",,,,,,,,,,,,,,,,,,,,,,,,,,,,,,,,,,,,,,,,,,,,,,,,,,,,,,,,,,,,,,,,,,,,,,,,,,,,,,,,,,,,,,,,,,,,,,,,,,,,,,,,,,,,,,,,,,,,,,,,,,,,,,,,,,,,"PE-",,,,,,
"33206",,,,,,,,,,,,,,,,,,,,,,,,,,,,,,,,,,,,,,,,,,,,,,,,,,,,,,,,,,,,,,,,,,,,,,,,,,,,,,,,,,,,,,,,,,,,,,,,,,,,,,,,,,,,,,,,,,,,,,,,,,,,,,,,,,,,"PR-",,,,,,
"33206",,,,,,,,,,,,,,,,,,,,,,,,,,,,,,,,,,,,,,,,,,,,,,,,,,,,,,,,,,,,,,,,,,,,,,,,,,,,,,,,,,,,,,,,,,,,,,,,,,,,,,,,,,,,,,,,,,,,,,,,,,,,,,,,,,,,"PT-",,,,,,
"33206",,,,,,,,,,,,,,,,,,,,,,,,,,,,,,,,,,,,,,,,,,,,,,,,,,,,,,,,,,,,,,,,,,,,,,,,,,,,,,,,,,,,,,,,,,,,,,,,,,,,,,,,,,,,,,,,,,,,,,,,,,,,,,,,,,,,"PY-",,,,,,
"33206",,,,,,,,,,,,,,,,,,,,,,,,,,,,,,,,,,,,,,,,,,,,,,,,,,,,,,,,,,,,,,,,,,,,,,,,,,,,,,,,,,,,,,,,,,,,,,,,,,,,,,,,,,,,,,,,,,,,,,,,,,,,,,,,,,,,"SV-",,,,,,
"33206",,,,,,,,,,,,,,,,,,,,,,,,,,,,,,,,,,,,,,,,,,,,,,,,,,,,,,,,,,,,,,,,,,,,,,,,,,,,,,,,,,,,,,,,,,,,,,,,,,,,,,,,,,,,,,,,,,,,,,,,,,,,,,,,,,,,"UY-",,,,,,
"33206",,,,,,,,,,,,,,,,,,,,,,,,,,,,,,,,,,,,,,,,,,,,,,,,,,,,,,,,,,,,,,,,,,,,,,,,,,,,,,,,,,,,,,,,,,,,,,,,,,,,,,,,,,,,,,,,,,,,,,,,,,,,,,,,,,,,"VE-",,,,,,
