"eprintid","rev_number","eprint_status","userid","importid","source","dir","datestamp","lastmod","status_changed","type","succeeds","commentary","metadata_visibility","contact_email","latitude","longitude","relation_type","relation_uri","item_issues_id","item_issues_type","item_issues_description","item_issues_timestamp","item_issues_status","item_issues_reported_by","item_issues_resolved_by","item_issues_comment","item_issues_count","sword_depositor","sword_slug","creators_name.family","creators_name.given","creators_name.lineage","creators_name.honourific","creators_id","contributors_type","contributors_name.family","contributors_name.given","contributors_name.lineage","contributors_name.honourific","contributors_id","corp_creators","title","ispublished","subjects","divisions","full_text_status","monograph_type","pres_type","keywords","note","abstract","date","date_type","series","publication","volume","number","publisher","place_of_pub","pagerange","pages","event_title","event_location","event_dates","event_type","id_number","patent_applicant","institution","department","thesis_type","refereed","isbn","issn","book_title","editors_name.family","editors_name.given","editors_name.lineage","editors_name.honourific","editors_id","official_url","related_url_url","related_url_type","referencetext","funders","projects","output_media","exhibitors_name.family","exhibitors_name.given","exhibitors_name.lineage","exhibitors_name.honourific","exhibitors_id","num_pieces","composition_type","producers_name.family","producers_name.given","producers_name.lineage","producers_name.honourific","producers_id","conductors_name.family","conductors_name.given","conductors_name.lineage","conductors_name.honourific","conductors_id","lyricists_name.family","lyricists_name.given","lyricists_name.lineage","lyricists_name.honourific","lyricists_id","accompaniment","data_type","pedagogic_type","completion_time","task_purpose","skill_areas","copyright_holders","learning_level","gscholar_impact","gscholar_cluster","gscholar_datestamp","othersabs_othabstracts","othersabs_language","altloc","chapter","commref","linkdata","confdates","conference","confloc","linguabib","pubdom","reportno","countries","thesistype","handle","fp7_project","fp7_project_id","fp7_type","access_rights"
"8962","2","archive","2408",,,"disk0/00/00/89/62","2007-02-13","2014-10-02 12:06:25","2012-12-14 19:43:10","confpaper",,,"show",,,,"","","","","","","","","","",,,,"Brathwaite","Tamara","","","","",,,,,"","","A PLACE FOR THE DISPLACED: A CONSIDERATION OF THE TYPES OF SERVICES CARIBBEAN LIBRARIES SHOULD PROVIDE TO REFUGEES","pub","FZ","","public",,,"Caribbean Area ; Library Services ; Refugees; Information Services ; Library Collection Development; Library Planning; Outreach Programs; User Needs",,"Many libraries in the Caribbean may have considered amenities for short stay users… tourists, visitors and the odd researcher, but many may not have considered the plight of the stateless as a user group in Caribbean libraries. With the prevalence of disasters in the region – Hurricane Ivan as the most recent and devastating example – the impact of migratory workers that the CSME will bring and the impending issuance of national refugee laws in the region; it is but a matter of time before regional libraries become a refuge for the refugee. This paper will outline (1) current trends globally and regionally and suggest why it is important not to deny the human rights of this so far undocumented user group in the Caribbean and (2) ways in which refugees cab be accommodated by libraries. Now, more than ever, libraries in the region should consider the types of services that should be provided to refugees since current trends indicate that this user group will most likely expand and have an impact on library services in the not to distant future.","2006",,,,,,,,,,,,,,,,,,,"TRUE",,,,,,,,"",,"","","Amnesty International. Trinidad and Tobago: Fear of torture or ill-treatment (28 December 2005) http://web.amnesty.org/library/prin/ENGAMR490012004. 

Birmingham City Council. http://www.birmingham.gov.uk/GenerateContent?CONTENT_ITEM_ID=13826&CONTENT_ITEM_TYPE=0&MENU_ID=5359. Last updated 15 May 2006.

Books and services in world languages. http://www.leeds.gov.uk/living/libraries/Library%20services/Books%20and%20services%20in%20world%20languages/page.aspx?style=. Retrieved 19 May 2006

CARICOM. The CARICOM Single Market and Economy (CSME). http://www.caricom.org/jsp/ single_market/single_market_index.jsp?menu=csme. Retrieved 4 May 2006

Caux, Hélène. (24 February 2006) New partnership to bring better health to Africa's refugees. UNCHR. http://www.unhcr.org/cgi-bin/texis/vtx/news/opendoc.htm?tbl=NEWS&id=43ff36594. 

ECLAC. (14-15 September 2005). Expert group on migration, human rights and development. [LC/CAR/L.57] Port of Spain, Trinidad and Tobago, 

Jinkson, Bethan. “Hmong’s new lives in Caribbean” BBCNews. Retreived 28 December 2005 from http://newsvote.bbc.co.uk/mpapps/pagetools/print/news.bbc.co.uk/2/hi/asia-pacific/34980. 

Leeds City Council. Reference and research services. http://www.leeds.gov.uk/Reference%20and%20research%20services/page.aspx. Retrieved 19 May 2006.

Library Services. Nottingham City Council. Retrieved 19 May 2006 from http://www.nottinghamcity.gov.uk/sitemap/leisure_and_culture/ libraries/library_services.htm

MacDonald, Morag and David Kane. (2005). Public library services to refugees and asylum seekers in the North East. Final report to the Northern Chief Librarians Multicultural group of the North East Museums, Libraries and Archives Council (NEMLAC). Birmingham: University of Central England.

Mason, Elisa. (1999) Against all odds: Refugees coping in a strange land. American Libraries. 30, 7, 44-47.

Multikulti. Retrieved 19 May 2006 from http://www.multikulti.org.uk/about/

National Library of Canada. Toolkit – Multicultural resources and services. Created 22 May 2005, Updated 15 August 2005. Retrieved from http://www.collectionscanada.ca/multicultural/r25-300-e.html. 

Nurse, Keith. (March 2006) Migration and development in the Caribbean. The World Today. Retrieved from http://www.uwi.tt/iir/news/theworldtoday/Article6.pdf. 

The Network: Tackling social exclusion in libraries, museum archives and galleries. 
Services for asylum seekers and refugees. Retrieved from http://www.seapn.org.uk/refugees.html. Last updated 5 April 2006.

United Nations.  (November 2005) .Convention and protocol relating to the status of refugees. http://www.unhcr.ch/cgi-bin/texis/vtx/home. 

United Nations. Universal Declaration of Human Rights. Article 14. Retrieved from http://www.un.org/Overview/rights.html.

United Nations Information Centre for the Caribbean Area. (November 2004) Basic facts on asylum seekers, refugees and internally displaced persons. Port of Spain: UNICPOS. 

United Nations Resident Coordinator. UNDP. (28 December 2005) The United Nations Resident Coordinators system for Trinidad and Tobago: The Convention on the Status of Refugees.

UNHCR. (2006) State of the Worlds Refugee Report: human displacement in the new millennium. Oxford: Oxford University Press.

UNHCR. (5-7 March 2002) Summary of the strategic oral presentation of UNHCR’s operation in the Americas, 23rd meeting of the standing committee., pp. 1-6.","","",,,,,,"",,,,,,,"",,,,,"",,,,,"","",,,,,"","",,,,,"","","",,,,"May 28th- June 2nd 2006","Association of Caribbean University Research and Institutional Libraries (ACURIL) XXXVI Conference : “Information and Human Rights""","Wyndham Resort, Aruba","en","FALSE",,"TT-",,"http://hdl.handle.net/10760/8962",,,"info:eu-repo/semantics/other",
"8962",,,,,,,,,,,,,,,,,,,,,,,,,,,,,,,,,,,,,,,,,,,,"BC",,,,,,,,,,,,,,,,,,,,,,,,,,,,,,,,,,,,,,,,,,,,,,,,,,,,,,,,,,,,,,,,,,,,,,,,,,,,,,,,,,,,,,,,,,,,,,
"8962",,,,,,,,,,,,,,,,,,,,,,,,,,,,,,,,,,,,,,,,,,,,"CZ",,,,,,,,,,,,,,,,,,,,,,,,,,,,,,,,,,,,,,,,,,,,,,,,,,,,,,,,,,,,,,,,,,,,,,,,,,,,,,,,,,,,,,,,,,,,,,
"8956","2","archive","1646",,,"disk0/00/00/89/56","2007-02-12","2014-10-02 12:06:25","2012-12-14 19:42:54","newsarticle",,,"show",,,,"","","","","","","","","","",,,,"Papin-Ramcharan","Jennifer","","","","",,,,,"","","INTELLECTUAL PROPERTY AND UNIVERSITIES","pub","ED","","public",,,"University of the West Indies,intellectual property,developing country",,"Universities and other institutions of higher learning like the University of the West Indies (UWI), are in the business of creating intellectual property. This article describes the importance of intellectual property protection particularly for developing countries. It also gives the experience of The St. Augustine Campus of the University of the West Indies with intellectual property protection.","2005",,,"UWItoday","Septem",,"The University of the West Indies, St. Augustine Campus",,,,,,,,,,,,,"FALSE",,,,,,,,"",,"","",,"","",,,,,,"",,,,,,,"",,,,,"",,,,,"","",,,,,"","",,,,,"","","",,,,,,,"en","FALSE",,"TT-",,"http://hdl.handle.net/10760/8956",,,"info:eu-repo/semantics/other",
"8956",,,,,,,,,,,,,,,,,,,,,,,,,,,,,,,,,,,,,,,,,,,,"BC",,,,,,,,,,,,,,,,,,,,,,,,,,,,,,,,,,,,,,,,,,,,,,,,,,,,,,,,,,,,,,,,,,,,,,,,,,,,,,,,,,,,,,,,,,,,,,
"9640","2","archive","2798",,,"disk0/00/00/96/40","2007-05-30","2014-10-02 12:07:48","2012-12-14 20:02:46","bibliography",,,"show",,,,"","","","","","","","","","",,,,"Quamina-Aiyejina","Lynda","","","","",,,,,"","","Education and Training in Antigua and Barbuda: A Partially Annotated Bibliography","unpub","H.","","public",,,"Education, Training, Antigua and Barbuda, Caribbean, West Indies",,"This bibliography on “Education and Training in Antigua and Barbuda"" has been specifically prepared for the UWI School of Continuing Studies’ Antigua and Barbuda Conference. An attempt has been made to be as comprehensive as possible, but the compiler recognizes that because of the weak bibliographical coverage of the literature of the region, important items may have been omitted. This is especially true for policy documents emanating from official sources, since many of these do not reach library and documentation centres. This publication contributes to the development of content for a computerized database being developed by the Caribbean Educational Research Information Service (CERIS) at the School of Education, UWI, St. Augustine.","2003",,,,,,"Caribbean Educational Research Information Services (CERIS), School of Education, The University of the West Indies, St. Augustine Campus. Prepared on the occasion of the Antigua and Barbuda Conference: Beyond Walls: Multi-Disciplinary Perspectives",,,,,,,,,,,,,"FALSE",,,,"The University of the West Indies","School of Continuing Studies","","","",,"","",,"","",,,,,,"",,,,,,,"",,,,,"",,,,,"","",,,,,"","",,,,,"","","",,,,,,,"en","FALSE",,"TT-",,"http://hdl.handle.net/10760/9640",,,"info:eu-repo/semantics/other",
"9640",,,,,,,,,,,,,,,,,,,,,,,,,,,,,,,,,,,,,,,,,,,,"G.",,,,,,,,,,,,,,,,,,,,,,,,,,,,,,,,,,,,,,,,,,,,,,,,,,,,,,,,,,,,,,,,,,,,,,,,,,,,,,,,,,,,,,,,,,,,,,
"9637","2","archive","2798",,,"disk0/00/00/96/37","2007-05-30","2014-10-02 12:07:48","2012-12-14 20:02:40","bibliography",,,"show",,,,"","","","","","","","","","",,,,"Quamina-Aiyejina","Lynda","","","","",,,,,"","","Education and Training in Belize: A Partially Annotated Bibliography","unpub","H.","","public",,,"Education, Training, Cayman Islands,Caribbean, West Indies",,"This bibliography on “Education and Training in Belize” has been specifically prepared for the UWI School of Continuing Studies’ Belize Conference. An attempt has been made to be as comprehensive as possible, but the compiler recognizes that because of the weak bibliographical coverage of the literature of the region, important items may have been omitted. This is especially true for policy documents emanating from official sources, since many of these do not reach library and documentation centres. This publication contributes to the development of content for a computerized database being developed by the Caribbean Educational Research Information Service (CERIS) at the School of Education, UWI, St. Augustine.","2001",,,,,,"Caribbean Educational Research Information Services (CERIS), School of Education, The University of the West Indies, St. Augustine Campus. Prepared on the occasion of the Belize Conference: Beyond Walls: Multi-Disciplinary Perspectives",,,,,,,,,,,,,"FALSE",,,,"The University of the West Indies","School of Continuing Studies","","","",,"","",,"","",,,,,,"",,,,,,,"",,,,,"",,,,,"","",,,,,"","",,,,,"","","",,,,,,,"en","FALSE",,"TT-",,"http://hdl.handle.net/10760/9637",,,"info:eu-repo/semantics/other",
"9637",,,,,,,,,,,,,,,,,,,,,,,,,,,,,,,,,,,,,,,,,,,,"G.",,,,,,,,,,,,,,,,,,,,,,,,,,,,,,,,,,,,,,,,,,,,,,,,,,,,,,,,,,,,,,,,,,,,,,,,,,,,,,,,,,,,,,,,,,,,,,
"9636","2","archive","2798",,,"disk0/00/00/96/36","2007-05-31","2014-10-02 12:07:48","2012-12-14 20:02:38","bibliography",,,"show",,,,"","","","","","","","","","",,,,"Quamina-Aiyejina","Lynda","","","","",,,,,"","","Education and Training in Dominica: A Bibliography with Abstracts","unpub","H.","","public",,,"Education, Training, Dominica,Caribbean, West Indies",,"This bibliography on “Education and Training in Dominica” has been specifically prepared for the UWI School of Continuing Studies’ Dominica Conference. An attempt has been made to be as comprehensive as possible, but the compiler recognizes that because of the weak bibliographical coverage of the literature of the region, important items may have been omitted. This is especially true for policy documents emanating from official sources, since many of these do not reach library and documentation centres. This publication contributes to the development of content for a computerized database being developed by the Caribbean Educational Research Information Service (CERIS) at the School of Education, UWI, St. Augustine.","2000",,,,,,"Caribbean Educational Research Information Services (CERIS), School of Education, The University of the West Indies, St. Augustine Campus. Prepared on the occasion of the Dominica Country Conference: Beyond Walls: Multi-Disciplinary Perspectives",,,,,,,,,,,,,"FALSE",,,,"The University of the West Indies","School of Continuing Studies","","","",,"","",,"","",,,,,,"",,,,,,,"",,,,,"",,,,,"","",,,,,"","",,,,,"","","",,,,,,,"en","FALSE",,"TT-",,"http://hdl.handle.net/10760/9636",,,"info:eu-repo/semantics/other",
"9636",,,,,,,,,,,,,,,,,,,,,,,,,,,,,,,,,,,,,,,,,,,,"G.",,,,,,,,,,,,,,,,,,,,,,,,,,,,,,,,,,,,,,,,,,,,,,,,,,,,,,,,,,,,,,,,,,,,,,,,,,,,,,,,,,,,,,,,,,,,,,
"9635","2","archive","2798",,,"disk0/00/00/96/35","2007-05-30","2014-10-02 12:07:48","2012-12-14 20:02:37","bibliography",,,"show",,,,"","","","","","","","","","",,,,"Quamina-Aiyejina","Lynda","","","","",,,,,"","","Education and Training in Grenada: A Partially Annotated Bibliography","unpub","H.","","public",,,"Education, Training, Grenada,Caribbean, West Indies",,"This bibliography on “Education and Training in Grenada” has been specifically prepared for the UWI School of Continuing Studies’ Grenada Conference. An attempt has been made to be as comprehensive as possible, but the compiler recognizes that because of the weak bibliographical coverage of the literature of the region, important items may have been omitted. This is especially true for policy documents emanating from official sources, since many of these do not reach library and documentation centres. This publication contributes to the development of content for a computerized database developed by the Caribbean Educational Research Information Service (CERIS) at the School of Education, UWI, St. Augustine.","2002",,,,,,"Caribbean Educational Research Information Services (CERIS), School of Education, The University of the West Indies, St. Augustine Campus.Prepared on the occasion of the Grenada Country Conference: Beyond Walls: Multi-Disciplinary Perspectives",,,,,,,,,,,,,"FALSE",,,,"The University of the West Indies","School of Continuing Studies","","","",,"","",,"","",,,,,,"",,,,,,,"",,,,,"",,,,,"","",,,,,"","",,,,,"","","",,,,,,,"en","FALSE",,"TT-",,"http://hdl.handle.net/10760/9635",,,"info:eu-repo/semantics/other",
"9635",,,,,,,,,,,,,,,,,,,,,,,,,,,,,,,,,,,,,,,,,,,,"G.",,,,,,,,,,,,,,,,,,,,,,,,,,,,,,,,,,,,,,,,,,,,,,,,,,,,,,,,,,,,,,,,,,,,,,,,,,,,,,,,,,,,,,,,,,,,,,
"9632","2","archive","2798",,,"disk0/00/00/96/32","2007-05-31","2014-10-02 12:07:48","2012-12-14 20:02:31","bibliography",,,"show",,,,"","","","","","","","","","",,,,"Quamina-Aiyejina","Lynda","","","","",,,,,"","","Education and Training in Montserrat:A Partially Annotated Bibliography","unpub","H.","","public",,,"Education, Training, Monserrat, West Indies, Caribbean",,"This bibliography on “Education and Training in Montserrat” has been specifically prepared for the UWI School of Continuing Studies’ Montserrat Conference (2002). An attempt has been made to be as comprehensive as possible, but because of the weak bibliographical coverage of the literature of the region, important items may have been omitted. This is especially true for policy documents emanating from official sources.","2002",,,,,,"Caribbean Educational Research Information Service (CERIS),School of Education, The University of the West Indies, St. Augustine. Prepared on the occasion of the Montserrat Conference: Beyond Walls: Multi-Disciplinary Perspectives.",,,,,,,,,,,,,"FALSE",,,,"The University of the West Indies","School of Continuing Studies","","","",,"","",,"","",,,,,,"",,,,,,,"",,,,,"",,,,,"","",,,,,"","",,,,,"","","",,,,,,,"en","FALSE",,"TT-",,"http://hdl.handle.net/10760/9632",,,"info:eu-repo/semantics/other",
"9632",,,,,,,,,,,,,,,,,,,,,,,,,,,,,,,,,,,,,,,,,,,,"G.",,,,,,,,,,,,,,,,,,,,,,,,,,,,,,,,,,,,,,,,,,,,,,,,,,,,,,,,,,,,,,,,,,,,,,,,,,,,,,,,,,,,,,,,,,,,,,
"9633","2","archive","2798",,,"disk0/00/00/96/33","2007-05-30","2014-10-02 12:07:48","2012-12-14 20:02:33","bibliography",,,"show",,,,"","","","","","","","","","",,,,"Quamina-Aiyejina","Lynda","","","","",,,,,"","","Education and Training in St. Vincent and the Grenadines: A Partially Annotated Bibliography","unpub","G.","","public",,,"St. Vincent and the Grenadines, West Indies, Caribbean, Education, Training",,"This bibliography on “Education and Training in St. Vincent and the Grenadines” has been specifically prepared for the UWI School of Continuing Studies’ St. Vincent and the Grenadines Conference. It covers all aspects of education and training in St. Vincent and the Grenadines including: Academic achievement,economics of education, educational infrastructure, literacy and mathematics education.","2003",,,,,,"Caribbean Educational Research Information Service (CERIS),School of Education, The University of the West Indies, St. Augustine, Prepared on the occasion of the St. Vincent and the Grenadines Conference: Beyond Walls: Multi-Disciplinary Perspectives",,,,,,,,,,,,,"FALSE",,,,"The University of the West Indies","School of Continuing Studies","","","",,"","",,"","",,,,,,"",,,,,,,"",,,,,"",,,,,"","",,,,,"","",,,,,"","","",,,,,,,"en","FALSE",,"TT-",,"http://hdl.handle.net/10760/9633",,,"info:eu-repo/semantics/other",
"9633",,,,,,,,,,,,,,,,,,,,,,,,,,,,,,,,,,,,,,,,,,,,"H.",,,,,,,,,,,,,,,,,,,,,,,,,,,,,,,,,,,,,,,,,,,,,,,,,,,,,,,,,,,,,,,,,,,,,,,,,,,,,,,,,,,,,,,,,,,,,,
"9634","2","archive","2798",,,"disk0/00/00/96/34","2007-05-30","2014-10-02 12:07:48","2012-12-14 20:02:34","bibliography",,,"show",,,,"","","","","","","","","","",,,,"Quamina-Aiyejina","Lynda","","","","",,,,,"","","Education and Training in St.Lucia: A Partially Annotated Bibliography","unpub","H.","","public",,,"St. Lucia, West Indies, Caribbean, Education, Training",,"This bibliography on “Education and Training in St. Lucia” has been specifically prepared for the UWI School of Continuing Studies’ St. Lucia Country Conference. An attempt has been made to be as comprehensive as possible, but because of the weak bibliographical coverage of the literature of the region, important items may have been omitted. This is especially true for policy documents emanating from official sources. It covers all aspects of education and training in St.Lucia including distance education, educational finance,health and family life education and educational reform.","2004",,,,,,"Caribbean Educational Research Information Service (CERIS), School of Education,The University of the West Indies, St. Augustine",,,,,,,,,,,,,"FALSE",,,,"The University of the West Indies","School of Continuing Studies","","","",,"","",,"","",,,,,,"",,,,,,,"",,,,,"",,,,,"","",,,,,"","",,,,,"","","",,,,,,,"en","FALSE",,"TT-",,"http://hdl.handle.net/10760/9634",,,"info:eu-repo/semantics/other",
"9634",,,,,,,,,,,,,,,,,,,,,,,,,,,,,,,,,,,,,,,,,,,,"G.",,,,,,,,,,,,,,,,,,,,,,,,,,,,,,,,,,,,,,,,,,,,,,,,,,,,,,,,,,,,,,,,,,,,,,,,,,,,,,,,,,,,,,,,,,,,,,
"9639","2","archive","2798",,,"disk0/00/00/96/39","2007-05-30","2014-10-02 12:07:48","2012-12-14 20:02:45","bibliography",,,"show",,,,"","","","","","","","","","",,,,"Quamina-Aiyejina","Lynda","","","","",,,,,"","","Education and Training in the Bahamas: A Partially Annotated Bibliography","unpub","H.","","public",,,"Education, Training, Bahamas,Caribbean, West Indies",,"This bibliography on “Education and Training in the Bahamas” has been specifically prepared for the UWI School of Continuing Studies’ Bahamas Conference. Because it was recognized that the Bahamas is served by an academic library—the College of the Bahamas Library—this bibliography was not intended to be as comprehensive as those for the other non-campus countries. In particular, the following types of information were omitted: in-house operational research publications of the Ministry of Education, teachers’ certificate theses, Bachelor of Education (B.Ed.) theses, curriculum and syllabus documents, and textbooks. The focus was therefore mainly on policy documents, post-graduate theses and dissertations, and research reports. This publication contributes to the development of content for a computerized database being developed by the Caribbean Educational Research Information Service (CERIS) at the School of Education, UWI, St. Augustine. A few websites available on the Internet have been included in the bibliography.","2006",,,,,,"Caribbean Educational Research Information Services (CERIS), School of Education, The University of the West Indies, St. Augustine Campus. Prepared on the occasion of the Bahamas Conference: Beyond Walls: Multi-Disciplinary Perspectives",,,,,,,,,,,,,"FALSE",,,,"The University of the West Indies","School of Continuing Studies","","","",,"","",,"","",,,,,,"",,,,,,,"",,,,,"",,,,,"","",,,,,"","",,,,,"","","",,,,,,,"en","FALSE",,"TT-",,"http://hdl.handle.net/10760/9639",,,"info:eu-repo/semantics/other",
"9639",,,,,,,,,,,,,,,,,,,,,,,,,,,,,,,,,,,,,,,,,,,,"G.",,,,,,,,,,,,,,,,,,,,,,,,,,,,,,,,,,,,,,,,,,,,,,,,,,,,,,,,,,,,,,,,,,,,,,,,,,,,,,,,,,,,,,,,,,,,,,
"9638","2","archive","2798",,,"disk0/00/00/96/38","2007-05-30","2014-10-02 12:07:48","2012-12-14 20:02:43","bibliography",,,"show",,,,"","","","","","","","","","",,,,"Quamina-Aiyejina","Lynda","","","","",,,,,"","","Education and Training in the British Virgin Islands: A Partially Annotated Bibliography","unpub","H.","","public",,,"Education, Training, British Virgin Islands,Caribbean, West Indies",,"This bibliography on “Education and Training in the British  Virgin Islands” has been specifically prepared for the UWI School of Continuing Studies’ British Virgin Islands Conference. An attempt has been made to be as comprehensive as possible, but the compiler recognizes that because of the weak bibliographical coverage of the literature of the region, important items may have been omitted. This is especially true for policy documents emanating from official sources, since many of these do not reach library and documentation centres. This publication contributes to the development of content for a computerized database being developed by the Caribbean Educational Research Information Service (CERIS) at the School of Education, UWI, St. Augustine. A few websites available on the Internet have been included in the bibliography.","2005",,,,,,"Caribbean Educational Research Information Services (CERIS), School of Education, The University of the West Indies, St. Augustine Campus. Prepared on the occasion of the British Virgin Is. Country Conference: Beyond Walls:Multi-Disciplinary Perspectives",,,,,,,,,,,,,"FALSE",,,,"The University of the West Indies","School of Continuing Studies","","","",,"","",,"","",,,,,,"",,,,,,,"",,,,,"",,,,,"","",,,,,"","",,,,,"","","",,,,,,,"en","FALSE",,"TT-",,"http://hdl.handle.net/10760/9638",,,"info:eu-repo/semantics/other",
"9638",,,,,,,,,,,,,,,,,,,,,,,,,,,,,,,,,,,,,,,,,,,,"G.",,,,,,,,,,,,,,,,,,,,,,,,,,,,,,,,,,,,,,,,,,,,,,,,,,,,,,,,,,,,,,,,,,,,,,,,,,,,,,,,,,,,,,,,,,,,,,
"9631","2","archive","2798",,,"disk0/00/00/96/31","2007-05-29","2014-10-02 12:07:47","2012-12-14 20:02:30","bibliography",,,"show",,,,"","","","","","","","","","",,,,"Quamina-Aiyejina","Lynda","","","","",,,,,"","","Education and Training in the Cayman Islands: A Partially Annotated Bibliography","unpub","H.","","public",,,"Education, Training, Cayman Islands,Caribbean, West Indies",,"This bibliography on “Education and Training in the Cayman Islands” has been specifically prepared for the UWI School of Continuing Studies’ Cayman Islands Conference. An attempt has been made to be as comprehensive as possible, but the compiler recognizes that because of the weak bibliographical coverage of the literature of the region, important items may have been omitted. This is especially true for policy documents emanating from official sources, since many of these do not reach library and documentation centres. This publication contributes to the development of content for a computerized database being developed by the Caribbean Educational Research Information Service (CERIS) at the School of Education, UWI, St. Augustine. A few websites available on the Internet have been included in the bibliography.","2004",,,,,,"Caribbean Educational Research Information Services (CERIS), School of Education, The University of the West Indies, St. Augustine Campus.Prepared on the occasion of the Cayman Islands Country Conference: Beyond Walls: Multi-Disciplinary Perspectives",,,,,,,,,,,,,"FALSE",,,,"The University of the West Indies","School of Continuing Studies","","","",,"","",,"","",,,,,,"",,,,,,,"",,,,,"",,,,,"","",,,,,"","",,,,,"","","",,,,,,,"en","FALSE",,"TT-",,"http://hdl.handle.net/10760/9631",,,"info:eu-repo/semantics/other",
"9631",,,,,,,,,,,,,,,,,,,,,,,,,,,,,,,,,,,,,,,,,,,,"G.",,,,,,,,,,,,,,,,,,,,,,,,,,,,,,,,,,,,,,,,,,,,,,,,,,,,,,,,,,,,,,,,,,,,,,,,,,,,,,,,,,,,,,,,,,,,,,
"8963","2","archive","2338",,,"disk0/00/00/89/63","2007-02-13","2014-10-02 12:06:25","2012-12-14 19:43:11","newsarticle",,,"show",,,,"","","","","","","","","","",,,,"Ramlogan","Rabia","","","","",,,,,"","","Library Makes Available Online Information","pub","HZ","","public",,,"University of the West Indies, electronic resources, online resources, Caribbean libraries",,"A major part of a modern Library’s collection of information resources consists of an ever-expanding range of online/electronic information resources such as special subject databases, full-text electronic journals and Web sites/subject gateways. This article describes the many online/electronic resources made available to authorized users of the University of the West Indies St. Augustine Campus Libraries.","2006",,,"UWI Today",,"April ","The University of the West Indies, St. Augustine Campus",,,,,,,,,,,,,"FALSE",,,,,,,,"",,"","",,"","",,,,,,"",,,,,,,"",,,,,"",,,,,"","",,,,,"","",,,,,"","","",,,,,,,"en","FALSE",,"TT-",,"http://hdl.handle.net/10760/8963",,,"info:eu-repo/semantics/other",
"8963",,,,,,,,,,,,,,,,,,,,,,,,,,,,,,,,,,,,,,,,,,,,"BG",,,,,,,,,,,,,,,,,,,,,,,,,,,,,,,,,,,,,,,,,,,,,,,,,,,,,,,,,,,,,,,,,,,,,,,,,,,,,,,,,,,,,,,,,,,,,,
