,assuntos
Uso da informação e sociologia da informação,440
Aspectos teóricos e gerais de bibliotecas e informação,348
Formação,273
Tecnologia da informação e tecnologia de biblioteca,269
"Usuários, nível de instrução e leitura",242
Informação na sociedade,237
Uso e impacto da informação,227
Disseminação e difusão da informação,227
Biblioteconomia e Ciência da Informação (CI) como um campo,214
Bibliotecas de Instituições de Ensino Superior,213
Métodos bibliométricos,209
Sociedade da informação,194
Repositórios (baseado ou não em OAI),191
"Indústria, profissão e formação",167
"Fontes de informação, suportes e canais",166
Tratamento da informação para serviços de informação,155
Gerenciamento,152
"Internet, inclusive WWW",148
Bibliotecas como coleções físicas,135
Teoria da informação e teoria de bibliotecas,124
"Impressão, publicação eletrônica, transmissão",123
Política da informação,116
"Catalogação, controle bibliográfico",116
Aspectos curriculares,114
Periódicos eletrônicos,112
Estudos de usuário,111
"Treinamento de usuários, promoções, atividades, educação",108
Bibliotecas Públicas,106
Necessidades de informação e análise de requisitos de informação,106
Relacionamento da Biblioteconomia e CI com outros campos,105
"Periódicos, Publicações",103
Treinamento,102
"Serviços técnicos em bibliotecas, arquivos e museus",101
Software,100
Instrução literária,97
Estruturas de dados e de metadados,96
"Propriedade intelectual: os direitos de autor, propriedade, direitos autorais e copyleft",89
Publicação e questões legais,87
Arquivos,87
Representação do conhecimento,86
"Linguagens de indexação, processos e esquemas",80
Preservação digital,80
"Categorias de usuários: crianças, jovens, grupos sociais",66
"Nenhum destes, mas na seção Gerenciamento",60
Bases de Dados e Redes,58
"Análise de conteúdo (indexação, resumos, classificação)",58
Recursos eletrônicos,58
"Nenhum destes, mas na seção Aspectos teóricos e gerais de bibliotecas e informação",58
"Interfaces de usuário, usabilidade",57
Sistemas de automação de bibliotecas,57
Páginas da Web,56
"Nenhum destes, mas na seção Uso da informação e sociologia da informação",53
"Nenhum destes, mas na seção Tecnologia da informação e tecnologia de bibliotecas",53
Bibliotecas especializadas,51
Estudos de uso,50
Leitura e narração de estórias,48
Metodologia e engenharia de softwares,48
"Transferência da informação: protocolos, formatos, técnicas",46
Portais,45
Bibliotecas escolares,44
"Projeto, desenvolvimento, implementação e manutenção",43
"Audiovisual, Multimídia",41
Preservação de documentos em papel,40
Digitalização,40
"Nenhum destes, mas na seção Usuários, nível de instrução e leitura",40
Sistemas de gerenciamento de bases de dados,37
Bibliotecas de Saúde e Medicina,37
Cooperação,36
Hiperlinks de referência,35
"Nenhum destes, mas na seção Serviços técnicos em bibliotecas, arquivos e museus",34
Gestão de Recursos Humanos,34
Mecanismos de busca,33
Marketing,33
Reorganização,32
"Nenhum destes, mas na seção Fontes de informação, suportes e canais",30
Mídia eletrônica,30
Rede de computadores,29
Documentos de arquivo,29
"Nenhum destes, mas na seção Tratamento da informação para serviços de informação",28
"Nenhum destes, mas na seção Indústria, profissão e formação",27
Livros eletrônicos,27
Liberdade intelectual,26
Catálogos on-line de acesso público (OPAC's),26
Organizações,26
Sistemas de OPACs,25
Seriados (gerenciamento),25
Bibliotecas Nacionais,24
"Apresentação da informação: hipertexto, hipermídia",24
Empregados,23
Bibliotecas científicas,23
Indústria da informação,22
Livros raros e manuscritos,21
Museus,21
Aquisição,20
Bibliotecas governamentais,19
"Nenhum destes, mas na seção Publicação e questões legais",19
Governo Local,18
Literatura cinzenta,18
Agentes inteligentes,16
Economia da informação,16
Recuperação automática de texto,15
Censura,15
"Nenhum destes, mas na seção Bibliotecas como coleções físicas",14
Disseminação de Documentos,14
Telecomunicações,14
Biografias,13
Finanças,13
Processamento automatizado de idiomas,13
Impressos em geral,12
Circulação,12
Meios de comunicação de massa,12
Arquitetura,11
"Planejamento, projeto, mudança",11
Manutenção de registros (cadastros),11
"Material não impresso, mimeografado, datilografado, manuscrito etc.",10
Bibliotecas técnicas,10
Computadores,10
Recursos Financeiros,9
Sistemas de imagens,9
Situações de calamidade,8
Câmeras digitais,8
"Edifícios de bibliotecas, arquivos e museus",8
Bibliotecas Mundiais,7
Indústria de software,6
Segurança de computadores e redes,6
Sistemas de Gerenciamento de Bancos de Dados orientados a objetos,6
Indústria de computadores e telecomunicações,5
Técnicas de Armazenamento,5
Relações Públicas,5
Servidores on-line,5
Microformas,5
Bibliotecas Particulares,4
"Nenhum destes, mas na seção Técnicas de Armazenamento",3
Empréstimo interbibliotecário,3
Centros de recursos,3
Filtros e sistemas de filtragem,3
Venda de livros,3
Autenticação e controle de acesso,3
Scanners,2
CD-ROM,2
Segurança,1
Fotocopiadoras,1
Autoridades Centrais,1
Inventário,1
Veículos,1
