"eprintid","rev_number","eprint_status","userid","importid","source","dir","datestamp","lastmod","status_changed","type","succeeds","commentary","metadata_visibility","contact_email","latitude","longitude","relation_type","relation_uri","item_issues_id","item_issues_type","item_issues_description","item_issues_timestamp","item_issues_status","item_issues_reported_by","item_issues_resolved_by","item_issues_comment","item_issues_count","sword_depositor","sword_slug","creators_name.family","creators_name.given","creators_name.lineage","creators_name.honourific","creators_id","contributors_type","contributors_name.family","contributors_name.given","contributors_name.lineage","contributors_name.honourific","contributors_id","corp_creators","title","ispublished","subjects","divisions","full_text_status","monograph_type","pres_type","keywords","note","abstract","date","date_type","series","publication","volume","number","publisher","place_of_pub","pagerange","pages","event_title","event_location","event_dates","event_type","id_number","patent_applicant","institution","department","thesis_type","refereed","isbn","issn","book_title","editors_name.family","editors_name.given","editors_name.lineage","editors_name.honourific","editors_id","official_url","related_url_url","related_url_type","referencetext","funders","projects","output_media","exhibitors_name.family","exhibitors_name.given","exhibitors_name.lineage","exhibitors_name.honourific","exhibitors_id","num_pieces","composition_type","producers_name.family","producers_name.given","producers_name.lineage","producers_name.honourific","producers_id","conductors_name.family","conductors_name.given","conductors_name.lineage","conductors_name.honourific","conductors_id","lyricists_name.family","lyricists_name.given","lyricists_name.lineage","lyricists_name.honourific","lyricists_id","accompaniment","data_type","pedagogic_type","completion_time","task_purpose","skill_areas","copyright_holders","learning_level","gscholar_impact","gscholar_cluster","gscholar_datestamp","othersabs_othabstracts","othersabs_language","altloc","chapter","commref","linkdata","confdates","conference","confloc","linguabib","pubdom","reportno","countries","thesistype","handle","fp7_project","fp7_project_id","fp7_type","access_rights"
"39487","21","archive","46583",,,"disk0/00/03/94/87","2020-01-08 08:51:18","2020-01-08 08:51:18","2020-01-08 08:51:18","tutorial",,,"show",,,,"","","","","","","","","","",,,,"Asam","Muhammad","","","","",,,,,"","","Security Issues and Requirements in Body Area Networks","unpub","LA","","public",,,"Security, issues, requirements, DoS Attacks",,"Wireless Body Area Network (WBAN) refers to short-range, wireless communications near or inside a human body. WBAN is emerging solution to cater the needs of local and remote health care related facility. Medical and non-medical applications have been revolutionarily under consideration for providing a healthy and gratify service to the humanity. This article addresses the security issues and requirements in WEBANs.","2020-01-06",,,,,,,,,,,,,,,,,,,,,,,,,,,"",,"","",,"","",,,,,,"",,,,,,,"",,,,,"",,,,,"","",,,,,"","",,,,,"","","",,,,,,,"en","TRUE",,"BE-",,"http://hdl.handle.net/10760/39487","no",,"info:eu-repo/semantics/other","info:eu-repo/semantics/openAccess"
"39487",,,,,,,,,,,,,,,,,,,,,,,,,,,,,,"Khurrum","Abbas","","",,,,,,,,,,,"LB",,,,,,,,,,,,,,,,,,,,,,,,,,,,,,,,,,,,,,,,,,,,,,,,,,,,,,,,,,,,,,,,,,,,,,,,,,,,,,,,,,,,,,,,"BG-",,,,,,
"39487",,,,,,,,,,,,,,,,,,,,,,,,,,,,,,"Haider","Zeeshan","","",,,,,,,,,,,"LC",,,,,,,,,,,,,,,,,,,,,,,,,,,,,,,,,,,,,,,,,,,,,,,,,,,,,,,,,,,,,,,,,,,,,,,,,,,,,,,,,,,,,,,,"LU-",,,,,,
"39487",,,,,,,,,,,,,,,,,,,,,,,,,,,,,,"Ghuman","Kashif","","",,,,,,,,,,,"LH",,,,,,,,,,,,,,,,,,,,,,,,,,,,,,,,,,,,,,,,,,,,,,,,,,,,,,,,,,,,,,,,,,,,,,,,,,,,,,,,,,,,,,,,"PL-",,,,,,
"39487",,,,,,,,,,,,,,,,,,,,,,,,,,,,,,,,,,,,,,,,,,,,"LT.",,,,,,,,,,,,,,,,,,,,,,,,,,,,,,,,,,,,,,,,,,,,,,,,,,,,,,,,,,,,,,,,,,,,,,,,,,,,,,,,,,,,,,,,"PT-",,,,,,
"39487",,,,,,,,,,,,,,,,,,,,,,,,,,,,,,,,,,,,,,,,,,,,,,,,,,,,,,,,,,,,,,,,,,,,,,,,,,,,,,,,,,,,,,,,,,,,,,,,,,,,,,,,,,,,,,,,,,,,,,,,,,,,,,,,,,,,"SE-",,,,,,
"39487",,,,,,,,,,,,,,,,,,,,,,,,,,,,,,,,,,,,,,,,,,,,,,,,,,,,,,,,,,,,,,,,,,,,,,,,,,,,,,,,,,,,,,,,,,,,,,,,,,,,,,,,,,,,,,,,,,,,,,,,,,,,,,,,,,,,"TR-",,,,,,
"4804","2","archive","79",,,"disk0/00/00/48/04","2004-06-10","2014-10-02 11:58:32","2012-12-14 18:01:15","journalp",,,"show",,,,"","","","","","","","","","",,,,"Pigott","Ian M.","","","","",,,,,"","","Servicios musicales en red para las Bibliotecas europeas","pub","D.","","public",,,"Internet, bibliotecas, Música, cooperacion, red de bibliotecas, libraries, music, cooperation, network",,"The Libraries of the European Commission has animated during some years the cooperation between libraries, specialists in the field of TI and suppliers of information like means to establish a structure able to provide new services librarians for the Society of the Information.","1997",,,"Métodos de Información (MEI)","4","21","Associació Valenciana d'Especialistes en Informació (AVEI)",,"38-40",,,,,,,,,,,"TRUE",,,,,,,,"",,"","",,"","",,,,,,"",,,,,,,"",,,,,"",,,,,"","",,,,,"","",,,,,"El sector Bibliotecas del Programa de Aplicaciones Telemáticas de la Comisión Europea ha animado durante algunos años la cooperación entre bibliotecas, especialistas en el campo de la TI y proveedores de información como un medio de establecer una estructura capaz de proporcionar nuevos servicios bibliotecarios para la Sociedad de la Información.","es","",,,,,,,"es","FALSE",,"LU-",,"http://hdl.handle.net/10760/4804",,,"info:eu-repo/semantics/other",
