"eprintid","rev_number","eprint_status","userid","importid","source","dir","datestamp","lastmod","status_changed","type","succeeds","commentary","metadata_visibility","contact_email","latitude","longitude","relation_type","relation_uri","item_issues_id","item_issues_type","item_issues_description","item_issues_timestamp","item_issues_status","item_issues_reported_by","item_issues_resolved_by","item_issues_comment","item_issues_count","sword_depositor","sword_slug","creators_name.family","creators_name.given","creators_name.lineage","creators_name.honourific","creators_id","contributors_type","contributors_name.family","contributors_name.given","contributors_name.lineage","contributors_name.honourific","contributors_id","corp_creators","title","ispublished","subjects","divisions","full_text_status","monograph_type","pres_type","keywords","note","abstract","date","date_type","series","publication","volume","number","publisher","place_of_pub","pagerange","pages","event_title","event_location","event_dates","event_type","id_number","patent_applicant","institution","department","thesis_type","refereed","isbn","issn","book_title","editors_name.family","editors_name.given","editors_name.lineage","editors_name.honourific","editors_id","official_url","related_url_url","related_url_type","referencetext","funders","projects","output_media","exhibitors_name.family","exhibitors_name.given","exhibitors_name.lineage","exhibitors_name.honourific","exhibitors_id","num_pieces","composition_type","producers_name.family","producers_name.given","producers_name.lineage","producers_name.honourific","producers_id","conductors_name.family","conductors_name.given","conductors_name.lineage","conductors_name.honourific","conductors_id","lyricists_name.family","lyricists_name.given","lyricists_name.lineage","lyricists_name.honourific","lyricists_id","accompaniment","data_type","pedagogic_type","completion_time","task_purpose","skill_areas","copyright_holders","learning_level","gscholar_impact","gscholar_cluster","gscholar_datestamp","othersabs_othabstracts","othersabs_language","altloc","chapter","commref","linkdata","confdates","conference","confloc","linguabib","pubdom","reportno","countries","thesistype","handle","fp7_project","fp7_project_id","fp7_type","access_rights"
"22413","14","archive","15586",,,"disk0/00/02/24/13","2014-08-07 11:37:45","2014-10-02 12:30:04","2014-08-07 11:37:45","journalp",,,"show",,,,"","","","","","","","","","",,,,"Banaurs","Daniela ","","","","",,,,,"","","Reading Clubs, Workshops, Reading in the Park","pub","CE","","public",,,"Reading clubs, reading workshops, stimulating creativity.",,"Reading clubs are networks made up of book lovers who read the same book at the same time and then share their ideas and feelings inspired by that reading. This short paper discusses the benefits of reading clubs and reading workshops.","2013-11-15",,,"Journal of Balkan Libraries Union","1","1","Balkan Libraries Union & Trakya University",,"26-27",,,,,,,,,,,"TRUE",,,,,,,,"",,"","","Education, Audiovisual and Culture Executive Agency (2011) ‘Teaching Reading in Europe: Contexts, Policies and Practices’, DOI:10.2797/60196. Available at: http://www.indire.it/lucabas/lkmw_file/eurydice/reading_literacy_EN.pdf [Accessed 20 June 2013] 
 
Guthrie, J. T. and Wigfield, A. (2000) ‘Engagement and motivation in reading’, in: M.L. Kamil, P.B. Mosenthal,P.D. Pearson and R. Barr, eds. Handbook of reading research (Vol. III). New York, Erlbaum, 403-422. 
","","",,,,,,"",,,,,,,"",,,,,"",,,,,"","",,,,,"","",,,,,"","","",,,,,,,"en","FALSE",,"RO-",,"http://hdl.handle.net/10760/22413",,,"info:eu-repo/semantics/other",
"22413",,,,,,,,,,,,,,,,,,,,,,,,,,,,,,,,,,,,,,,,,,,,"CF",,,,,,,,,,,,,,,,,,,,,,,,,,,,,,,,,,,,,,,,,,,,,,,,,,,,,,,,,,,,,,,,,,,,,,,,,,,,,,,,,,,,,,,,,,,,,,
"10178","2","archive","1461",,,"disk0/00/01/01/78","2007-08-13","2014-10-02 12:09:00","2012-12-14 20:16:18","journalp",,,"show",,,,"","","","","","","","","","",,,,"Buckland","Michael K.","","","","",,,,,"","","Reproiectarea Serviciilor de Biblioteca Analiza Accesului Bibliografic","pub","AB","","public",,,"bibliografie, acces bibliografic, referinte bibliografice, cataloage de biblioteca",,"The article is a selective translation from the famous book ""Redesigning Library Services :A manifesto"" , written by Michael Buckland ; it analises bibliographies, their classification, the catalog as bibliographic form, and especially the bibliographic acess.","2005",,,"CARTEA : Revista Bibliotecii Judeţene ""C. Sturdza"" Bacău","1","1","Biblioteca Judeteana ""C. Sturdza"" Bacau",,"6-8",,,,,,,,,,,"FALSE",,,,,,,,"",,"","",,"","",,,,,,"",,,,,,,"",,,,,"",,,,,"","",,,,,"","",,,,,"Extras din volumul ""Reproiectarea Serviciilor de Biblioteca"" al autorului Michael Buckland, articolul tradus in limba romana, analizeaza bibliografiile din punct de vedere al clasificarii si accesului cu accent pe catalog ca bibliografie.
Romanian translation by Silvia Tomescu","ro","",,,,,,,"ro","FALSE",,"RO-",,"http://hdl.handle.net/10760/10178",,,"info:eu-repo/semantics/other",
"14755","2","archive","4948",,,"disk0/00/01/47/55","2010-07-26","2014-10-02 12:17:15","2012-12-14 22:22:48","other",,,"show",,,,"","","","","","","","","","",,,,"Constantinescu","Nicolaie","","","","",,,,,"","","Adapting the information professionals to the digital collections universe","pub","AC","","public",,,"library evolution, archive evolution, museum evolution, LAM, digital stewardship, convergence, collaboration, information specialist",,"Libraries, Archives and Museums (LAMs) should respond as one articulated entity to the user informational needs and to the demands of the scholarly electronic communication. LAMs are stepping forward into the arena of digital stewardship and this move requires new skills and abilities. The specialists are adapting practices and instruments to the pressing needs for digital curation and preservation. The necessity for an active and continuous partnership between the information-intensive organisations, the scholarly community and general public, must be ensured while incorporating the paradigm of guiding the user and empowering the researcher. There are important questions that future digital stewardship raises related to how the professional profile will look like for those powering the specialised structures put in place to safeguard cultural and scientific heritage. What will be the core competences based on what set of skills and abilities? How will the facilities look like? What will be the general environment, and most importantly, will there be a space for common knowledge exchange for those entrusted with maintaining vast bodies of information. The article searches for answers related to the shifting core competencies, future set of skills and abilities and how future facilities will be shaped by these evolutions. The first step is the establishment of spaces especially destined for knowledge exchange to help converge disciplines within LAM framework. Different structural and cultural chances are revealed, starting from job adverts up to the policies addressing the needs of information and knowledge management.","2010-07-12",,,,,,"Sarminfo",,"1-31",,,,,,,,,,,"TRUE",,,,,,,,"",,"","","Leif Kajberg, Leif Lørring (Eds.) (2005). European curriculum reflections on library and information science education. Copenhagen: Royal School of Librarianship and Information Science. Available at http://www.library.utt.ro/LIS_Bologna.pdf

Zinaida Manžuch, Isto Huvila and Tatjana Aparac-Jelusic. (2005). Digitisation of cultural heritage. In Leif Kajberg, Leif Lørring (2005). European curriculum reflections on library and information science education. Copenhagen: Royal School of Librarianship and Information Science, 37-60

Inge Angevaare (Ed.). (2009). A future for our digital memory: Permanent access toinformation in the Netherlands. (interim report). The Hague: Netherlands Coalition for Digital Preservation. Available at http://www.ncdd.nl/en/activiteiten-natverkenning.php

Digital Literacy: Skills for the Information Society (2007, March). Available at http://ec.europa.eu/information_society/tl/edutra/skills/index_en.htm / digital competence involves the confident and critical use of information society technology (IST) and thus basic skills in information and communication technology (ICT) - http://europa.eu/legislation_summaries/education_training_youth/lifelong_learning/c11090_en.htm

SCONUL Task Force on Information Skills (1999). Information Skills in Higher Education. London: Society of College, National and University Libraries. Available at http://www.sconul.ac.uk/groups/information_literacy/papers/Seven_pillars.html

COUNCIL RESOLUTION No 162/2002 of 25 June 2002 on preserving tomorrow's memory — preserving digital content for future generations. Available at http://eur-lex.europa.eu/LexUriServ/LexUriServ.do?uri=CELEX:32002G0706%2802%29:EN:NOT

Alma Swan and Sheridan Brown (2008). The skills, role and career structure of data scientists and curators: an assessment of current practice and future needs. Truro: Key Perspectives. Available at http://eprints.ecs.soton.ac.uk/16675/

National Science Board (2005). Long-Lived Digital Data Collections Enabling Research and Education in the 21st Century. National Science Foundation. Available at http://www.nsf.gov/pubs/2005/nsb0540/

Anna Gold (2010). Data Curation and Libraries: Short-Term Developments, Long-Term Prospects. Office of the Dean (Library). San Luis Obispo: California Polytechnic State University. Available at: http://works.bepress.com/agold01/9

COMMISSION RECOMMENDATION on the management of intellectual property in knowledge transfer activities and Code of Practice for universities and other public research organisations (Text with EEA relevance). http://ec.europa.eu/invest-in-research/pdf/ip_recommendation_en.pdf

Harold Borko (1968). Information science: what is it? Available at http://www-ec.njit.edu/~robertso/infosci/whatis.html

Organisation for Economic Co-operation and Development (2006). Digital Broadband Content: Public Sector Information and content.(Final Report). Available at: http://www.oecd.org/dataoecd/10/22/36481524.pdf UNESCO Charter on the Preservation of the Digital Heritage (2003). Available at http://portal.unesco.org/ci/en/files/13367/10700115911Charter_en.pdf/Charter_en.pdf

Diane M. Zorich, Günter Waibel and Ricky Erway (2008). Beyond the Silos of the LAMs: Collaboration Among Libraries, Archives and Museums. Dublin, Ohio: OCLC Research. Available at http://www.oclc.org/research/publications/library/2008/2008-05.pdf Robert S. Martin (2003, August).

Cooperation and Change: Archives, Libraries and Museums in the United States. World Library and Information Congress: 69th IFLA General Conference and Council. Berlin http://archive.ifla.org/IV/ifla69/papers/066e-Martin.pdf

National Scicence Board (2005). Long-Lived Digital Data Collections Enabling Research and Education in the 21st Century. National Science Foundation. Available at http://www.nsf.gov/pubs/2005/nsb0540/

An academic librarian who combines the traditional skill set of librarianship with the information technologist's hardware/software skills, and the instructional or educational designer's ability to apply technology appropriately in the teaching-learning process - Bell, S.J. and Shank, J.D. (2004).

The blended librarian: a blueprint for redefining the teaching and learning role of academic librarians. College & Research Libraries News, Vol. 65 No. 7, pp. 372-375. Available at: http://www.ala.org/ala/mgrps/divs/acrl/publications/crlnews/2004/jul/blendedlibrarian.cfm apud Corrall, S. (2010). Educating the academic librarian as a blended professional: a review and case study. Pao Yue-kong Library. Hong Kong. Available at: http://repository.lib.polyu.edu.hk/jspui/handle/10397/1731

Jeffrey Pomerantz, Sanghee Oh, Barbara M. Wildemuth, Carolyn Hank, Helen Tibbo, Edward A. Fox & Seungwon Yang (2009). Comparing Curricula for Digital Library and Digital Curation Education. In Helen R. Tibbo, Carolyn Hnak, Cristopher A. Lee & Rachael Clemens (Eds.), Proceedings of DigCCurr2009: Digital Curation. Practice, Promise & Prospects (pp. 2-3). North Carolina: University of North Carolina at Chapel Hill. Available at http://stores.lulu.com/DigCCurr2009

High Level Expert Group on Digital Libraries (2009). Digital libraries: Recommendations and Challenges for the Future. [Final Report]

Graham Pryor and Martin Donnelly (2009). Skilling up to do data: Whose Role, Whose Responsibility, Whose Career? The International Journal of Digital Curation, 4(2). Available at http://www.ijdc.net/index.php/ijdc/article/view/126/133

R. David Lankes, Derrick Cogburn, Megan Oakleaf and Jeffrey Stanton (2008). Cyberinfrastructure facilitators: new approaches to information professionals for e-Research. Available at http://ora.ouls.ox.ac.uk/objects/uuid:392876bd-5d9f-40b0-822f-269332643e6b

ARL Joint Task Force on Library Support for E-Science (2007). Agenda for Developing E-Science in Research Libraries. [Final Report and Recommendations]. Available at: http://www.arl.org/bm~doc/ARL_EScience_final.pdf

Pauline Sinclair (2010). The Digital Divide: Assessing Organisations' Preparations for Digital Preservation. Tessella. Available at http://www.planets-project.eu/docs/reports/planets-market-survey-white-paper.pdf

Zorich, Diana, Günter Waibel and Ricky Erway (2008). Beyond the Silos of the LAMs: Collaboration among Libraries, Archives and Museums. Report. Dublin, Ohio:OCLC. Available at http://www.oclc.org/research/publications/library/2008/2008-05.pdf","","",,,,,,"",,,,,,,"",,,,,"",,,,,"","",,,,,"","",,,,,"","","",,,,,,,"en","FALSE",,"RO-",,"http://hdl.handle.net/10760/14755",,,"info:eu-repo/semantics/other",
"14755",,,,,,,,,,,,,,,,,,,,,,,,,,,,,,,,,,,,,,,,,,,,"HS",,,,,,,,,,,,,,,,,,,,,,,,,,,,,,,,,,,,,,,,,,,,,,,,,,,,,,,,,,,,,,,,,,,,,,,,,,,,,,,,,,,,,,,,,,,,,,
"14755",,,,,,,,,,,,,,,,,,,,,,,,,,,,,,,,,,,,,,,,,,,,"GE",,,,,,,,,,,,,,,,,,,,,,,,,,,,,,,,,,,,,,,,,,,,,,,,,,,,,,,,,,,,,,,,,,,,,,,,,,,,,,,,,,,,,,,,,,,,,,
"14755",,,,,,,,,,,,,,,,,,,,,,,,,,,,,,,,,,,,,,,,,,,,"GI",,,,,,,,,,,,,,,,,,,,,,,,,,,,,,,,,,,,,,,,,,,,,,,,,,,,,,,,,,,,,,,,,,,,,,,,,,,,,,,,,,,,,,,,,,,,,,
"14755",,,,,,,,,,,,,,,,,,,,,,,,,,,,,,,,,,,,,,,,,,,,"KA",,,,,,,,,,,,,,,,,,,,,,,,,,,,,,,,,,,,,,,,,,,,,,,,,,,,,,,,,,,,,,,,,,,,,,,,,,,,,,,,,,,,,,,,,,,,,,
"14755",,,,,,,,,,,,,,,,,,,,,,,,,,,,,,,,,,,,,,,,,,,,"GH",,,,,,,,,,,,,,,,,,,,,,,,,,,,,,,,,,,,,,,,,,,,,,,,,,,,,,,,,,,,,,,,,,,,,,,,,,,,,,,,,,,,,,,,,,,,,,
"14755",,,,,,,,,,,,,,,,,,,,,,,,,,,,,,,,,,,,,,,,,,,,"AA",,,,,,,,,,,,,,,,,,,,,,,,,,,,,,,,,,,,,,,,,,,,,,,,,,,,,,,,,,,,,,,,,,,,,,,,,,,,,,,,,,,,,,,,,,,,,,
"14755",,,,,,,,,,,,,,,,,,,,,,,,,,,,,,,,,,,,,,,,,,,,"FH",,,,,,,,,,,,,,,,,,,,,,,,,,,,,,,,,,,,,,,,,,,,,,,,,,,,,,,,,,,,,,,,,,,,,,,,,,,,,,,,,,,,,,,,,,,,,,
"14755",,,,,,,,,,,,,,,,,,,,,,,,,,,,,,,,,,,,,,,,,,,,"JH",,,,,,,,,,,,,,,,,,,,,,,,,,,,,,,,,,,,,,,,,,,,,,,,,,,,,,,,,,,,,,,,,,,,,,,,,,,,,,,,,,,,,,,,,,,,,,
"14755",,,,,,,,,,,,,,,,,,,,,,,,,,,,,,,,,,,,,,,,,,,,"GG",,,,,,,,,,,,,,,,,,,,,,,,,,,,,,,,,,,,,,,,,,,,,,,,,,,,,,,,,,,,,,,,,,,,,,,,,,,,,,,,,,,,,,,,,,,,,,
"14755",,,,,,,,,,,,,,,,,,,,,,,,,,,,,,,,,,,,,,,,,,,,"FE",,,,,,,,,,,,,,,,,,,,,,,,,,,,,,,,,,,,,,,,,,,,,,,,,,,,,,,,,,,,,,,,,,,,,,,,,,,,,,,,,,,,,,,,,,,,,,
"14755",,,,,,,,,,,,,,,,,,,,,,,,,,,,,,,,,,,,,,,,,,,,"BF",,,,,,,,,,,,,,,,,,,,,,,,,,,,,,,,,,,,,,,,,,,,,,,,,,,,,,,,,,,,,,,,,,,,,,,,,,,,,,,,,,,,,,,,,,,,,,
"17567","2","archive","4948",,,"disk0/00/01/75/67","2012-09-18","2014-10-02 12:23:37","2012-12-17 16:29:05","preprint",,,"show",,,,"","","","","","","","","","",,,,"Constantinescu","Nicolaie","","","","",,,,,"","","The Lean Thinking Machine",,"BD","","public",,,"data, lams, Romanian electronic resources, meshups, data meshupsdata, lams, Romanian electronic resources, meshups, data meshups",,"When a new idea arrives in a manifested form it is encompassing the whole set of information environment parameters that triggered that very moment. It is because you are able to discover, order, manipulate and refactor the raw data sets in your own knowledge set. A quite unique set. Many components of the set are manifested augmentations of one unique set of research habits. What happens when in the process of shaping the original idea actor like LAM specialists, software and hardware tools, legal framework and social graph are involved proposing different and more efficient approaches? Some answers arrive when you deconstruct the idea's background, as personal knowledge background, libraries, cultural frameworks and technological means are seen as real fairy godmothers of the future discoveries. But most of the time it is all about hacking your own way into the field being into a continuous competition with time and different limitations. The study will offer some paths using as many augmentation skills and tools as the aforementioned actors may offer in order to become an elegant lean thinking machine.","2012-07-02",,,,,,,,,,,,,,,,,,,"TRUE",,,,,,,,"",,"","",,"","",,,,,,"",,,,,,,"",,,,,"",,,,,"","",,,,,"","",,,,,"","","",,,,,,,"en","FALSE",,"RO-",,"http://hdl.handle.net/10760/17567",,,"info:eu-repo/semantics/other",
"17567",,,,,,,,,,,,,,,,,,,,,,,,,,,,,,,,,,,,,,,,,,,,"BF",,,,,,,,,,,,,,,,,,,,,,,,,,,,,,,,,,,,,,,,,,,,,,,,,,,,,,,,,,,,,,,,,,,,,,,,,,,,,,,,,,,,,,,,,,,,,,
"17567",,,,,,,,,,,,,,,,,,,,,,,,,,,,,,,,,,,,,,,,,,,,"BG",,,,,,,,,,,,,,,,,,,,,,,,,,,,,,,,,,,,,,,,,,,,,,,,,,,,,,,,,,,,,,,,,,,,,,,,,,,,,,,,,,,,,,,,,,,,,,
"17567",,,,,,,,,,,,,,,,,,,,,,,,,,,,,,,,,,,,,,,,,,,,"BH",,,,,,,,,,,,,,,,,,,,,,,,,,,,,,,,,,,,,,,,,,,,,,,,,,,,,,,,,,,,,,,,,,,,,,,,,,,,,,,,,,,,,,,,,,,,,,
"17567",,,,,,,,,,,,,,,,,,,,,,,,,,,,,,,,,,,,,,,,,,,,"DB",,,,,,,,,,,,,,,,,,,,,,,,,,,,,,,,,,,,,,,,,,,,,,,,,,,,,,,,,,,,,,,,,,,,,,,,,,,,,,,,,,,,,,,,,,,,,,
"17567",,,,,,,,,,,,,,,,,,,,,,,,,,,,,,,,,,,,,,,,,,,,"DL",,,,,,,,,,,,,,,,,,,,,,,,,,,,,,,,,,,,,,,,,,,,,,,,,,,,,,,,,,,,,,,,,,,,,,,,,,,,,,,,,,,,,,,,,,,,,,
"17567",,,,,,,,,,,,,,,,,,,,,,,,,,,,,,,,,,,,,,,,,,,,"DM",,,,,,,,,,,,,,,,,,,,,,,,,,,,,,,,,,,,,,,,,,,,,,,,,,,,,,,,,,,,,,,,,,,,,,,,,,,,,,,,,,,,,,,,,,,,,,
"17567",,,,,,,,,,,,,,,,,,,,,,,,,,,,,,,,,,,,,,,,,,,,"IE",,,,,,,,,,,,,,,,,,,,,,,,,,,,,,,,,,,,,,,,,,,,,,,,,,,,,,,,,,,,,,,,,,,,,,,,,,,,,,,,,,,,,,,,,,,,,,
"17567",,,,,,,,,,,,,,,,,,,,,,,,,,,,,,,,,,,,,,,,,,,,"IF",,,,,,,,,,,,,,,,,,,,,,,,,,,,,,,,,,,,,,,,,,,,,,,,,,,,,,,,,,,,,,,,,,,,,,,,,,,,,,,,,,,,,,,,,,,,,,
"17566","2","archive","4948",,,"disk0/00/01/75/66","2012-09-18","2014-10-02 12:23:37","2012-12-17 16:29:05","preprint",,,"show",,,,"","","","","","","","","","",,,,"Constantinescu","Nicolaie","","","","",,,,,"","","When we come together",,"AC","","public",,,"libraries, museums, archives, galleries, collaboration, open standards, open technologies, open licenses, semantic web, rdf, library linked data, linked open data, open data",,"Libraries, Archives, Museums and Galleries are all together bound to cross a very turbulent period in the advent of a golden age. The debate over the convergence of these fields landed for the first time on neutral ground when they were coined as memory institutions and invited to collaborate in building common services like World Digital Library, Multilingual Inventory of Cultural Heritage in Europe, Access to Cultural Heritage Networks Across Europe, The European Library and Europeana. In the light of the unfolding economic situation, the struggle to keep a valid social profile is often taken on the grounds of collaboration were enough resources are attracted in order to keep balance and even progress. The future presents a leverage point that should not be ignored or treated lightly: building the informational context through open and standard compliant technologies. LAMG specialists claim to have switched to a functional paradigm that puts the user needs as the core business. Doing so is to prepare for the future and the future is one where the resources are aggregated and linked in what we call today Semantic Web. Here we take into consideration the building blocks of this future starting from what we have, and advancing towards an inclusive picture where we are together. Open standards, open technologies, and open licenses are the key components of this space for collaboration among us. We should be swift in embracing them as our users have done this already.","2011-10-26",,,,,,,,,,,,,,,,,,,"TRUE",,,,,,,,"",,"","",,"","",,,,,,"",,,,,,,"",,,,,"",,,,,"","",,,,,"","",,,,,"","","",,,,,,,"en","FALSE",,"RO-",,"http://hdl.handle.net/10760/17566",,,"info:eu-repo/semantics/other",
"17566",,,,,,,,,,,,,,,,,,,,,,,,,,,,,,,,,,,,,,,,,,,,"BF",,,,,,,,,,,,,,,,,,,,,,,,,,,,,,,,,,,,,,,,,,,,,,,,,,,,,,,,,,,,,,,,,,,,,,,,,,,,,,,,,,,,,,,,,,,,,,
"17566",,,,,,,,,,,,,,,,,,,,,,,,,,,,,,,,,,,,,,,,,,,,"BG",,,,,,,,,,,,,,,,,,,,,,,,,,,,,,,,,,,,,,,,,,,,,,,,,,,,,,,,,,,,,,,,,,,,,,,,,,,,,,,,,,,,,,,,,,,,,,
"17566",,,,,,,,,,,,,,,,,,,,,,,,,,,,,,,,,,,,,,,,,,,,"BI",,,,,,,,,,,,,,,,,,,,,,,,,,,,,,,,,,,,,,,,,,,,,,,,,,,,,,,,,,,,,,,,,,,,,,,,,,,,,,,,,,,,,,,,,,,,,,
"17566",,,,,,,,,,,,,,,,,,,,,,,,,,,,,,,,,,,,,,,,,,,,"IE",,,,,,,,,,,,,,,,,,,,,,,,,,,,,,,,,,,,,,,,,,,,,,,,,,,,,,,,,,,,,,,,,,,,,,,,,,,,,,,,,,,,,,,,,,,,,,
"17566",,,,,,,,,,,,,,,,,,,,,,,,,,,,,,,,,,,,,,,,,,,,"ID",,,,,,,,,,,,,,,,,,,,,,,,,,,,,,,,,,,,,,,,,,,,,,,,,,,,,,,,,,,,,,,,,,,,,,,,,,,,,,,,,,,,,,,,,,,,,,
"17566",,,,,,,,,,,,,,,,,,,,,,,,,,,,,,,,,,,,,,,,,,,,"JH",,,,,,,,,,,,,,,,,,,,,,,,,,,,,,,,,,,,,,,,,,,,,,,,,,,,,,,,,,,,,,,,,,,,,,,,,,,,,,,,,,,,,,,,,,,,,,
"17566",,,,,,,,,,,,,,,,,,,,,,,,,,,,,,,,,,,,,,,,,,,,"LB",,,,,,,,,,,,,,,,,,,,,,,,,,,,,,,,,,,,,,,,,,,,,,,,,,,,,,,,,,,,,,,,,,,,,,,,,,,,,,,,,,,,,,,,,,,,,,
"17566",,,,,,,,,,,,,,,,,,,,,,,,,,,,,,,,,,,,,,,,,,,,"LC",,,,,,,,,,,,,,,,,,,,,,,,,,,,,,,,,,,,,,,,,,,,,,,,,,,,,,,,,,,,,,,,,,,,,,,,,,,,,,,,,,,,,,,,,,,,,,
"17566",,,,,,,,,,,,,,,,,,,,,,,,,,,,,,,,,,,,,,,,,,,,"LP",,,,,,,,,,,,,,,,,,,,,,,,,,,,,,,,,,,,,,,,,,,,,,,,,,,,,,,,,,,,,,,,,,,,,,,,,,,,,,,,,,,,,,,,,,,,,,
"17566",,,,,,,,,,,,,,,,,,,,,,,,,,,,,,,,,,,,,,,,,,,,"LS",,,,,,,,,,,,,,,,,,,,,,,,,,,,,,,,,,,,,,,,,,,,,,,,,,,,,,,,,,,,,,,,,,,,,,,,,,,,,,,,,,,,,,,,,,,,,,
"14540","2","archive","953",,,"disk0/00/01/45/40","2010-07-05","2014-10-02 12:16:55","2012-12-14 22:15:58","confpaper",,,"show",,,,"","","","","","","","","","",,,,"Coravu","Robert","","","","",,,,,"","","Library Literacy: the Step before Information Literacy","unpub","CD","","public",,,"information literacy, library literacy, academic libraries",,"Acquiring library skills is the first step that a person must take to become information literate. The article pleads for the university library’s role in training students to become aware of today’s possibilities of accessing information and acquiring knowledge. There are a few examples of activities developed by “Carol I” Central University Library of Bucharest, regarding training in library skills and not only.","2010-04-22",,,,,,,,,,,,,,,,,,,"TRUE",,,,,,,,"",,"","","[1]	John Feather, Paul Sturges (eds.), International Encyclopedia of Information and Library Science, Routledge, London New York, 2003, p. 646
[2]	Mary Mortimer, Library Speak: a Glossary of Terms in Librarianship and Information Management, Total Recall Publications, Inc., Friendswood, 2007, p. 24
[3]	ODLIS, http://lu.com/odlis/odlis_b.cfm#bi
[4]	ODLIS, http://lu.com/odlis/odlis_u.cfm#usereducation
[5]	John Feather, Paul Sturges (eds.), International Encyclopedia of Information and Library Science, Routledge, London New York, 2003, p. 647
[6]	Rosemary Bell, Library Literacy in the Academic Library, Innovation, 1, 1990, p. 32
[7]	American Library Association. Presidential Committee on Information Literacy, Final Report, American Library Association, Chicago, 1989, http://www.ala.org/ala/mgrps/divs/acrl/publications/whitepapers/ presidential.cfm","","",,,,,,"",,,,,,,"",,,,,"",,,,,"","",,,,,"","",,,,,"","","",,,,"April 21st-23rd 2010","First International Conference in Romania on Information Literacy","Sibiu, Romania","en","FALSE",,"RO-",,"http://hdl.handle.net/10760/14540",,,"info:eu-repo/semantics/other",
"15594","2","archive","953",,,"disk0/00/01/55/94","2011-04-29","2014-10-02 12:19:01","2012-12-17 15:52:23","confpaper",,,"show",,,,"","","","","","","","","","",,,,"Coravu","Robert","","","","",,,,,"","","Library Spaces: New Values, New Functions","pub","D.","","public",,,"library buildings; library spaces; academic libraries",,"This paper analyses the change of library spaces generated by the advent of Information Age and some contemporary trends in their organization, with a particular reference to academic libraries. The possibility of the remote access to the library collections and services, via Internet, generated the first discussions about “library without walls”. At symbolic level, it’s the first change of the traditional library spaces determined by the digital environment. Afterwards, the changes affected also the physical spaces of the library, which had to adapt themselves to the new landscape of information and communication, including to the changes in users’ information behaviour. Today, library spaces have some new values and functions comparatively with those of the traditional libraries.","2010",,,,,,"Editura Universităţii ""Transilvania"" din Braşov",,"59-62",,,,,,,,,,,"TRUE",,,,"Helerea","Elena","","","",,"","","Rizzo, Joseph C. Finding your place in the information age library. In: New Library World, vol. 103, iss. 11-12/2002, p. 457-466

Campbell, Jerry. Changing a cultural icon: the academic library as a virtual destination. In: EDUCAUSE Review, vol. 41, no. 1/2006, p. 16-31

Bisbrouck, Marie-Françoise. Les bibliothèques universitaires. L’évaluation des nouveaux bâtiments. În: Bulletin des Bibliothèques de France, t. 45, no.3/2000, p. 31-38 

Bedarida, Marc. L’utile est-il le beau? In: Bulletin des Bibliothèques de France, t. 45, no. 3/2000, p. 27-30

Calenge, Bertrand. Editorial. În: Bulletin des Bibliothèques de France, t. 45, no. 3/2000, p. 1

Boone, Morell D. Back in the USA: The “Cybrarian” comes home. In: Library Hi Tech, vol. 19, iss. 2/2001, p. 186-190 

Library is intellectual and technological heart of campus and community. In: Facilities Design & Management, vol. 21, no. 6/2002, p. 8 

Shill, Harold, and Tanner, Shawn. Creating a Better Place: Physical Improvements in Academic Libraries, 1995-2002. In: College & Research Libraries, vol. 64, iss. 6/2003, p. 431-466 

Conghui, Fang.  University Library: The “Third Place” for Students. Available at: http://archive.ifla.org/IV/ifla74/papers/091-Fang-en.pdf 

Lallemand, Carine; Boudot, Audrey; Dinet, Jérôme. Réaménagement ergonomique de la signalétique d’une bibliothèque universitaire: la Bibliothèque Universitaire de Metz. In: Bulletin des Bibliothèques de France, t. 53, no. 4/2008, p. 50-56 

Tacheau, Olivier. Pour une bibliothèque universitaire réincarnée. In: Bulletin des Bibliothèques de France, t. 54, no. 6/2009, p. 66-69","","",,,,,,"",,,,,,,"",,,,,"",,,,,"","",,,,,"","",,,,,"","","",,,,"3 June - 5 June 2010","BIBLIO 2010: Innovation within libraries","Brasov, Romania","ro","FALSE",,"RO-",,"http://hdl.handle.net/10760/15594",,,"info:eu-repo/semantics/other",
"15594",,,,,,,,,,,,,,,,,,,,,,,,,,,,,,,,,,,,,,,,,,,,"DD",,,,,,,,,,,,,,,,,,,,,,,,,,,,,,,"Nazare","Daniel","","",,,,,,,,,,,,,,,,,,,,,,,,,,,,,,,,,,,,,,,,,,,,,,,,,,,,,,,,,,,,
"15594",,,,,,,,,,,,,,,,,,,,,,,,,,,,,,,,,,,,,,,,,,,,"KZ",,,,,,,,,,,,,,,,,,,,,,,,,,,,,,,,,,,,,,,,,,,,,,,,,,,,,,,,,,,,,,,,,,,,,,,,,,,,,,,,,,,,,,,,,,,,,,
"15594",,,,,,,,,,,,,,,,,,,,,,,,,,,,,,,,,,,,,,,,,,,,"L.",,,,,,,,,,,,,,,,,,,,,,,,,,,,,,,,,,,,,,,,,,,,,,,,,,,,,,,,,,,,,,,,,,,,,,,,,,,,,,,,,,,,,,,,,,,,,,
"15951","2","archive","953",,,"disk0/00/01/59/51","2011-07-28","2014-10-02 12:19:40","2012-12-17 16:00:55","journalp",,,"show",,,,"","","","","","","","","","",,,,"Coravu","Robert","","","","",,,,,"","","Scurt istoric al evoluției bibliotecii universitare","pub","AZ","","public",,,"library history, academic libraries",,"The article presents a brief history of evolution of academic libraries from the beginning until the early twentieth century.","2010-11-01",,,"Buletinul Fundației Urechia","8","11","Biblioteca „V.A. Urechia” Galați",,"28-34",,,,,,,,,,,"FALSE",,,,,,,,"",,"","","*** Lege nr. 334/2002 - Legea bibliotecilor, republicată. În: Monitorul Oficial, Partea I, nr. 132, 11 februarie 2005.
BATES, Marcia J.; MAACK, Mary Niles (eds.). Encyclopedia of library and information
sciences. Boca Raton; London; New York: Taylor & Francis, 2010.
BUDD, John M. The Academic Library: Its Context, Its Purpose, and Its Operation. Englewood, Colorado: Libraries Unlimited, Inc., 1998.
COLISH, Marcia L. Medieval Foundations of the Western Intellectual Tradition: 400-1400.
New Haven: Yale University Press, 1999.
FEATHER, John; STURGES, Paul (eds.). International Encyclopedia of Library and
Information Science. London; New York: Routledge, 2003.
MORTIMER, Mary (ed.). Library Speak: a glossary of terms in librarianship and information
management. [?]: TotalRecall Publications, Inc., 2007.
REGNEALĂ, Mircea. Dicţionar explicativ de biblioteconomie şi ştiinţa informării. Vol. I: A-L. Bucureşti: FABR, 2001.
REGNEALĂ, Mircea. Funcţiile bibliotecilor din Antichitate până în Renaştere şi rolul lor
cultural. În: Studii de biblioteconomie. Constanţa: Ex Ponto, 2001, p. 11-57.
RIETZ, Joan M. ODLIS - Online Dictionary for Library and Information Science. http://
lu.com/odlis/index.cfm. Ultima actualizare: 19.12.2007.
RUBIN, Richard E. Foundations of Library and Information Science. New York; London:
Neal-Schuman Publishers, Inc., 2000.","","",,,,,,"",,,,,,,"",,,,,"",,,,,"","",,,,,"","",,,,,"Articolul cuprinde un scurt istoric al evoluţiei bibliotecii universitare de la apariţie până la începutul secolului al XX-lea.","ro","",,,,,,,"ro","FALSE",,"RO-",,"http://hdl.handle.net/10760/15951",,,"info:eu-repo/semantics/other",
"15951",,,,,,,,,,,,,,,,,,,,,,,,,,,,,,,,,,,,,,,,,,,,"DD",,,,,,,,,,,,,,,,,,,,,,,,,,,,,,,,,,,,,,,,,,,,,,,,,,,,,,,,,,,,,,,,,,,,,,,,,,,,,,,,,,,,,,,,,,,,,,
"6711","2","archive","953",,,"disk0/00/00/67/11","2005-09-14","2014-10-02 12:01:49","2012-12-14 18:39:05","journalp",,,"show",,,,"","","","","","","","","","",,,,"Coravu","Robert","","","","",,,,,"","","Servicii de referinţe prin e-mail","pub","IJ","","public",,,"Servicii de referinţe digitale; servicii de referinţe prin e-mail. Digital reference services; e-mail reference services",,"Among the digital reference services category, e-mail reference services have known the most rapid spreading inside the library world. This study analyses the main aspects of e-mail reference services (service parameters, elements of a query form, the characteristics of electronic messages sent during the reference process). Also, the advantages and disadvantages of this reference services are presented, suggesting a few strategies for rising their efficiency.","2000",,,"Buletin ABIR","11","1","Asociaţia Bibliotecarilor din Învăţământ-România (ABIR)/Association of Librarians in Education-Romania (ABIR)",,"9-14",,,,,,,,,,,"FALSE",,,,,,,,"",,"","",,"","",,,,,,"",,,,,,,"",,,,,"",,,,,"","",,,,,"","",,,,,"Dintre serviciile de referinţe digitale, serviciile de referinţe prin e-mail au cunoscut cea mai rapidă răspândire în lumea bibliotecilor. Studiul de faţă analizează principalele caracteristici ale serviciilor de referinţe prin e-mail (parametrii furnizării serviciului, elementele unui formular de căutare, caracteristicile mesajelor electronice transmise în cursul procesului de referinţe. De asemenea, sunt prezentate avantajele şi dezavantajele acestor servicii de referinţe şi sunt sugerate câteva strategii de creştere a eficienţei lor.","ro","",,,,,,,"ro","FALSE",,"RO-",,"http://hdl.handle.net/10760/6711",,,"info:eu-repo/semantics/other",
"6712","2","archive","953",,,"disk0/00/00/67/12","2005-09-14","2014-10-02 12:01:49","2012-12-14 18:39:07","confpaper",,,"show",,,,"","","","","","","","","","",,,,"Coravu","Robert","","","","",,,,,"","","To Google or not to Google?","pub","JH","","public",,,"Proiecte de digitizare; proiectul Google Print. Digitisation projects; Google Print project",,"Google recently announced the launch of a new project, Google Print, which aims, at the beginning, to digitalize a great quantity of documents by collaboration with five major libraries of the world. The characteristics of this project, its implications on the libraries and library work, and some of the reactions recorded in the world are presented.","2005",,,,,,"Editura Universităţii ""Transilvania"" din Braşov",,"55-58",,,,,,,,,,,"FALSE",,,,"Repanovici","Angela","","","",,"","","The French language. Google à la française. În: The Economist, vol.375, nr. 8420, April 2, 2005, p.37
D’ARMAGNAC, Bertrand. La BNF va mettre en ligne des archives de la presse. În: Le Monde, 18 février 2005
DONNEDIEU DE VABRES, Renaud. Google n’est pas la fin de l’histoire. În: Le Monde, 18 mars 2005, p.12
ERTSZCHEID, Olivier. Google a les moyens de devenir un guichet d’accès unique à l’information. În: Le Monde, 5 janvier 2005
FISTER, Barbara. Google's Digitization Project - What Difference Will it Make? În: Library Issues, vol.25, nr.4, March 2005. http://www.libraryissues.com/pub/LI250004.asp (accesat: 4 martie 2005)
GORMAN, Michael. Google and God’s Mind: the problem is, information isn’t knowledge. În: Los Angeles Times, December 17, 2004. http://www.infomotions.com/serials/colldv-l/05/att-0054/M-Gorman___Google_and_God_s_Mind.pdf (accesat: 5 martie 2005)
GORMAN, Michael. Revenge of the Blog People! În: Library Journal, vol.130, nr.3, February 15, 2005, p.44
GURREY, Béatrice; ROUX, Emmanuel de. Jacques Chirac veut promouvoir un projet de bibliothèque virtuelle européenne. În: Le Monde, 17 mars 2005, p.30
HICKS, Matt. Google’s Library Project Could Drive Contest Contest. În: Eweek, December 14, 2004. http://www.eweek.com/article2/0,1759,1741231,00.asp (accesat: 4 ianuarie 2005) 
JEANNENEY, Jean-Noel. Quand Google défie l’Europe. În: Le Monde, 23 janvier 2005
KENNEY, Brian. Googlizers vs. Rezistors. În: Library Journal, vol.129, nr.20, December 15, 2004, p.44-46
MACINTYRE, Ben. Paradise is paper, vellum and dust. În: Times Online, December 18, 2004. http://www.timesonline.co.uk/article/0,1068-1407490,00.html (accesat: 4 ianuarie 2005)
POLASTRON, Lucien X. La BNF chez Google? Chiche. În: Le Monde, 8 février 2005
RĂDESCU, Alexandru. Cultura europeană contraatacă pe Net. În: Jurnalul Naţional (varianta online), 22 martie 2005. http://www.jurnalul.ro/modules.php?op=modload&name=News&file =article&sid=244704 (accesat: 28 martie 2005)
TENNANT, Roy. Google Out of Print. În: Library Journal, vol.130, nr. 3, February 15, 2005, p.27","","",,,,,,"",,,,,,,"",,,,,"",,,,,"","",,,,,"","",,,,,"Firma Google a anunţat de curând lansarea unui nou proiect, Goggle Print, care urmăreşte, la început, digitizarea unei mari cantităţi de documente prin colaborarea a cinci biblioteci importante din lume. Sunt prezentate caracteristicile proiectului, implicaţiile lui asupra bibliotecilor şi activităţilor de bibliotecă şi câteva dintre reacţiile înregistrate în lume cu privire la această iniţiativă a Google.","ro","",,,,"12-14 Mai 2005","Biblio - Brasov 2005 : conferinta nationala de biblioteconomie si stiinta informarii","Brasov (Romania)","ro","FALSE",,"RO-",,"http://hdl.handle.net/10760/6712",,,"info:eu-repo/semantics/other",
"6712",,,,,,,,,,,,,,,,,,,,,,,,,,,,,,,,,,,,,,,,,,,,"LS",,,,,,,,,,,,,,,,,,,,,,,,,,,,,,,,,,,,,,,,,,,,,,,,,,,,,,,,,,,,,,,,,,,,,,,,,,,,,,,,,,,,,,,,,,,,,,
"31552","14","archive","5998",,,"disk0/00/03/15/52","2017-07-13 15:30:05","2017-07-13 16:21:16","2017-07-13 15:30:05","journalp",,,"show",,,,"","","","","","","","","","",,,,"Dinu","Nicoleta-Roxana","","","roxadinu@gmail.com","",,,,,"","","Biblioteca digitală și digitizarea patrimoniului cultural național / Digital library and digitization of national cultural heritage - PhD Thesis Summary","pub","DB","","public",,,"National Libraries; Digitization; Heritage; Digital library; Biblioteca Nationala; Biblioteca digitala; Patrimoniu.",,"The growth of the Information Society can be achieved in an effective way with the amplification, quantitative and qualitative, of the digital content that becomes available in the virtual environment. Libraries, archives, museums manage an impressive cultural heritage fund that can be tapped by today's users as well as by future generations. The description of a digitization strategy correctly stated at national level is constituted by the creation of digital content related to its management, dissemination and preservation.","2012",,,"Informare si documentare: activitate stiitifica si profesionala","V",,"Biblioteca Nationala a Romaniei",,"80-92",,,,,,,,,,,"TRUE",,,,,,,,"",,"","",,"","",,,,,,"",,,,,,,"",,,,,"",,,,,"","",,,,,"","",,,,,"Creșterea Societății Informației se poate realiza de o formă eficientă cu amplificarea, cantitativă și calitativă, a conținutului digital care devine disponibil în mediul virtual. Bibliotecile, arhivele, muzeele gestionează un imponant fond de patrimoniu cultural care poate fi valorificat atăt de către utilizatorii de astăzi, căt și de generațiile viitoare. Obiecrivul unei strategii de digitizare corect enunțate, la nivel național, este constituir de crearea de conținut digital relaționat cu gestionarea, diseminarea și conservarea lui.","ro","",,,,,,,"ro","FALSE",,"RO-",,"http://hdl.handle.net/10760/31552","no",,"info:eu-repo/semantics/other","info:eu-repo/semantics/openAccess"
"31552",,,,,,,,,,,,,,,,,,,,,,,,,,,,,,,,,,,,,,,,,,,,"HD",,,,,,,,,,,,,,,,,,,,,,,,,,,,,,,,,,,,,,,,,,,,,,,,,,,,,,,,,,,,,,,,,,,,,,,,,,,,,,,,,,,,,,,,,,,,,,
"31552",,,,,,,,,,,,,,,,,,,,,,,,,,,,,,,,,,,,,,,,,,,,"HI",,,,,,,,,,,,,,,,,,,,,,,,,,,,,,,,,,,,,,,,,,,,,,,,,,,,,,,,,,,,,,,,,,,,,,,,,,,,,,,,,,,,,,,,,,,,,,
"31552",,,,,,,,,,,,,,,,,,,,,,,,,,,,,,,,,,,,,,,,,,,,"JG",,,,,,,,,,,,,,,,,,,,,,,,,,,,,,,,,,,,,,,,,,,,,,,,,,,,,,,,,,,,,,,,,,,,,,,,,,,,,,,,,,,,,,,,,,,,,,
"31554","16","archive","5998",,,"disk0/00/03/15/54","2017-07-13 17:35:13","2017-07-13 17:46:45","2017-07-13 17:35:13","confpaper",,,"show",,,,"","","","","","","","","","",,,,"Dinu","Nicoleta-Roxana","","","roxadinu@gmail.com","",,,,,"","","Bibliotecarul în era noilor tehnologii informaționale / The librarian in the age of new information technologies","pub","CB","","public",,,"Librarians; Profession; New technologies; User needs; New roles.",,"The emergence and development of new information and communication technologies have led to major changes in the organization of the knowledge universe. As the new data storage media has diversified, the librarian, information specialist, has had to adapt to the current context. This paper aims to highlight the librarian's abilities and role in the digital age, in defining and satisfying the needs of information users.","2010",,,,,,"Universitatea din Bucureşti / Universitatea de Medicină şi Farmacie Târgu-Mureş",,"384-386",,,,,,,,,,,"FALSE",,,,,,,,"",,"","","Olivia, Crosby (2000/2001). “Librarians: Information Experts in the Information Age”. Occupational Outlook Quarterly, v. 44, n. 4, 2000/2001.
http://proquest.umi.com/pqdweb?id=65897580&Fmt=4&clientId=65082&RQT=309&VName=PQD;

Ellen Lesley, Harris (2000). “Librarians and E-Commerce: Making E-Commerce Work for You”. Ifla Journal, v. 26, n. 2, p. 129.

Bertrand, Calenge (1995). “À quoi former les bibliothécaires, et comment?”. Bulletin des bibliothèques de France, n. 6, p. 44.","","",,,,,,"",,,,,,,"",,,,,"",,,,,"","",,,,,"","",,,,,"Apariția şi dezvoltarea noilor tehnologii de informare şi comunicare au determinat schimbări majore în organizarea universului cunoaşterii. Întrucât noii suporți de stocare a datelor s-au diversificat, bibliotecarul, specialist al informațiilor, a trebuit să se adapteze actualului context. Prezenta lucrare îşi propune să evidențieze abilitățile şi rolul bibliotecarului în era digitală, în definirea şi satisfacerea nevoilor utilizatorilor de informare.","ro","",,,,"2010","Conferința Națională de Învățământ Virtual, ediția a VIII-a","Târgu Mureş","ro","FALSE",,"RO-",,"http://hdl.handle.net/10760/31554","no",,"info:eu-repo/semantics/other","info:eu-repo/semantics/openAccess"
"31554",,,,,,,,,,,,,,,,,,,,,,,,,,,,,,,,,,,,,,,,,,,,"GE",,,,,,,,,,,,,,,,,,,,,,,,,,,,,,,,,,,,,,,,,,,,,,,,,,,,,,,,,,,,,,,,,,,,,,,,,,,,,,,,,,,,,,,,,,,,,,
"31554",,,,,,,,,,,,,,,,,,,,,,,,,,,,,,,,,,,,,,,,,,,,"GG",,,,,,,,,,,,,,,,,,,,,,,,,,,,,,,,,,,,,,,,,,,,,,,,,,,,,,,,,,,,,,,,,,,,,,,,,,,,,,,,,,,,,,,,,,,,,,
"31554",,,,,,,,,,,,,,,,,,,,,,,,,,,,,,,,,,,,,,,,,,,,"GH",,,,,,,,,,,,,,,,,,,,,,,,,,,,,,,,,,,,,,,,,,,,,,,,,,,,,,,,,,,,,,,,,,,,,,,,,,,,,,,,,,,,,,,,,,,,,,
"31554",,,,,,,,,,,,,,,,,,,,,,,,,,,,,,,,,,,,,,,,,,,,"GI",,,,,,,,,,,,,,,,,,,,,,,,,,,,,,,,,,,,,,,,,,,,,,,,,,,,,,,,,,,,,,,,,,,,,,,,,,,,,,,,,,,,,,,,,,,,,,
"33905","10","archive","47554",,,"disk0/00/03/39/05","2019-01-28 10:47:15","2019-01-28 10:47:15","2019-01-28 10:47:15","journalp",,,"show",,,,"","","","","","","","","","",,,,"Dinu","Nicoleta-Roxana","","","roxadinu@gmail.com","",,,,,"","","Conferința LIBER 2018. Recenzia conferinţei","pub","A.","","public",,,"biblioteci universitare, open science, open access, managementul datelor ştiinţifice; University libraries, Open Science, Open Access, scientific data management, LIBER.",,"The article aims to present an overview of the topics analyzed during the 47th edition of Liber Conference, held in Lille, France, 4-6 july 2018.","2018-10-01",,,"Biblioteca",,,"Biblioteca Naţională a României",,"309-310",,,,,,,,,,,"FALSE",,,,,,,,"",,"","","https://libereurope.eu","","",,,,,,"",,,,,,,"",,,,,"",,,,,"","",,,,,"","",,,,,"Articolul prezintă, în linii generale, temele analizate în cadrul celei de-a 47-a ediţii a Conferinţei Liber, ce a avut loc în Lille, Franţa, între 4 şi 6 iulie 2018.","ro","",,,,,,,"ro","FALSE",,"RO-",,"http://hdl.handle.net/10760/33905","no",,"info:eu-repo/semantics/other","info:eu-repo/semantics/openAccess"
"33905",,,,,,,,,,,,,,,,,,,,,,,,,,,,,,,,,,,,,,,,,,,,"D.",,,,,,,,,,,,,,,,,,,,,,,,,,,,,,,,,,,,,,,,,,,,,,,,,,,,,,,,,,,,,,,,,,,,,,,,,,,,,,,,,,,,,,,,,,,,,,
"31553","18","archive","5998",,,"disk0/00/03/15/53","2017-07-13 16:13:54","2017-07-13 17:26:00","2017-07-13 16:13:54","journalp",,,"show",,,,"","","","","","","","","","",,,,"Dinu","Nicoleta-Roxana","","","roxadinu@gmail.com","",,,,,"","","Digitizarea documentelor de patrimoniu / Digitizing heritage documents","pub","DB","","public",,,"Digitization; National heritage; Image formats.",,"The invention of the world wide web and the emergence of new information and communication technologies have succeeded in remodeling the society and the cultural institutions within it. As a result, cultural institutions have included digitization activity as one of the main objectives, for two reasons: the desire to preserve original documents and to provide improved access to them in the online environment. This paper aims to give an overview of the entire digitization process.
Cultural heritage is the identity of a nation throughout history. In the ""Recommendation on the protection of mobile cultural goods"", adopted on 28 November 1978 by UNESCO, the notion of ""movable cultural goods"" includes ""all movable property which is the expression or testimony of human creation or of nature evolution and which have an interest or interest archeological, historical, artistic, scientific or technical"". According to the Romanian legislation, the national cultural heritage is defined in a broad sense, namely: ""the ensemble of goods identified as such, irrespective of the ownership regime, which is a testimony and an expression of the values, beliefs, knowledge and traditions Continuing evolution."" It also includes all the emanations resulting from the interaction of human and natural factors over time.","2012",,,"Informare si documentare: activitate stiitifica si profesionala","V",,"Biblioteca Nationala a Romaniei",,"93-98",,,,,,,,,,,"TRUE",,,,,,,,"",,"","","CANADIAN Council of Archives. Digitization and Archives, 2002. 12 pp.
http://www.cdncouncilarchives.ca/digitization_en.pdf

HIRTLE, Peter B. The impact of digitization on special collections in libraries. In: Libraries and Culture, vol. 37, n. 1, 2002, pp. 42-52.

Legea n. 182/2000 privind protejarea patrimoniului cultural national mobil, republicata în 2008. In: MO, Partea 1, n. 828, 09/12/2008.

Proiect Calimera. Ghiduri de bune practici [online]. Traducere din engleza a Ghidului Calimera Guidelines: cultural applications: Local Institutions Mediating Electronic Resources, 384 pp.
http://www.bjc.ro/new/files/calimeralghidurile%20calimera.pdf
http://www.abbyy.com

UNESCO. Recommandation pour la protection des biens culturels mobiliers, 28 novembre 1978.
http://portal.unesco.org/frlev.php-URL_ID=13137&URL_DO=DO_TOPIC&URL_SECTION=201.html

University of Kansas. Digital Initiatives - Recommended Standards and Best Practices for Digital Projects. 2003, 8 pp.
http://kudiglib.ku.edu/planning/dli_standards.pdf","","",,,,,,"",,,,,,,"",,,,,"",,,,,"","",,,,,"","",,,,,"Inventarea world wide web-ului și apariția noilor tehnologii de informare și comunicare au reușit să remodeleze societatea şi instituțiile culturale din interiorul ei. Drept urmare, instituțiile culturale au inclus, printre obiectivele principale, activitatea de digitizare, din două considerente: dorința de a prezerva documentele originale și de a furniza un acces îmbunătățit la acestea, în mediul online. Prezenta lucrare își propune să ofere o privire de ansamblu asupra întregului proces de digitizare.
Patrimoniul cultural constituie identitatea unei națiuni, de-a lungul istoriei. În ""Recomandarea privind protecția bunurilor culturale mobile"", adoptată pe 28 noiembrie 1978 de către UNESCO, noțiunea de ""bunuri culturale mobile"" cuprinde ""toate bunurile mobile care sunt expresia sau mărturia creației umane sau a evoluției naturii și care au o valoare sau un interes arheologic, istoric, artistic, științific sau tehnic"". Conform legislației românești, patrimoniul cultural național este definit în sens larg și anume: ""ansamblul bunurilor identificate ca atare, indiferent de regimul de proprietate asupra acestora, care reprezintă o mărturie și o expresie a valorilor, credințelor, cunoștințelor și tradițiilor aflate in continuă evoluție."" De asemenea, ""cuprinde toate elementele rezultate din interacțiunea, de-a lungul timpului, dintre factorii umani și cei naturali"".","ro","",,,,,,,"ro","FALSE",,"RO-",,"http://hdl.handle.net/10760/31553","no",,"info:eu-repo/semantics/other","info:eu-repo/semantics/openAccess"
"31553",,,,,,,,,,,,,,,,,,,,,,,,,,,,,,,,,,,,,,,,,,,,"JG",,,,,,,,,,,,,,,,,,,,,,,,,,,,,,,,,,,,,,,,,,,,,,,,,,,,,,,,,,,,,,,,,,,,,,,,,,,,,,,,,,,,,,,,,,,,,,
"31553",,,,,,,,,,,,,,,,,,,,,,,,,,,,,,,,,,,,,,,,,,,,"LE",,,,,,,,,,,,,,,,,,,,,,,,,,,,,,,,,,,,,,,,,,,,,,,,,,,,,,,,,,,,,,,,,,,,,,,,,,,,,,,,,,,,,,,,,,,,,,
"31553",,,,,,,,,,,,,,,,,,,,,,,,,,,,,,,,,,,,,,,,,,,,"LF",,,,,,,,,,,,,,,,,,,,,,,,,,,,,,,,,,,,,,,,,,,,,,,,,,,,,,,,,,,,,,,,,,,,,,,,,,,,,,,,,,,,,,,,,,,,,,
"33903","15","archive","47554",,,"disk0/00/03/39/03","2019-01-28 10:36:01","2019-01-28 10:36:01","2019-01-28 10:36:01","journalp",,,"show",,,,"","","","","","","","","","",,,,"Dinu","Nicoleta-Roxana","","","roxadinu@gmail.com","",,,,,"","","Tendinţe la nivel mondial în privinţa revistelor ştiinţifice","pub","A.","","public",,,"reviste; publicaţii digitale; publicaţii electronice; acces deschis; ruta galbenă; ruta verde; indicatori; calitate; citări; altmetrică; marketing; Journals; Digital publication; Electronic publication; Open access; Gold path; Green path; Indicators; Quality; Citations; Altmetrics; Marketing.",,"Global trends in the field of scientific journals.
A brief global state-of-the-art on the publication of scientific journals is presented, updated thanks to the author's participation in the 8th International Conference of Scientific Journals held at the University of La Costa, in Barranquilla, Colombia, organized by the Spanish journal El Profesional de la Información and the think tank in Library and Information Science Grupo ThinkEPI, in May 2018. The topics covered are: transition from the paper version to the electronic version, open access, quality indicators (citations and altmetrics) and the need to do marketing due to the great competition between journals.","2018-12-01",,,"Biblioteca",,"12","Biblioteca Naţională a României",,"355-357",,,,,,,,,,,"FALSE",,,,,,,,"",,"","","Abadal, Ernest (ed.). (2017). Revistas científicas: situación actual y retos de futuro. Barcelona: Edicions UB.
http://www.publicacions.ub.edu/ficha.aspx?cod=08744

Aparicio, Alicia; Banzato, Guillermo; Gustavo, Liberatore (2016). Manual de gestión editorial de revistas científicas de ciencias sociales y humanas: buenas prácticas y criterios de calidad. Buenos Aires: Clacso, Caicyt-Conicet, Pisac. Facultades de Ciencias Sociales y Humanas, Ministerio de Ciencia y Tecnología, Ministerio de Educación y Deportes, Red de Editoriales de Universidades Nacionales. Libro en PDF. ISBN: 978 987 722 213 
http://www.mincyt.gob.ar/_post/descargar.php?idAdjuntoArchivo=50768
http://www.memoria.fahce.unlp.edu.ar/libros/pm.482/pm.482.pdf

Fundación Española para la Ciencia y la Tecnología (2012). Manual de buenas prácticas en la edición de revistas científicas. Madrid: Fecyt.
https://www.fecyt.es/es/system/files/publications/attachments/2014/11/manual-de-buenas-practicas-en-la-edicion-de-revistas-cientificas.pdf

Badia, Giovanna (2013). Comparing the indexing of cited journals to identify the premier database for a specific discipline. 
https://www.sla.org/wp-content/uploads/2013/07/Sun-Badia-ComparingIndexing.pdf 

Baiget, Tomàs; Torres-Salinas, Daniel (2013). Informe APEI. Publicación en revistas científicas.
http://eprints.rclis.org/20321

Delgado-López-Cózar, Emilio; Ruiz-Pérez, Rafael; Jiménez-Contreras, Evaristo (2007). La edición de revistas científicas. Directrices, criterios y modelos de evaluación. Madrid: Fundación Española para la Ciencia y la Tecnología (Fecyt).
https://www.fecyt.es/es/system/files/publications/attachments/2014/11/la_edicion_de_revistas_cientificas._directrices_criterios_y_modelos_de_evaluacion.pdf

Archambault, Eric et al. (2013). Proportion of open access peer-reviewed papers at the European and world levels—2004-2011. European Commission DG Research & Innovation. 
http://www.science-metrix.com/pdf/SM_EC_OA_Availability_2004-2011.pdf 

Packer, Abel L.; Cop, Nicholas; Luccisano, Adriana; Ramalho, Amanda; Spinak, Ernesto (orgs.). (2014). SciELO: 15 Years of open access (an analytic study of open access and scholarly communication). Paris: Unesco.
https://doi.org/10.7476/9789230012373

Ulrich's (2018).
https://www.proquest.com/products-services/Ulrichsweb.html","","",,,,,,"",,,,,,,"",,,,,"",,,,,"","",,,,,"","",,,,,"Se prezintă, pe scurt, situaţia actuală la nivel global a revistelor ştiinţifice, idei obţinute în urma participării la Conferinţa Internaţională de Reviste Ştiinţifice, ediţia a VIII-a, ce a avut loc în cadrul Universităţii de La Costa, în Barranquilla (Columbia), mai 2018, şi organizată de către revista spaniolă El Profesional de la Información şi Grupul ThinkEPI, un think thank în ştiinţele informării şi documentării. Printre temele care au fost dezbătute în cadrul acestui eveniment se numără: tranziţia de la revista pe suport hârtie către cea electronică, accesul deschis, indicatori de calitate (citări şi altmetrică) şi nevoia de adoptare de acţiuni de marketing, dată fiind concurenţa acerbă între revistele existente.","ro","",,,,,,,"ro","FALSE",,"RO-",,"http://hdl.handle.net/10760/33903","no",,"info:eu-repo/semantics/other","info:eu-repo/semantics/openAccess"
"33903",,,,,,,,,,,,,,,,,,,,,,,,,,,,,,,,,,,,,,,,,,,,"H.",,,,,,,,,,,,,,,,,,,,,,,,,,,,,,,,,,,,,,,,,,,,,,,,,,,,,,,,,,,,,,,,,,,,,,,,,,,,,,,,,,,,,,,,,,,,,,
"33903",,,,,,,,,,,,,,,,,,,,,,,,,,,,,,,,,,,,,,,,,,,,"HI",,,,,,,,,,,,,,,,,,,,,,,,,,,,,,,,,,,,,,,,,,,,,,,,,,,,,,,,,,,,,,,,,,,,,,,,,,,,,,,,,,,,,,,,,,,,,,
"33903",,,,,,,,,,,,,,,,,,,,,,,,,,,,,,,,,,,,,,,,,,,,"HN",,,,,,,,,,,,,,,,,,,,,,,,,,,,,,,,,,,,,,,,,,,,,,,,,,,,,,,,,,,,,,,,,,,,,,,,,,,,,,,,,,,,,,,,,,,,,,
"24359","15","archive","9227",,,"disk0/00/02/43/59","2015-01-06 09:51:17","2015-01-06 09:51:17","2015-01-06 09:51:17","journalp",,,"show",,,,"","","","","","","","","","",,,,"Drula","Georgeta","","","","",,,,,"","","Formas de la convergencia de medios y contenidos multimedia: Una perspectiva rumana = Forms of Media Convergence and Multimedia Content: A Romanian Perspective","pub","C.","","public",,,"Media convergence, mobile media convergence, multimedia journalism, cross-media products. Convergencia de los medios, convergencia de medios móviles, periodismo multimedia, productos multiplataforma.",,"This paper addresses two types of technological media convergence: media convergence based on mobile technology, and also convergence based on the unification between IT and media industry. These forms are influenced by the multimedia aspects of the content. The research interest in this study is related to media landscape in Romania and its state. Even if many academics and practitioners consider media convergence only at the content level from journalistic perspective, this topic has many more detail aspects and trends. Thus, media convergence in terms of content can be now interpreted together with the user’s content and takes into consideration the unification between paid, owned, shared and earned content. This paper proposes a theoretical and practical perspective for the relationship between convergence and multimedia for online media products. This perspective belongs both to media producers and to online consumers of information. The paper is interesting in that it reveals the challenges facing the media industries, and shows approaches of convergence that are related to multimedia for media products. The methodological framework uses the content analysis and the hierarchical cluster analysis to discover different forms of convergence in online media. The main conclusion of this study shows that due to various technologies and their partnerships, convergence can be directed both from the users to the media industry, and conversely.","2015-01-01",,,"Comunicar","22","44",,,"131-140",,,,,,"doi:10.3916/C44-2015-14",,,,,"TRUE",,"1134-3478",,,,,,"","http://dx.doi.org/10.3916/C44-2015-14","","","Bull, A. (2010). Multimedia Journalism: A Practical Guide. Routledge.

Deuze, M. (2004). What is Multimedia Journalism. Journalism Studies 5, 2, 139-152. (DOI: http://doi.org/c76frk).

Deuze, M. (2008). The Professional Identity of Journalists in the Context of Convergence Culture. Observatorio (OBS) Journal 7, 103-117. (http://goo.gl/1Fm8cy) (10-02-2013).

Herkman, J. (2012). Convergence or Intermediality? Finnish Political Communication in the New Media Age. Convergence: The International Journal of Research into New Media Technologies, 18, 4, 369-384. (DOI: http://doi.org/tkx).

Islas, O. (2009). La convergencia cultural a través de la ecología de medios. Comunicar, 33, 25-33. (DOI: http://dx.doi.org/10.3916/c33-2009-02-002). (http://goo.gl/1B4PBH) (01-06-2014).

Jenkins, H. (2001). Convergence? I Diverge. Technology Review, 104, 5, 93. (http://goo.gl/RHZ27H) (01-07-2012).

Jenkins, H. (2006). Convergence Culture: Where Old and New Media Collide. New York: University Press.

Jinglei, N. (2012). Multimedia Fusion Era Editorial Role. Physics Procedia, 25, 733-736. Elsevier. International Conference on Solid State Devices and Materials Science, 1-2. Macao. (DOI: http://dx.doi.org/10.1016/j.phpro.2012.03.150). (http://goo.gl/l1YubJ) (20-09- 2012).

Kolodzy, J. (2006). Convergence Journalism: Writing and Reporting across the News Media. Rowman & Littlefield.

Kopecka-Piech, K. (2011). Media Convergence Concepts. Studia Medioznawcze, 46, 3. (http://goo.gl/e7ZaVJ) (22-02-2012).

Kopecka-Piech, K. (2012). Converging Media Spaces: Introducing an Emergent Field of Studies. Studia Humanistyczne AGH, 11, 3, 77-91.

Lawson-Borders, G. (2006). Media Organizations and Convergence: Case Studies of Media Convergence pioneers. Routledge.

Luckie, M. S. (2012). The Digital Journalist's Handbook. CreateSpace Independent Publishing Platform.

Murdock, G.(2000). Digital Futures: European Television in the Age of Convergence. In J. Wieten, G. Murdock & P. Dahlgren (Eds.), Television across Europe. A Comparative Introduction. London: Sage.

Opgenhaffen, M. (2011). Multimedia, Interactive, and Hypertextual Features in Divergent Online News Platforms. An Exploratory Study of Flemish Online News. First Monday, 16(3). (http://goo.gl/HNYEzD) (10-07-2012).

Owyang, J. (2012). Altimeter Report: Paid + Owned + Earned = Converged Media. Jeremiah Owyang’s Blog. (http://goo.gl/AxUpR) (01-02-2013).

Perrin, D. (2012). Shaping the Multimedia Mindset: Collaborative Writing in Journalism Education. In C. Thaiss, G. Bräuer, P. Carlino, L. Ganobcsik-Williams & A. Sinha (Eds.), Writing Programs Worldwide: Profiles of Academic Writing in Many Places. The WAC Clearinghouse and Parlor Press. (http://goo.gl/mcmxGS) (01-01-2013).

Quinn, S. (2005). Convergent Journalism: The Fundamentals of Multimedia Reporting. New York: Peter Lang.

Schepke, J. (2012). Converged Media: Maximizing Consumer Engagement in a Digital World. Searchenginewatch.com. (http://goo.gl/ErGFz) (20-02-2013).

Schulz, S. (2013). Collaborative Advantage: Open Source Leads Multimedia Convergence. eeTimes.com. (http://goo.gl/M2t5QG) (15-03-2013). (5-01-2014).

Stanchak, J. (2010). Why 2011 will be the Year of Social-media Convergence. (http://goo.gl/T0LYo) (15-12-2012).

Thorstern Q. & Singer J. (2009). Convergence and Cross-platform Content Production. In K. Wahl-Jorgensen & T. Hanitzsch (Eds.), The Handbook of Journalism Studies, (pp. 130-144). Routledge.

Thurman, N.J. & Lupton, B. (2008). Convergence Calls: Multimedia Storytelling at British News Websites. Convergence. The International Journal of Research into New Media, 14, 4, 439-455. (DOI: http://doi.org/b2kxsj).","","",,,,,,"",,,,,,,"",,,,,"",,,,,"","",,,,,"","",,,,,"Este artículo se centra en dos tipos de convergencia tecnológica de medios: la basada en tecnología móvil, y la convergencia basada en la unificación de las tecnologías de la información y la industria mediática. Estas formas están influidas por los aspectos multimedia del contenido. El interés de la investigación de este estudio se centra en el panorama mediático en Rumanía y en su estado actual. Aunque muchos académicos y profesionales evalúan la convergencia de medios por el contenido desde una perspectiva periodística, existen otros muchos aspectos y tendencias a tener en cuenta. Así, la convergencia de medios en términos de contenido puede ser interpretada junto al contenido del usuario y considera la unificación del contenido pagado, poseído, compartido y adquirido. Este artículo propone una perspectiva teórica y práctica para la relación entre convergencia y multimedia en cuanto a los productos mediáticos on-line. Esta perspectiva se refiere a los productores y a los consumidores de la información. El interés del artículo reside en tanto que identifica los retos de la industria mediática y establece enfoques acerca de la convergencia multimedia para los productos mediáticos. La metodología consiste en el análisis de contenido y en el agrupamiento jerárquico con el objetivo de descubrir diferentes formas de convergencia de medios on-line. La conclusión establece que, gracias a varias tecnologías y sus asociaciones, la convergencia puede dirigirse desde el usuario a la industria y viceversa.","es","",,,,,,,"en","FALSE",,"RO-",,"http://hdl.handle.net/10760/24359","no",,"info:eu-repo/semantics/other",
"10450","2","archive","3171",,,"disk0/00/01/04/50","2007-10-04","2014-10-02 12:09:34","2012-12-14 20:22:22","preprint",,,"show",,,,"","","","","","","","","","",,,,"Eustasius","Denisa","","","","",,,,,"","","Programele bibliografice open source",,"IA","","public",,,"""bibliographic references management"", ""open source"", ""Wikindx"", ""bibliographic systems"".",,"This article is a presentation of the bibliographic references management open source applications. After a short general exposition of the differences between commercial and open source solutions, the author analyzes some of the open source system types used in libraries. It is explained, then, the role and the functioning way of a bibliographic references management solution, exemplifying on Wikindx, considered to be the most advanced and used this kind of system.","2005",,,,,,,,,,,,,,,,,,,"FALSE",,,,,,,,"",,"","",,"","",,,,,,"",,,,,,,"",,,,,"",,,,,"","",,,,,"","",,,,,"Articolul face o incursiune in universul programelor informatice open source de gestiune a referintelor bibliografice. Dupa o scurta prezentare generala a diferentelor dintre solutiile comerciale si cele open source, articolul enumera cateva din tipurile de sisteme open source utilizate in lumea info-documentara. Apoi, este explicat rolul si modul de functionare al unul program de gestiune a referintelor bibliografice cu exemplificare pe Wikindx, considerat cel mai avansat si mai utilizat astfel de sistem.","ro","",,,,,,,"ro","FALSE",,"RO-",,"http://hdl.handle.net/10760/10450",,,"info:eu-repo/semantics/other",
"14903","2","archive","7960",,,"disk0/00/01/49/03","2010-09-18","2014-10-02 12:17:30","2012-12-14 22:28:03","journalp",,,"show",,,,"","","","","","","","","","",,,,"Florea-Paraipan","Ema","","","","",,,,,"","","Biblioteci Filiale din Complexul BCU-Carol I
Biblioteca de Stiinte Politice 
Studiu de caz","pub","FB","","public",,,"Management academic, academic libraries, electronic collections, traditional collections",,"In the contemporary society education is a national importance issue. Public education service was the base of economic and social evolution beginning with the modern period.  Library management is applied today in all the academic libraries of the world and publications aquisitions is a fundamental activity in this context.","2009-06-15",,,"Biblioteca: revista de bibliologie si stiinta informarii","6",,"Biblioteca Nationala a Romaniei",,"152-155",,,,,,,,,,,"FALSE",,,,,,,,"",,"","",,"","",,,,,,"",,,,,,,"",,,,,"",,,,,"","",,,,,"","",,,,,"In societatea contemporana educatia este o chestiune de politica nationala. Serviciul public de educatie s-a aflat la originea progreselor sociale si economice incepand cu perioada moderna. Managementul de biblioteca este aplicat astazi in toate structurile academice din lume iar achizitia de documente devine o politica prioritara in acest context.","ro","",,,,,,,"ro","FALSE",,"RO-",,"http://hdl.handle.net/10760/14903",,,"info:eu-repo/semantics/other",
"14903",,,,,,,,,,,,,,,,,,,,,,,,,,,,,,,,,,,,,,,,,,,,"DD",,,,,,,,,,,,,,,,,,,,,,,,,,,,,,,,,,,,,,,,,,,,,,,,,,,,,,,,,,,,,,,,,,,,,,,,,,,,,,,,,,,,,,,,,,,,,,
"14903",,,,,,,,,,,,,,,,,,,,,,,,,,,,,,,,,,,,,,,,,,,,"BI",,,,,,,,,,,,,,,,,,,,,,,,,,,,,,,,,,,,,,,,,,,,,,,,,,,,,,,,,,,,,,,,,,,,,,,,,,,,,,,,,,,,,,,,,,,,,,
"16198","2","archive","7960",,,"disk0/00/01/61/98","2011-10-31","2014-10-02 12:20:21","2012-12-17 16:07:13","journale",,,"show",,,,"","","","","","","","","","",,,,"Florea-Paraipan","Emanuela","","","","",,,,,"","","Studiul la Biblioteca de Științe Politice Filială a Complexului BCUB - Carol I","unpub","DH","","public",,,"studiu, biblioteca, stiinte politice",,"A brief guide for the study at Political Science Library, Bucharest, addressed especially to first year students.","2011-10-31",,,"Studiul la Biblioteca de Științe Politice Filială a Complexului BCUB - Carol I",,,,,,,,,,,,,,,,"FALSE",,,,,,,,"",,"","",,"","",,,,,,"",,,,,,,"",,,,,"",,,,,"","",,,,,"","",,,,,"Un scurt ghid privind studiul la Biblioteca Facultatii de Stiinte Politice Bucuresti, adresat studentilor primului an de studiu.","ro","",,,,,,,"ro","FALSE",,"RO-",,"http://hdl.handle.net/10760/16198",,,"info:eu-repo/semantics/other",
"12821","2","archive","5818",,,"disk0/00/01/28/21","2009-03-11","2014-10-02 12:13:48","2012-12-14 21:28:54","journalp",,,"show",,,,"","","","","","","","","","",,,,"Fortis","Alexandra","","","","",,,,,"","","Considerations on Resource Usage in Exceptions and Failures in Workflows","pub","LK","","public",,,"resource modeling, resources availability, workflow exceptions, workflow failures, worklets",,"The paper presents a description of some point of view of different authors related to the failures and exceptions that appear in workflows, as a direct consequence of unavailability of resources involved in the workflow. Each of these interpretations is typical for a certain situation, depending on the authors' interpretation of failures and exceptions in workflows modeling real dynamical systems.","2008-12",,,"Annals : Computer Science Series","VI","1","Mirton Publishing House, Timisoara, Romania",,"69-80",,,,,,,,,,,"TRUE",,,,,,,,"",,"","","Adams, M., ter Hofstede, A.H.M., Edmond, D., van der Aalst. W.M.P. -  Facilitating flexibility and dynamic exception handling in workflows through worklets. In Orlando Bello, Johann Eder, Oscar Pastor, and Joao Falcao e Cunha, editors, Proceedings of the CAiSE'05 Forum, pages 45-50, Porto, Portugal, June 2005. 

Adams, M., ter Hofstede, A.H.M., Edmond, D., and van der Aalst, W.M.P. - Dynamic and Extensible Exception Handling for Workflows: A Service-Oriented Implementation. (PDF, 311Kb) BPM Center Report BPM-07-03, BPMcenter.org, 2007.

Chiu, D. K. - Exception Handling in an Object-Oriented Workflow Management System, PhD Thesis, Hong Kong University of Science and Technology, 2000.

Casati,F. -  Models, Semantics, and Formal Methods for the Design of Workflows and Their Exceptions, PhD Thesis, Politecnico di Milano, 1998.

Casati, F., Ceri, S., Paraboschi, S.  and Pozzi, G. -  Specification and Implementation of Exceptions in Workflow Management Systems, ACM Transactions on Database Systems, 24, 3, (1999).

Cicortaş, A., Iordan, V., Fortiş, A., Fortiş, F., - Reengineering the Failed Workflows, International Workshop in Collaborative Systems, Annals of the Tiberiu Popoviciu Seminar, Supplement international Workshop in Collaborative Systems, Vol. 4, Cluj-Napoca,Romania, 2006

Eder, J., Liebhart, W. - The Workflow Activity Model WAMO, Int. Conf. on Cooperative Information Systems, Vienna, Austria, 1995.

Eder, J., Liebhart, W. - Workflow Recovery, 1st IFCIS Intl. Conf. on Cooperative Information Systems (CoopIS'96). Brussels, Belgium: IEEE International, 1996.

Eder, J., Liebhart, W. - Contributions to Exception Handler in Workflow Management, Int. Conf. on Extended Database Technology (EDBT'98), Workshop on Workflow Management Systems, Valencia, Spain, 1998.

Fortiş, A., Fortiş, F., - Using BPM Technologies for Material Balances Modelling, Proceedings of the 8th International Symposium on Symbolic and Numeric Algorithms for Scientific Computing (SYNASC 2006), Timişoara. IEEE Computer Society 2006,

Fortiş, A., - Business Process Modeling Notation – An Overview, Proceedings of the 1st European Conference on Computer Science and Applications, XA2006, Timişoara, România, 2006.

Fortiş, A., - Analysis of some properties for a basic Petri net model, Analele Universitatii Tibiscus, Seria  Informatica, 2007, Timisoara, Romania

Guimaraes, N., Antunes, P., and Pereira, A. P. - The Integration of Workflow Systems and Collaboration Tools, in A. K. Dogac, Leonid Ozsu (Eds.), Advances in Workflow Management Systems and Interoperability, Istambul, 1997.

Klein, M., and Dellarocas, C. - A Knowledge-Based Approach to Handling Exceptions in Workflow Systems, Computer Supported Cooperative Work, 9, 3 (2000).

Mourao, H., Antunes, P. - Workflow Recovery Framework for Exception Handling: Involving the User, in Groupware: Design, Implementation and Use, Lecture Notes in Computer Science, 2003.

Russel, N., ter Hofstede, A.H.M., Edmond, D., van der Aalst, W.M.P. - Workflow Resource Patterns, BETA Working Paper Series, WP 127, Eindhoven University of Technology, Eindhoven, 2004. 

Russell, N., van der Aalst, W.M.P., ter Hofstede, A.H.M. -Exception Handling Patterns in Process-Aware Information Systems, BPM Center Report BPM-06-04, BPMcenter.org, 2006.

Saastamoinen, H. - On the Handling of Exceptions in Information Systems, PhD Thesis, University of Jyvaskyla, 1995.","","",,,,,,"",,,,,,,"",,,,,"",,,,,"","",,,,,"","",,,,,"Lucrarea prezintă o descriere a unor puncte de vedere aparţinând mai multor autori referitor la eşecurile şi excepţiile care apar în workflow-uri, ca o consecinţă directă a indisponibilităţii resurselor implicate în workflow. Fiecare dintre aceste interpretări este caracteristică unei anumite situaţii, în funcţie de interpretarea pe care o dau autorii eşecurilor şi excepţiilor în workflow-uri care modelează sisteme reale.","ro","",,,,,,,"en","FALSE",,"RO-",,"http://hdl.handle.net/10760/12821",,,"info:eu-repo/semantics/other",
"12821",,,,,,,,,,,,,,,,,,,,,,,,,,,,,,"Cicortas","Alexandru","","",,,,,,,,,,,"LD",,,,,,,,,,,,,,,,,,,,,,,,,,,,,,,,,,,,,,,,,,,,,,,,,,,,,,,,,,,,,,,,,,,,,,,,,,,,,,,,,,,,,,,,,,,,,,
"12821",,,,,,,,,,,,,,,,,,,,,,,,,,,,,,"Iordan","Victoria","","",,,,,,,,,,,,,,,,,,,,,,,,,,,,,,,,,,,,,,,,,,,,,,,,,,,,,,,,,,,,,,,,,,,,,,,,,,,,,,,,,,,,,,,,,,,,,,,,,,,,,,,,,
"39401","37","archive","46581",,,"disk0/00/03/94/01","2020-02-24 08:12:02","2020-02-24 08:12:02","2020-02-24 08:12:02","tutorial",,,"show",,,,"","","","","","","","","","",,,,"kiramat","ullah","","","","",,,,,"","","Wireless Communication in Personal Space","unpub","LA","","public",,,"personal area, information security, telecommunications, wireless medium",,"In communications the area of coverage is very important, such that personal space or long range to send information. The distance refers to class of networks such as per-sonal range or wide area, while the protocols of communications refer to mode or type of networks, such as ad-hoc or self organization etc. in this report we refer to the for-mer part and analyze some of the used cases for students as tutorials.","2019-12-16",,,,,,,,,,,,,,,,,,,"FALSE",,,,,,,,"",,"","",,"","",,,,,,"",,,,,,,"",,,,,"",,,,,"","",,,,,"","",,,,,"","","",,,,,,,"en","TRUE",,"AF-",,"http://hdl.handle.net/10760/39401","no",,"info:eu-repo/semantics/other","info:eu-repo/semantics/openAccess"
"39401",,,,,,,,,,,,,,,,,,,,,,,,,,,,,,,,,,,,,,,,,,,,"LB",,,,,,,,,,,,,,,,,,,,,,,,,,,,,,,,,,,,,,,,,,,,,,,,,,,,,,,,,,,,,,,,,,,,,,,,,,,,,,,,,,,,,,,,"BE-",,,,,,
"39401",,,,,,,,,,,,,,,,,,,,,,,,,,,,,,,,,,,,,,,,,,,,"LC",,,,,,,,,,,,,,,,,,,,,,,,,,,,,,,,,,,,,,,,,,,,,,,,,,,,,,,,,,,,,,,,,,,,,,,,,,,,,,,,,,,,,,,,"DK-",,,,,,
"39401",,,,,,,,,,,,,,,,,,,,,,,,,,,,,,,,,,,,,,,,,,,,"LH",,,,,,,,,,,,,,,,,,,,,,,,,,,,,,,,,,,,,,,,,,,,,,,,,,,,,,,,,,,,,,,,,,,,,,,,,,,,,,,,,,,,,,,,"GM-",,,,,,
"39401",,,,,,,,,,,,,,,,,,,,,,,,,,,,,,,,,,,,,,,,,,,,"LI",,,,,,,,,,,,,,,,,,,,,,,,,,,,,,,,,,,,,,,,,,,,,,,,,,,,,,,,,,,,,,,,,,,,,,,,,,,,,,,,,,,,,,,,"IN-",,,,,,
"39401",,,,,,,,,,,,,,,,,,,,,,,,,,,,,,,,,,,,,,,,,,,,"LT.",,,,,,,,,,,,,,,,,,,,,,,,,,,,,,,,,,,,,,,,,,,,,,,,,,,,,,,,,,,,,,,,,,,,,,,,,,,,,,,,,,,,,,,,"MA-",,,,,,
"39401",,,,,,,,,,,,,,,,,,,,,,,,,,,,,,,,,,,,,,,,,,,,,,,,,,,,,,,,,,,,,,,,,,,,,,,,,,,,,,,,,,,,,,,,,,,,,,,,,,,,,,,,,,,,,,,,,,,,,,,,,,,,,,,,,,,,"PL-",,,,,,
"39401",,,,,,,,,,,,,,,,,,,,,,,,,,,,,,,,,,,,,,,,,,,,,,,,,,,,,,,,,,,,,,,,,,,,,,,,,,,,,,,,,,,,,,,,,,,,,,,,,,,,,,,,,,,,,,,,,,,,,,,,,,,,,,,,,,,,"PT-",,,,,,
"39401",,,,,,,,,,,,,,,,,,,,,,,,,,,,,,,,,,,,,,,,,,,,,,,,,,,,,,,,,,,,,,,,,,,,,,,,,,,,,,,,,,,,,,,,,,,,,,,,,,,,,,,,,,,,,,,,,,,,,,,,,,,,,,,,,,,,"RO-",,,,,,
"39401",,,,,,,,,,,,,,,,,,,,,,,,,,,,,,,,,,,,,,,,,,,,,,,,,,,,,,,,,,,,,,,,,,,,,,,,,,,,,,,,,,,,,,,,,,,,,,,,,,,,,,,,,,,,,,,,,,,,,,,,,,,,,,,,,,,,"RS-",,,,,,
"39401",,,,,,,,,,,,,,,,,,,,,,,,,,,,,,,,,,,,,,,,,,,,,,,,,,,,,,,,,,,,,,,,,,,,,,,,,,,,,,,,,,,,,,,,,,,,,,,,,,,,,,,,,,,,,,,,,,,,,,,,,,,,,,,,,,,,"SE-",,,,,,
"39401",,,,,,,,,,,,,,,,,,,,,,,,,,,,,,,,,,,,,,,,,,,,,,,,,,,,,,,,,,,,,,,,,,,,,,,,,,,,,,,,,,,,,,,,,,,,,,,,,,,,,,,,,,,,,,,,,,,,,,,,,,,,,,,,,,,,"TR-",,,,,,
"39401",,,,,,,,,,,,,,,,,,,,,,,,,,,,,,,,,,,,,,,,,,,,,,,,,,,,,,,,,,,,,,,,,,,,,,,,,,,,,,,,,,,,,,,,,,,,,,,,,,,,,,,,,,,,,,,,,,,,,,,,,,,,,,,,,,,,"ZA-",,,,,,
"39401",,,,,,,,,,,,,,,,,,,,,,,,,,,,,,,,,,,,,,,,,,,,,,,,,,,,,,,,,,,,,,,,,,,,,,,,,,,,,,,,,,,,,,,,,,,,,,,,,,,,,,,,,,,,,,,,,,,,,,,,,,,,,,,,,,,,"ZW-",,,,,,
"25403","13","archive","24643",,,"disk0/00/02/54/03","2015-07-15 12:18:27","2015-07-15 12:18:27","2015-07-15 12:18:27","journalp",,,"show",,,,"","","","","","","","","","",,,,"Mihai","Florin-Constantin","","","","",,,,,"","","Geography of waste as a new approach in waste management study","pub","BF","","public",,,"waste management, interdisciplinarity, geography of waste
",,"Municipal waste management in the last two decades has become a global environmental priority in the context of increasing amounts of waste generated due to the development of a mass consumer society. Various issues of waste management , territorial and temporal variability, spatial analysis of treatment or disposal facilities, systemic implications on the environment, the harmonization of international policy at national, regional and local level are solid arguments for studying this field by geography. Mostly technical or economic studies, lacking a vision of territory are supplemented in the conceptual and methodological level by geographers. This paper performed on the one hand, an overview of various approaches in current literature on waste management issue and on another hand analyses the geographical contributions in this field. Our conclusions lead to the idea that waste management must be performed according to the geographical features of the territory concerned.","2012",,,"Lucrările Seminarului Geografic ""Dimitrie Cantemir""","33",,,,"39-46",,,,,,,,,,,"TRUE",,,,,,,,"",,"","",,"","",,,,,,"",,,,,,,"",,,,,"",,,,,"","",,,,,"","",,,,,"","","",,,,,,,"en","FALSE",,"RO-",,"http://hdl.handle.net/10760/25403","no",,"info:eu-repo/semantics/other","info:eu-repo/semantics/openAccess"
"25403",,,,,,,,,,,,,,,,,,,,,,,,,,,,,,,,,,,,,,,,,,,,"DI",,,,,,,,,,,,,,,,,,,,,,,,,,,,,,,,,,,,,,,,,,,,,,,,,,,,,,,,,,,,,,,,,,,,,,,,,,,,,,,,,,,,,,,,,,,,,,
"25403",,,,,,,,,,,,,,,,,,,,,,,,,,,,,,,,,,,,,,,,,,,,"DJ",,,,,,,,,,,,,,,,,,,,,,,,,,,,,,,,,,,,,,,,,,,,,,,,,,,,,,,,,,,,,,,,,,,,,,,,,,,,,,,,,,,,,,,,,,,,,,
"25403",,,,,,,,,,,,,,,,,,,,,,,,,,,,,,,,,,,,,,,,,,,,"DK",,,,,,,,,,,,,,,,,,,,,,,,,,,,,,,,,,,,,,,,,,,,,,,,,,,,,,,,,,,,,,,,,,,,,,,,,,,,,,,,,,,,,,,,,,,,,,
"22412","12","archive","15586",,,"disk0/00/02/24/12","2014-08-07 11:36:39","2014-10-02 12:30:03","2014-08-07 11:36:39","journalp",,,"show",,,,"","","","","","","","","","",,,,"Nazare","Daniel ","","","","",,,,,"","","Lady Cafe – Motivating Activities for Women Aged 45+","pub","CC","","public",,,"Motivation, awareness, self-esteem, e-learning, literature",,"This short paper discusses the details of a research project entitled “Lady Cafe – motivating activities for women aged 45+”. The project is based on motivational activities on different fields including e-learning, literature, psychology, health and traditional medicine. It is designed to make women over 45 aware of their abilities, so that they can transfer their ‘know-how’ from the domestic field to a wider scope within society.","2013-11-15",,,"Journal of Balkan Libraries Union","1","1","Balkan Libraries Union & Trakya University",,"24-25",,,,,,,,,,,"TRUE",,,,,,,,"",,"","",,"","",,,,,,"",,,,,,,"",,,,,"",,,,,"","",,,,,"","",,,,,"","","",,,,,,,"en","FALSE",,"RO-",,"http://hdl.handle.net/10760/22412",,,"info:eu-repo/semantics/other",
"22412",,,,,,,,,,,,,,,,,,,,,,,,,,,,,,"Popescu","Claudia","","",,,,,,,,,,,"CD",,,,,,,,,,,,,,,,,,,,,,,,,,,,,,,,,,,,,,,,,,,,,,,,,,,,,,,,,,,,,,,,,,,,,,,,,,,,,,,,,,,,,,,,,,,,,,
"16034","2","archive","8876",,,"disk0/00/01/60/34","2011-08-23","2014-10-02 12:19:55","2012-12-17 17:23:46","bookchapter",,,"show",,,,"","","","","","","","","","",,,,"Repanovici","Angela","","","","",,,,,"","","RFID- APPLICATION IN INFO-DOCUMENTARY SYSTEMS","pub","JJ","","public",,,"Libraries automatization, RFID technology, institutional repositories, Koha, open source, information society, research in library science, opn access, visibility of research",,"The automatization process in all industrial and social fields requires large amounts of data processing. Data Acquisition and Control Solutions can be improved by collecting and processing data in real-time without human involvement through Automatic Identification or Auto ID.
Radio Frequency Identification (RFID - Radio Frequency Identification) or proximity is the latest and most advanced method automatic data collection technology, gaining a wide acceptance as people understand and use this technology.
With the advent of RFID technology, RFID has been introduced in the library. The free and efficient use of the newest resources of the information technology is a big step toward to the public free and rapid access to information and to the global documentation with high quality.
Transilvania University of Brasov proposed a model of harvesting, digitizing, indexing, storing and retrieving information using the principles of open access to information and the advantages of using open access sources.  The model is projected so that it should allow integration within an integrated system by using RFID technology for documents accounts, circulation and periodical inventory, achieving, with a minimum cost price, the computerization of small libraries in universities research departments and visible improvement of the department scientific production by publishing the staff’s papers in open access.  
The proposed solution offers the model with a minimum cost using open sources software and it offers a useful instrument for the university researchers opening new opportunities for master students and PhD students.","2011-05-23",,,"Designing and Deploying RFID Applications",,,"InTECH",,,,,,,,,,,,,"FALSE",,,,"Turcu","Cristina","","","",,"","","3M.  (2011). Library systems. Retrieved January 29, 2011, from http://solutions.3m.co.uk/wps/portal/3M/en_GB/Library_Systems/Library_Sys
tem/?WT.mc_id=www.3m.com/uk/library

Clampitt, H. (2010). The RFID HandBook 7th Edition . Retrieved March 3, 2011, from http://www.rfidhandbook.blogspot.com/

Course Hero. (2009) Retrieved March 3, 2011, from http://www.coursehero.com/file/2110010/basatsabris200612mast/

Create a new library. (2010). Retrieved March 2, 2011, from RFID 401 Tag quality and reliability:http://multimedia.3m.com/mws/mediawebserver?mwsId=66666UuZjc
%20FSLXTtnXMVo8%20T2EVuQEcuZgVs6EVs6E666666--&fn=RFID%20401.pdf

Garfinkel, S. (2005). Understanding RFID Technology. Garfinkel.book.

Halayci, S. (2009). Design of a radio frequency identification  (RFID) ANTENNA. Retrieved February 12, 2011, from http://etd.lib.metu.edu.tr/upload/12610554/index.pdf

Kim, G. K. (2007). Locating and tracking assets using RFID. Thesis.

Kinkenzler, K. (2003). RFID Handbook: Fundamentals and Application in Contactless Smart Cards and Identification. New York: John Wiley and Sons.

LibBest. (2010). Library RFID Management System. Retrieved January 15, 2011, from http://www.rfid-library.com/en/default_e.html

LIS Links (2011) : A Virtual Community of Indian LIS Professionals. (2011). Retrieved March 3, 2011, from http://lislinks.com/forum/topics/security-system-for-library

Narayanan A., S. S. (2009). Implementing RFID in Library: Methodologies, Advantage and Disadvantage. Retrieved March 3, 2011, from http://library.igcar.gov.in/readit-
2005/conpro/lgw/s5-8.pdf

Radio-frequency identification (RFID). (2010). Retrieved January 11, 2011, from http://rfidchip.org/

RFID (2010). Retrieved March 5, 2011, from http://www.scribd.com/doc/4098031/radiofrequency-identification-RFID

SIPTEH (2008). Sistem integrat pentru indexarea şi partajarea on-line a documentelor tehnice digitizate (SIPTEH). Galati: Universitatrea Dunarea de Jos.

Team, G. R. (2010). RFID Asset Tracking. Retrieved December 21, 2010, from Understanding RFID:http://www.gaorfidassettracking.com/RFID_Asset_Tracking_Resources/rfi
d_understanding/

Ward, M. K. (2006). RFID: Frequency, standards, adoption and innovation. JISC Technology and Standard Watch.","","",,,,,,"",,,,,,,"",,,,,"",,,,,"","",,,,,"","",,,,,"","","","21",,,,,,"en","FALSE",,"RO-",,"http://hdl.handle.net/10760/16034",,,"info:eu-repo/semantics/other",
"16034",,,,,,,,,,,,,,,,,,,,,,,,,,,,,,"Cristea","Luciana","","",,,,,,,,,,,"L.",,,,,,,,,,,,,,,,,,,,,,,,,,,,,,,,,,,,,,,,,,,,,,,,,,,,,,,,,,,,,,,,,,,,,,,,,,,,,,,,,,,,,,,,,,,,,,
"16034",,,,,,,,,,,,,,,,,,,,,,,,,,,,,,,,,,,,,,,,,,,,"LQ",,,,,,,,,,,,,,,,,,,,,,,,,,,,,,,,,,,,,,,,,,,,,,,,,,,,,,,,,,,,,,,,,,,,,,,,,,,,,,,,,,,,,,,,,,,,,,
"32282","23","archive","41614",,,"disk0/00/03/22/82","2018-01-25 01:08:40","2018-01-25 11:01:24","2018-01-25 07:19:12","preprint",,,"show",,,,"","","","","","","","","","",,,,"Santín-Picoita","Gustavo F.","","","https://orcid.org/0000-0002-3852-047X","",,,,,"","","El ‘Like’ ha conquistado internet. Interrogantes al uso y filosofía.",,"BA","","public",,,"Facebook, Botón Me gusta, Like, Ícono, Icon, Redes sociales,",,"The phenomenon of the 'Like' icon has conquered the Internet in recent years. What is the interest in using it? The present essay provides a reflection on the question.","2018-01-24",,,,,,,,,,,,,,,,,,,"TRUE",,,,,,,,"",,"","","Bolter, David Jay; Grusin, Richard; (2011). Inmediatez, hipermediación, remediación. CIC. Cuadernos de Información y Comunicación.
BBC (2016). “""Me encanta"", ""me enfada"", ""me asombra"": Facebook cambia el botón de ""No me gusta"" por varios emojis”. BBC. https://goo.gl/6jlLu1
Constine, Josh(2017). “Facebook tests reactions  and  Dislike  button (!) on messages”. Techcrunch. https://goo.gl/5v0qkE
Distefano, Miguel (2014). “La década social: ¿por qué la gente usa Facebook? La Nación”. Buenos Aires, Argentina. https://goo.gl/oW2Kjz
Han, Byung-Chul (2013). La Sociedad de la Transparencia. Editorial. https://goo.gl/Cnkewg
Islas, Octavio (2008). “El papel de los prosumidores en la remediación de Internet”. Ponencia presentada en en el I Encuentro Internacional InfoCC. La Paz (Bolivia), 28 al 30 Mayo 2008.
López Guadalupe y Ciuffoli, Clara (2012). Facebook es el mensaje. Argentina: Editorial La Crujía. https://goo.gl/HKL0XD
Parrando, Néstor (2012). “La historia del botón ‘Me gusta’ de Facebook”. Yahoo! Finanzas. https://goo.gl/1KMqof
Scolari, Carlos (2014). “Byung-Chul Han: transparencia, cansancio y psicopolítica (i)”.","","",,,,,,"",,,,,,,"",,,,,"",,,,,"","",,,,,"","",,,,,"El fenómeno del ícono 'Me gusta' ha conquistado Internet en estos últimos años ¿Cuál es el interés en usarlo? El presente ensayo aporta una reflexión sobre la interrogante.","es","",,,,,,,"es","FALSE",,"AR-",,"http://hdl.handle.net/10760/32282","no",,"info:eu-repo/semantics/other","info:eu-repo/semantics/openAccess"
"32282",,,,,,,,,,,,,,,,,,,,,,,,,,,,,,,,,,,,,,,,,,,,"BC",,,,,,,,,,,,,,,,,,,,,,,,,,,,,,,,,,,,,,,,,,,,,,,,,,,,,,,,,,,,,,,,,,,,,,,,,,,,,,,,,,,,,,,,"EC-",,,,,,
"32282",,,,,,,,,,,,,,,,,,,,,,,,,,,,,,,,,,,,,,,,,,,,"BD",,,,,,,,,,,,,,,,,,,,,,,,,,,,,,,,,,,,,,,,,,,,,,,,,,,,,,,,,,,,,,,,,,,,,,,,,,,,,,,,,,,,,,,,"PE-",,,,,,
"32282",,,,,,,,,,,,,,,,,,,,,,,,,,,,,,,,,,,,,,,,,,,,"BI",,,,,,,,,,,,,,,,,,,,,,,,,,,,,,,,,,,,,,,,,,,,,,,,,,,,,,,,,,,,,,,,,,,,,,,,,,,,,,,,,,,,,,,,"RO-",,,,,,
"32282",,,,,,,,,,,,,,,,,,,,,,,,,,,,,,,,,,,,,,,,,,,,"C.",,,,,,,,,,,,,,,,,,,,,,,,,,,,,,,,,,,,,,,,,,,,,,,,,,,,,,,,,,,,,,,,,,,,,,,,,,,,,,,,,,,,,,,,,,,,,,
"32282",,,,,,,,,,,,,,,,,,,,,,,,,,,,,,,,,,,,,,,,,,,,"CA",,,,,,,,,,,,,,,,,,,,,,,,,,,,,,,,,,,,,,,,,,,,,,,,,,,,,,,,,,,,,,,,,,,,,,,,,,,,,,,,,,,,,,,,,,,,,,
"10186","2","archive","1461",,,"disk0/00/01/01/86","2007-08-13","2014-10-02 12:09:02","2012-12-14 20:16:32","journalp",,,"show",,,,"","","","","","","","","","",,,,"Tomescu","Silvia","","","","",,,,,"","","Serviciile bibliotecii electronice in procesul de instruire si invatare","pub","H.","","public",,,"biblioteca digitala, resurse de informare,standarde de conversie, perfectionare profesionala, dezvoltarea colectiilor, acces la resurse",,"""Electronic library services for teaching and learning "" aims to analise the electronic library and digital library in the context of NTIC evolution added to the dynamic of educational field.","2005",,,"CARTEA : Revista Bibliotecii Judeţene ""C. Sturdza"" Bacău","4","4 trim","Biblioteca Judeteana ""C. Sturdza"" Bacau",,"1-1",,,,,,,,,,,"FALSE",,,,,,,,"",,"","",,"","",,,,,,"",,,,,,,"",,,,,"",,,,,"","",,,,,"","",,,,,"""Serviciile Bibliotecii electronice in procesul de instruire si invatare"" isi propune sa aduca limpeziri de sens  conceptului de ""biblioteca electronica"" si ""biblioteca digitala"" in contextul evolutiei tehnologiei informationale si al adaugarii acesteia dinamicii invatamantului.","ro","",,,,,,,"ro","FALSE",,"RO-",,"http://hdl.handle.net/10760/10186",,,"info:eu-repo/semantics/other",
"3981","2","archive","1461",,,"disk0/00/00/39/81","2008-12-17","2014-10-02 11:56:53","2012-12-14 17:42:59","journalp",,,"show",,,,"","","","","","","","","","",,,,"Tomescu","Silvia","","","","",,,,,"","","Serviciile electronice din bibliotecile universitare in sustinerea studiului si cercetarii","pub","H.","","public",,,"biblioteci universitare, baze de date, cercetare, licente, copyright, perfectionare, referinte online, servicii electronice",,"Academic libraries have become new actors in the process of distance learning among other factors of education and research. Due to the new storage media and new channels for transmitting information, university libraries complete the formation of the universities. Libraries are reshaping its services; we speak about electronic references, full text data access, Web resources, that are integral part of university education in the electronic environment. Our discussion focuses on the Central University Library of Bucharest as the actor in learning and e learning with few examples of electronic services that it provides. The librarians also have to adapt to the e-delivery and storage of information, to form and to inform about the e-resources for learning. We have to develop national strategies and add value to the role of university library as a key factor in e learning delivery.","2008-08-25",,,"Biblioteca: revista de bibliologie si stiinta informarii",,"7-8","Revista Biblioteca",,"251-254",,,,,,,,,,,"FALSE",,,,,,,,"",,"","",,"","",,,,,,"",,,,,,,"",,,,,"",,,,,"","",,,,,"","",,,,,"Bibliotecile universitare au devenit noi actori in procesul de educatie la distanta alaturi de alti factori implicati in cercetarea si educatia universitara.Datorita noilor formate de stocare, dar si noilor canale de distributie, bibliotecile universitare contribuie substantial la procesul de formare alaturi de universitati.Bibliotecile isi redimensioneaza serviciile;vorbim de servicii de referinta electronice, acces la baze de date full text, resurse web, care sunt parte integranta din procesul de educatie universitara, in mediul electronic. Bibliotecarii au fost obligati sa-si redefineasca abilitatile de lucru in noile contexte; facem trimiteri la Biblioteca Centrala Universitara din Bucuresti care prin serviciile pe care le ofera in contexte electronice devine un important furnizor de e-learning care formeaza, informeaza si perfectioneaza utilizatorii.","ro","",,,,,,,"ro","FALSE",,"RO-",,"http://hdl.handle.net/10760/3981",,,"info:eu-repo/semantics/other",
"3981",,,,,,,,,,,,,,,,,,,,,,,,,,,,,,,,,,,,,,,,,,,,"J.",,,,,,,,,,,,,,,,,,,,,,,,,,,,,,,,,,,,,,,,,,,,,,,,,,,,,,,,,,,,,,,,,,,,,,,,,,,,,,,,,,,,,,,,,,,,,,
"3981",,,,,,,,,,,,,,,,,,,,,,,,,,,,,,,,,,,,,,,,,,,,"K.",,,,,,,,,,,,,,,,,,,,,,,,,,,,,,,,,,,,,,,,,,,,,,,,,,,,,,,,,,,,,,,,,,,,,,,,,,,,,,,,,,,,,,,,,,,,,,
"3981",,,,,,,,,,,,,,,,,,,,,,,,,,,,,,,,,,,,,,,,,,,,"L.",,,,,,,,,,,,,,,,,,,,,,,,,,,,,,,,,,,,,,,,,,,,,,,,,,,,,,,,,,,,,,,,,,,,,,,,,,,,,,,,,,,,,,,,,,,,,,
"13481","2","archive","1461",,,"disk0/00/01/34/81","2010-07-25","2014-10-02 12:15:07","2012-12-14 21:46:58","other",,,"show",,,,"","","","","","","","","","",,,,"Tomescu","Silvia-Adriana","","","","",,,,,"","","Biblioteca Facultăţii de Ştiinţe Politice","unpub","DD","","public",,,"Biblioteci universitare, biblioteca de Stiinte Politice, Monica Lovinescu-Virgil Ierunca, literatura anticomunista",,"TBecause of the info-documentary and educational value of its publications, the Biblioteca Facultăţii de Ştiinţe Politice (Political Science Library) is one of the most important libraries in Europe, especially on anticommunist literature.","2010-04-02",,,,,,,,,,,,,,,,,,,"FALSE",,,,,,,,"",,"","",,"","",,,,,,"",,,,,,,"",,,,,"",,,,,"","",,,,,"","",,,,,"","","",,,,,,,"ro","FALSE",,"RO-",,"http://hdl.handle.net/10760/13481",,,"info:eu-repo/semantics/other",
"13480","2","archive","1461",,,"disk0/00/01/34/80","2010-07-11","2014-10-02 12:15:07","2012-12-14 21:46:50","journalp",,,"show",,,,"","","","","","","","","","",,,,"Tomescu","Silvia-Adriana","","","","",,,,,"","","Dinamica utilizării serviciilor electronice în bibliotecile universitare. Biblioteca Centrală Universitară „Carol I “ din Bucureşti. Studiu de caz","pub","G.","","public",,,"servicii electronice, baze de date, educatie universitara, biblioteci universitare, referinte electronice",,"Globalization of the contemporary has led to the emergence of new professions, reconfigurations of the universities and specialized processing functions of classical structures and integrated info-documentary services that support the research needs. We speak about electronic products such as: databases, articles, ebooks, ejournals, scientific information is made available to researchers in the form of dynamic resources, logically organized and interconnected, allowing individual logins, searches for complex criteria, selection and exports in various formats. We started with the assumption that users analyze opinions on the facilities offered by university library electronic services, may lead to developing a marketing optimized electronic collections and how users can bring you closer to the dynamics of digital information.	We analised the electronic services of the largest Romanian libraries of this type, just to observe and measure how is  used and applied the  e-scientific information in  users research practice.","2010-03-01",,,"Biblioteca: revista de bibliologie si stiinta informarii",,"3","Biblioteca Nationala a Romaniei",,"76-83",,,,,,,,,,,"FALSE",,,,,,,,"",,"","","BIBLIOTECA CENTRALĂ UNIVERSITARĂ „CAROL I”. Raport 2008. Bucureşti: BCU, mai 2009, 39-40 p.

CHELCEA, Septimiu. Iniţiere în cercetarea sociologică. Bucureşti: Comunicare.ro, 2004, 111 p. 

DRĂGĂNESCU, Mihai. Societatea Informaţională şi a cunoaşterii. Vectorii societăţii cunoaşterii. Bucureşti: Academia Română, 32 p. 

FRÂNCU. Victoria. Studierea comportamentului utilizatorului. Formarea utilizatorului unei biblioteci universitare. [Citat 6 ianuarie 2010]. Disponibil pe Internet la adresa: http://www.bcub.ro.

REGNEALĂ, Mircea. Noi studii de biblioteconomie. Bucureşti: Editura ABR, 2009,  585 p. 

STOICA, Ion. Criza în structurile info-documentare. Constanţa: Editura Ex-Ponto, 2001, 116 p. 

VAN DER POST, W.Z,  DE CONING, T. J., SMITH, E. An instrument to measure organizational culture. În : South African Journal of Business Management, 1997, Vol 28, nr. 4, 147-168 p.","","",,,,,,"",,,,,,,"",,,,,"",,,,,"","",,,,,"","",,,,,"","","",,,,,,,"ro","FALSE",,"RO-",,"http://hdl.handle.net/10760/13480",,,"info:eu-repo/semantics/other",
"13480",,,,,,,,,,,,,,,,,,,,,,,,,,,,,,,,,,,,,,,,,,,,"HL",,,,,,,,,,,,,,,,,,,,,,,,,,,,,,,,,,,,,,,,,,,,,,,,,,,,,,,,,,,,,,,,,,,,,,,,,,,,,,,,,,,,,,,,,,,,,,
"13480",,,,,,,,,,,,,,,,,,,,,,,,,,,,,,,,,,,,,,,,,,,,"BH",,,,,,,,,,,,,,,,,,,,,,,,,,,,,,,,,,,,,,,,,,,,,,,,,,,,,,,,,,,,,,,,,,,,,,,,,,,,,,,,,,,,,,,,,,,,,,
"13480",,,,,,,,,,,,,,,,,,,,,,,,,,,,,,,,,,,,,,,,,,,,"J.",,,,,,,,,,,,,,,,,,,,,,,,,,,,,,,,,,,,,,,,,,,,,,,,,,,,,,,,,,,,,,,,,,,,,,,,,,,,,,,,,,,,,,,,,,,,,,
"14734","2","archive","1461",,,"disk0/00/01/47/34","2010-07-11","2014-10-02 12:17:13","2012-12-14 22:22:07","confpaper",,,"show",,,,"","","old_but_not_published","old_but_not_published","Date is <strong xmlns=""http://eprints.org/ep3/issues"">14 May 2010</strong> but item is still marked as <strong xmlns=""http://eprints.org/ep3/issues"">In Press</strong>.","2013-01-05 06:17:22","autoresolved","","","","0",,,"Tomescu","Silvia-Adriana","","","","",,,,,"","","Knowledge, communication and eLearning in Higher Education
Perception and differences of traditional and modern academic status","inpress","GH","","public",,,"Knowledge, e-learning, communication, academic status",,"The aim of the present analyze is to underline the importance of a systemic approach of knowledge communication in eLearning academic sphere, in order to improve the efficiency and quality of research. At the same time, we intend to notice and shape the evolution of both teacher and learner status in higher education. The rhetoric about knowledge is often associated with organization and transfer of information. To provide students with a modern understanding of the „shared values“ in higher education has become an important objective. The teachers have to adapt new forms of e-delivery of discipline content, form and inform about e-resources for learning. We have to develop national strategies and add value to the role of university as a key factor in e-learning. The knowledge transfer at academic level, can be fully realized only when information encounters in the student the optimal set of tools designed to facilitate learning, and an individual style of thinking, so as to analyze fundamental questions and to be able to validate or invalidate the information. The teacher status evolves from content expert to metacognition expert, from guide in valuable information search to knowledge communicator. The present analyze reflects some aspects of the consequences that new forms of communication evolved during transition from traditional to e-academic environment.","2010-05-14",,,,,,"Universitatea Danubius Galati",,,,,,,,,,,,,"FALSE",,,,,,,,"",,"","","American Association for Advanced Science. Benchmarks for scientific literacy. Washington, DC: AAAS

Goodyear, Peter. (2000). Effective networked learning in higher education : notes and guidelines, Networked learning Higher Education (JISC CALT), 73. Available online: http://csalt.lancs.ac.uk/jisc

Grix, Jonathan.(2001). Demystifying postgraduate research. : from MA to PhD. Birmingham: University of Birmingham Press

http://www.elearningeuropa.info/directory/index.php?page=doc&doc_id=15527&doclng=6

Moon, Jenifer. (2008). Critical Thinking : an exploration of theory and practice. London: Rutledge.

Morine-Dershimer, Greta&Kent, Todd.(1999). The complex nature and sources of teachers’ pedagogical knowledge. In J. Gess-Newsome and N. Lederman(Eds.) Examining Pedagogical Content Knowledge 21-50 Dordrecht, The Netherlands: Kluwer. 

National Research Council. National Science Education Standards. Washington, DC: National Academy Press.

Neacsu, Ioan.(1990). Instruire si invatare. Bucuresti: Editura Ştiinţifică.

Park, S., & Oliver, J. S. (2008). Revisiting the conceptualization of pedagogical content knowledge (PCK): PCK as a conceptual tool to understand teachers as professionals. Research in Science Education, 38(3), 261-284.

Shulman, Lee.(1987). Knowledge and teaching : foundation of the new reform. Harvard Educational Review, 15(2), 4-14","","",,,,,,"",,,,,,,"",,,,,"",,,,,"","",,,,,"","",,,,,"","","",,,,"13-14 mai 2010","5th International Conference on European Integration - Realities and Perspectives","Galati","en","FALSE",,"RO-",,"http://hdl.handle.net/10760/14734",,,"info:eu-repo/semantics/other",
"14734",,,,,,,,,,,,,,,,,,,,,,,,,,,,,,,,,,,,,,,,,,,,"GG",,,,,,,,,,,,,,,,,,,,,,,,,,,,,,,,,,,,,,,,,,,,,,,,,,,,,,,,,,,,,,,,,,,,,,,,,,,,,,,,,,,,,,,,,,,,,,
"14734",,,,,,,,,,,,,,,,,,,,,,,,,,,,,,,,,,,,,,,,,,,,"GI",,,,,,,,,,,,,,,,,,,,,,,,,,,,,,,,,,,,,,,,,,,,,,,,,,,,,,,,,,,,,,,,,,,,,,,,,,,,,,,,,,,,,,,,,,,,,,
"17446","2","archive","8997",,,"disk0/00/01/74/46","2012-08-22","2014-10-02 12:23:23","2012-12-14 22:56:11","bibliography",,,"show",,,,"","","","","","","","","","",,,,"Tomescu","Silvia-Adriana","","","","",,,,,"","","Relaţii bilaterale româno-canadiene: bibliografie. I. Acorduri şi tratate","unpub","GF","","public",,,"Canada, Romania, Bilateral agreements, Diplomacy, International relations",,"The bibliography we propose offers a fundamental research perspective and provides also the general framework for the analyse of the international relations between two countries : Romania and Canada. The significance of international relations between them is structured on the international comunity,  on special political, economical and cultural contexts, on values ​​and norms. We developed a synthesis of the main treaties and agreements that led to the collaboration between the two countries, a synthesis from  which can start any analysis on bilateral diplomacy. It is indeed, a useful working instrument for both librarians and students in political science, and especially researchers.","2012-08-15",,,,,,"Biblioteca de Ştiinte Politice",,,,,,,,,,,,,,,,,,,,,"",,"","",,"","",,,,,,"",,,,,,,"",,,,,"",,,,,"","",,,,,"","",,,,,"","","",,,,,,,"ro","FALSE",,"RO-",,"http://hdl.handle.net/10760/17446",,,"info:eu-repo/semantics/other",
"17883","2","archive","8997",,,"disk0/00/01/78/83","2012-10-24","2014-10-02 12:24:11","2012-12-14 23:07:36","bibliography",,,"show",,,,"","","","","","","","","","",,,,"Tomescu","Silvia-Adriana","","","","",,,,,"","","Relaţii bilaterale româno-canadiene: bibliografie. II. Emigraţia Românească în Canada","unpub","G.","","public",,,"Exil politic, Emigratie, Diaspora, Canada, Identitate, Alteritate.",,"The present bibliography reflects the Romanian emigration to Canada since 1885 to the present days. The study was carried out in important Romanian achieves of The Council Studying the Archives of Romania's former Secret Police - Securitate (CNSAS), The Institute for the Investigation of Communist Crimes and the Memory of Romanian Exile and was followed by a research of the documents from The Archives of Canada. 

The bibliography meets the user needs concerning the problem of exile, economic emigration, Diaspora, identity, is a base of future researches on the above mentioned themes and offers a complete look on the emerging Romanian Diaspora in Canada.","2012-10-15",,,,,,"Biblioteca Centrala Universitara ""Carol I"" Bucuresti - Biblioteca de Stiinte Politice",,,,,,,,,,,,,,,,,,,,,"",,"","",,"","",,,,,,"",,,,,,,"",,,,,"",,,,,"","",,,,,"","",,,,,"","","",,,,,,,"ro","FALSE",,"RO-",,"http://hdl.handle.net/10760/17883",,,"info:eu-repo/semantics/other",
"16189","2","archive","8997",,,"disk0/00/01/61/89","2011-10-21","2014-10-02 12:20:19","2012-12-17 16:06:56","guide",,,"show",,,,"","","","","","","","","","",,,,"Tomescu","Silvia-Adriana","","","","",,,,,"","","Soft Integrat de Biblioteca -ALICE 5. 5 Metodologie de Catalogare","unpub","IA","","public",,,"cataloguing, ISBD, classification, Political Science Library, catalogare, Alice 5.5, Biblioteca de Stiinte Politice, clasificare",,"This paper is a methodology dedicated to those responsible for cataloging and indexing in Alice 5.5 software, written on practical application developed in the Library of Political Sciences from
Bucharest Political Science Faculty and illustrated with examples for each area separately. We considered appropriate to present both monographs and volumes cataloging examples.","2011",,,,,,"Biblioteca Facultății de Științe Politice București",,,,,,,,,,,,,,,,,,,,,"",,"","",,"","",,,,,,"",,,,,,,"",,,,,"",,,,,"","",,,,,"","",,,,,"Lucrarea este o metodologie dedicata persoanelor insarcinate cu catalogarea si indexarea in softul Alice 5.5, elaborata pe aplicatia practica derulata in cadrul Bibliotecii de Stiinte Politice din Bucuresti si ilustrata cu exemplificari pentru fiecare zona in parte. Am considerat oportun sa prezentam deopotriva catalogarea monografiilor cat si exemple de catalogare pe volume.","ro","",,,,,,,"ro","FALSE",,"RO-",,"http://hdl.handle.net/10760/16189",,,"info:eu-repo/semantics/other",
