,datestamp,year
0,2019-06-28 17:03:43,2019
7,2009-01-27,2009
10,2010-04-10,2010
13,2010-04-10,2010
15,2008-10-02,2008
18,2005-09-30,2005
20,2008-11-03,2008
21,2010-06-01,2010
24,2004-12-23,2004
25,2005-02-09,2005
26,2008-07-28,2008
29,2007-07-04,2007
30,2009-01-27,2009
33,2009-01-27,2009
37,2006-12-21,2006
38,2005-02-13,2005
39,2009-01-27,2009
41,2004-02-28,2004
43,2011-01-10,2011
46,2007-01-04,2007
47,2012-04-02,2012
49,2016-12-10 18:18:24,2016
51,2007-11-06,2007
53,2007-10-04,2007
55,2019-06-28 14:26:09,2019
59,2008-11-13,2008
62,2009-01-27,2009
64,2004-06-11,2004
65,2011-04-07,2011
66,2014-10-28 08:49:17,2014
69,2008-12-12,2008
70,2008-02-18,2008
71,2008-12-12,2008
72,2010-01-25,2010
74,2010-01-25,2010
77,2011-04-07,2011
79,2008-02-18,2008
80,2014-10-28 08:50:56,2014
83,2011-05-21,2011
84,2010-08-10,2010
87,2010-01-25,2010
90,2011-12-21,2011
91,2010-01-25,2010
94,2010-01-25,2010
97,2018-09-03 06:31:46,2018
102,2011-04-07,2011
106,2010-04-10,2010
108,2011-05-21,2011
109,2009-03-30,2009
111,2011-12-21,2011
112,2010-01-25,2010
115,2011-05-21,2011
116,2012-05-15,2012
122,2009-03-30,2009
124,2011-04-07,2011
127,2010-08-10,2010
130,2009-03-30,2009
134,2011-05-21,2011
135,2010-01-25,2010
136,2010-04-10,2010
137,2011-05-21,2011
138,2011-05-21,2011
139,2011-05-21,2011
140,2011-04-07,2011
143,2010-04-27,2010
145,2010-02-25,2010
148,2011-05-21,2011
149,2011-05-21,2011
150,2011-05-21,2011
151,2010-08-10,2010
152,2010-08-10,2010
154,2010-08-10,2010
156,2011-04-07,2011
159,2011-05-21,2011
160,2011-04-07,2011
163,2018-09-03 06:32:53,2018
165,2010-01-25,2010
166,2010-01-25,2010
170,2011-04-07,2011
175,2010-07-09,2010
178,2010-05-09,2010
179,2010-05-09,2010
180,2008-05-08,2008
182,2008-06-05,2008
185,2008-06-05,2008
188,2008-05-08,2008
190,2017-01-26 12:23:58,2017
192,2016-09-02 07:24:09,2016
196,2005-10-10,2005
197,2006-03-10,2006
200,2006-02-03,2006
204,2009-05-28,2009
207,2007-09-13,2007
209,2007-10-04,2007
211,2007-08-24,2007
213,2006-01-20,2006
216,2005-04-12,2005
218,2014-08-06 07:30:28,2014
221,2013-10-02 12:02:10,2013
224,2012-11-21,2012
230,2008-09-20,2008
235,2008-09-23,2008
242,2006-02-08,2006
244,2019-06-11 17:35:42,2019
246,2007-01-30,2007
250,2019-06-28 16:21:48,2019
253,2012-04-01,2012
255,2011-10-10,2011
260,2012-04-01,2012
262,2014-12-16 10:19:33,2014
263,2004-02-28,2004
264,2008-09-30,2008
268,2013-12-23 08:31:55,2013
273,2019-06-28 13:27:38,2019
280,2020-07-06 23:37:29,2020
285,2009-05-16,2009
291,2006-10-19,2006
292,2016-02-10 09:31:24,2016
294,2016-09-02 07:26:22,2016
297,2006-03-02,2006
299,2005-02-06,2005
300,2011-09-14,2011
301,2011-09-14,2011
302,2013-07-03 13:57:56,2013
304,2010-10-29,2010
326,2006-04-28,2006
328,2008-02-18,2008
329,2006-04-28,2006
330,2006-04-28,2006
332,2006-04-28,2006
333,2006-04-28,2006
334,2006-04-28,2006
335,2006-04-28,2006
336,2008-02-18,2008
337,2006-04-29,2006
338,2008-12-17,2008
339,2009-12-14,2009
342,2006-04-28,2006
344,2009-05-17,2009
345,2009-05-17,2009
348,2009-05-21,2009
351,2009-10-14,2009
354,2009-09-21,2009
360,2008-10-13,2008
362,2008-02-23,2008
363,2005-05-26,2005
364,2005-06-12,2005
365,2005-06-12,2005
369,2006-09-08,2006
374,2008-09-20,2008
379,2008-09-23,2008
386,2009-01-22,2009
389,2005-05-26,2005
392,2004-07-18,2004
393,2011-09-14,2011
394,2011-10-10,2011
399,2006-10-18,2006
400,2006-10-18,2006
402,2006-11-09,2006
403,2012-09-13,2012
409,2006-06-22,2006
411,2006-06-22,2006
415,2011-09-14,2011
416,2011-05-13,2011
