"eprintid","rev_number","eprint_status","userid","importid","source","dir","datestamp","lastmod","status_changed","type","succeeds","commentary","metadata_visibility","contact_email","latitude","longitude","relation_type","relation_uri","item_issues_id","item_issues_type","item_issues_description","item_issues_timestamp","item_issues_status","item_issues_reported_by","item_issues_resolved_by","item_issues_comment","item_issues_count","sword_depositor","sword_slug","creators_name.family","creators_name.given","creators_name.lineage","creators_name.honourific","creators_id","contributors_type","contributors_name.family","contributors_name.given","contributors_name.lineage","contributors_name.honourific","contributors_id","corp_creators","title","ispublished","subjects","divisions","full_text_status","monograph_type","pres_type","keywords","note","abstract","date","date_type","series","publication","volume","number","publisher","place_of_pub","pagerange","pages","event_title","event_location","event_dates","event_type","id_number","patent_applicant","institution","department","thesis_type","refereed","isbn","issn","book_title","editors_name.family","editors_name.given","editors_name.lineage","editors_name.honourific","editors_id","official_url","related_url_url","related_url_type","referencetext","funders","projects","output_media","exhibitors_name.family","exhibitors_name.given","exhibitors_name.lineage","exhibitors_name.honourific","exhibitors_id","num_pieces","composition_type","producers_name.family","producers_name.given","producers_name.lineage","producers_name.honourific","producers_id","conductors_name.family","conductors_name.given","conductors_name.lineage","conductors_name.honourific","conductors_id","lyricists_name.family","lyricists_name.given","lyricists_name.lineage","lyricists_name.honourific","lyricists_id","accompaniment","data_type","pedagogic_type","completion_time","task_purpose","skill_areas","copyright_holders","learning_level","gscholar_impact","gscholar_cluster","gscholar_datestamp","othersabs_othabstracts","othersabs_language","altloc","chapter","commref","linkdata","confdates","conference","confloc","linguabib","pubdom","reportno","countries","thesistype","handle","fp7_project","fp7_project_id","fp7_type","access_rights"
"33555","22","archive","8396",,,"disk0/00/03/35/55","2019-07-01 01:18:46","2019-07-01 01:18:46","2019-07-01 01:18:46","journale",,,"show",,,,"","","","","","","","","","",,,,"B Preedip","Balaji","","","","",,,,,"","","Web 2.0 use in academic libraries of top ranked Asian universities","pub","LC","","public",,,"Academic libraries, Asia, Web 2.0, Library websites",,"Purpose
This paper aims to explore recent trends of how Web 2.0 applications were used in 75 academic libraries in Asia through their library websites.

Design/methodology/approach
The Times Higher Education Asia University Rankings 2016 was considered for this study and out of 200 top universities ranked, 75 universities were selected for data collection. Using a multi-method approach, this study evaluated key design elements, library service platforms and website content of each academic library website, examining their site features, Web 2.0 types and applications. The criteria for selecting the websites were first the website was in English and second had Web 2.0 applications integrated into the main website. For the ranking of websites, a library web service index was developed, benchmarking from these groups – resource discovery tools, Web 2.0 applications, e-resources, mobile applications, library guides, digital reference services and digital inclusion – as indicators.

Findings
The authors found that over two-thirds of Asian university libraries have deployed one or more Web 2.0 applications, though their popularity and implementation vary greatly. Most widely used Web 2.0 applications are Facebook (61.3 per cent), RSS (53.3 per cent), Twitter (46.7 per cent) and YouTube (37.3 per cent). Instant messaging (5.3 per cent) and podcasting (4 per cent) were least applied. With an average of 44 per cent, the diffusion rate of Web information is moderately high among the majority of the Asian university libraries.

Originality/value
Many studies explored Web 2.0 applications from developed countries. However, this study attempts evaluating the use of Web 2.0 applications through content, sites and features of academic libraries in Asia, from developing countries perspective.","2019-04-09",,,"The Electronic Library",,,,,,,,,,,,,,,,"TRUE",,,,,,,,"",,"","","Al-Fadhli, M., Corrall, S. and Cox, A. (2016), ""Factors underlying technology adoption in academic libraries in Kuwait"", New Review of Academic Librarianship, Vol. 22 Iss 4, pp. 370–390, doi: 10.1080/13614533.2016.1138135.
Alireza, I.M, Mansoureh, H.S. (2014) ""Factors affecting Web 2.0 adoption: a case study"", Program, Vol. 48 Iss 1, pp. 2-15, doi: 10.1108/PROG-02-2012-0005.
Al-Karousi, R.S., Jabur, N.H., Alharrasi, N. and Bouazza, A. (2015), ""Adoption of web 2.0 applications in Omani academic libraries"", Paper presented at the 21st Annual Conference & Exhibition of SLA-AGC, 17-19 March 2015, Abu Dhabi, available at: http://www.qscience.com/doi/10.5339/qproc.2015.gsla.1 (accessed 12 June 2018).
Al-Qallaf, C.L. and Ridha, A. (2018), ""A comprehensive analysis of academic library websites: design, navigation, content, services, and web 2.0 tools"", International Information & Library Review, pp. 1–14, doi: 10.1080/10572317.2018.1467166.
Balaji B.P. and Kumar, V. (2011), ""Use of web technology in providing information services by south Indian technological universities as displayed on library websites"", Library Hi Tech, Vol. 29 Iss 3, pp. 470–495, doi: 10.1108/07378831111174431.
Balaji, B.P., Vinay, M.S., Shalini, B.G. and Raju, J.S.M. (2018), ""An integrative review of Web 3.0 in academic libraries"", Library Hi Tech News, Vol. 35 Iss 4, pp. 13–17, doi: 10.1108/LHTN-12-2017-0092.
Baro, E.E., Edewor, N. and Sunday, G. (2014), ""Web 2.0 tools: a survey of awareness and use by librarians in university libraries in Africa"", The Electronic Library, Vol. 32 Iss 6, pp. 864–883, doi: 10.1108/EL-11-2012-0151.
Barsky, E. and Purdon, M. (2006), ""Introducing Web 2.0: social networking and social bookmarking for health librarians"", Journal of the Canadian Health Libraries Association, Vol. 27 No. 3, pp. 65-67, doi: 10.5596/c06-024. 
Belling, A., Rhodes, A., Smith, J., Thomson, S. and Thorn, B. (2011), ""Exploring library 3.0 and beyond"", available at: http://www.libraries.vic.gov.au/downloads/20102011_Shared_Leadership_Program_Presentation_Day_/exploring_library_3.pdf (accessed 15 June 2018).
Boateng, F. and Liu, Y.Q. (2014), ""Web 2.0 applications’ usage and trends in top US academic libraries"", Library Hi Tech, Vol. 32 No. 1, pp. 120–138, doi: 10.1108/LHT-07-2013-0093.
Bolinder, J. (2008), ""The return of Web 3.0 - cloud computing, browser extensions or the distributed Web"", available at: http://impl.emented.com/2008/08/04/the-return-of-web-30-cloud-computing-browser-extensions-or-the-distributed-web/ (accessed 12 July 2018).
Clausen, H. (1999), ""Evaluation of library Web sites: the Danish case"", The Electronic Library, Vol. 17 Iss 2, pp. 83–87, doi: 10.1108/02640479910329527. 
Cohen, L.B. and Still, J.M. (1999), ""A comparison of research university and two-year college library Web sites: content, functionality, and form"", College & Research Libraries, Vol. 60 No. 3, pp. 275–289, doi: 10.5860/crl.60.3.275.
Connaway, L.S. (2015), ""The Library in the life of the user: engaging with people where they live and learn, available at: https://www.oclc.org/content/dam/research/publications/2015/oclcresearch-library-in-life-of-user.pdf (accessed 25 February 2019).
Coombs, K.A. (2007), ""Building a library Web site on the pillars of Web 2.0"", Computers in Libraries, Vol. 27 No. 1, available at: www.infotoday.com/cilmag/jan07/Coombs.shtml (accessed 05 August 2018).
Currie, J.P. (2010), ""Web 2.0 for reference services staff training and communication"", Reference Services Review, Vol 38 Iss 1, pp. 152–157, doi: 10.1108/00907321011020789.
Fields, E. (2010), “A unique Twitter use for reference services”, Library Hi Tech News, Vol. 27 Iss 6/7, pp. 14-15, doi: 10.1108/07419051011095863.
Han, Z. and Liu, Y.Q. (2010), ""Web 2.0 applications in top Chinese university libraries"", Library Hi Tech, Vol 28 Iss 1, pp. 41–62, doi: 10.1108/07378831011026689.
Harinarayana, N.S. and Raju, N.V. (2010), ""Web 2.0 features in university library Web sites"", The Electronic Library, Vol. 28 Iss 1, pp. 69–88, doi: 10.1108/02640471011023388.
Jones, M.J. and Harvey, M. (2019), ""Library 2.0: the effectiveness of social media as a marketing tool for libraries in educational institutions"", Journal of Librarianship and Information Science, Vol 51 Iss 1, pp. 3-19, doi: 10.1177/0961000616668959. 
Kelly, B., Nevile, L., Sloan, D., Fanou, S., Ellison, R. and Herrod, L. (2009), ""From Web accessibility to Web adaptability"", Disability and Rehabilitation: Assistive Technology, Vol 4 Iss 4, pp. 212-226, doi: 10.1080/17483100902903408.
Konnur, P.V., Rajani, S. and Madhusudhan, M. (2010), ""Academic library websites in Bangalore city, India: an evaluative study"", Library Philosophy and Practice (e-journal), available at: http://digitalcommons.unl.edu/libphilprac/408 (accessed 26 August 2018).
Linh, N.C. (2008), ""A survey of the application of Web 2.0 in Australasian university libraries"", Library Hi Tech, Vol 26 Iss 4, pp. 630–653, doi: 10.1108/07378830810920950.
Mahmood, K. and Richardson, J.V. (2011), ""Adoption of Web 2.0 in US academic libraries: a survey of ARL library websites"", Program, Vol 45 Iss 4, pp. 365–375, doi: 10.1108/00330331111182085. 
Mainka, A., Hartmann, S., Orszullok, L., Peters, I., Stallmann, A. and Stock, W.G. (2013), ""Public libraries in the knowledge society: core services of libraries in informational world cities"", Libri, Vol 63 Iss 4, pp. 295-319, doi: 10.1515/libri-2013-0024.
Maness, J.M. (2006), ""Library 2.0 theory: Web 2.0 and its implications for libraries"", Webology, Vol 3 No. 2, available at: http://www.webology.org/2006/v3n2/a25.html (accessed 30 August 2018)
Mierzecka, A., Kisilowska, M. and Suminas, A. (2017), ""Researchers’ expectations regarding the online presence of academic libraries"", College & Research Libraries, Vol 78 No. 7, available at: http://crl.acrl.org/index.php/crl/article/view/16789 (accessed 18 July 2018).
Oakleaf, M. and Kyrillidou, M. (2016), ""Revisiting the academic library value research agenda: an opportunity to shape the future"", The Journal of Academic Librarianship, Vol 42 Iss 6, pp. 757–764, doi: 10.1016/j.acalib.2016.10.005. 
Qutab, S., Bhatti, R. and Ullah, F.S. (2014), ""Adoption of ICT’s for library operations and services: a comparison of public and private university libraries of Pakistan"", Library Philosophy and Practice (e-journal), available at: http://digitalcommons.unl.edu/libphilprac/1106 (accessed 23 May 2018).
Shafawi, S. and Hassan, B. (2018), ""User engagement with social media, implication on the library usage: a case of selected public and academic libraries in Malaysia"", Library Philosophy and Practice (e-journal), pp. 1-31, available at: http://digitalcommons.unl.edu/libphilprac/1820/ (accessed 11 June 2018).
Si, L., Shi, R. and Chen, B. (2011), ""An investigation and analysis of the application of Web 2.0 in Chinese university libraries"", The Electronic Library, Vol 29 Iss 5, pp. 651–668, doi: 10.1108/02640471111177080.
Spiteri, L. F. (2009), ""Social cataloguing sites: features and implications for cataloguing practice and the public library catalogue"", in Proceedings of IXth Congress ISKO-SPAIN: New Perspectives for the organization and dissemination of Knowledge, 11-13 March, Valencia, The Polytechnic University of Valencia, Valencia, pp. 769–785.
Steiner, H. (2009), “Reference utility of social networking sites: options and functionality”, Library Hi Tech News, Vol. 26 Iss 5/6, pp. 4-6, doi: 10.1108/07419050910985246.
Torres-Pérez, P., Méndez-Rodríguez, E. and Orduna-Malea, E. (2016), ""Mobile web adoption in top ranked university libraries: a preliminary study"", The Journal of Academic Librarianship, Vol 42 Iss 4, pp. 329–339, doi: 10.1016/j.acalib.2016.05.011. 
Verma, M.K. and Devi, K. (2016), ""Web content and design trends of Indian Institutes of Management (IIMs) libraries website: an analysis"", DESIDOC Journal of Library & Information Technology, Vol 36 No. 4, pp. 220–227, doi: 10.14429/djlit.36.4.9983.
Wang, H. and Hubbard, W. (2002), ""Resources and services for remote access: a content analysis of Alabama’s public four-year university library Web sites"", The Southeastern Librarian, Vol 50 Iss 2, available at: http://digitalcommons.kennesaw.edu/seln/vol50/iss2/6 (accessed 06 July 2018).
Yoon, H.Y. (2016), ""User acceptance of mobile library applications in academic libraries: an application of the technology acceptance model"", The Journal of Academic Librarianship, Vol 42 Iss 6, pp. 687–693, doi: 10.1016/j.acalib.2016.08.003.
Zhang, J. (2013), ""The analysis of library information service based on Web 3.0"", in Proceedings of 5th International Conference on Intelligent Human-Machine Systems and Cybernetics, Hangzhou, 26-27 August, IEEE, Piscataway, pp. 114–117.","","",,,,,,"",,,,,,,"",,,,,"",,,,,"","",,,,,"","",,,,,"","","https://www.emeraldinsight.com/doi/abs/10.1108/EL-12-2018-0248",,,,,,,"en","TRUE",,"AE-",,"http://hdl.handle.net/10760/33555",,,"info:eu-repo/semantics/other",
"33555",,,,,,,,,,,,,,,,,,,,,,,,,,,,,,"Vinay","M S","","",,,,,,,,,,,"LQ",,,,,,,,,,,,,,,,,,,,,,,,,,,,,,,,,,,,,,,,,,,,,,,,,,,,,,,,,,,,,,,,,,,,,,,,,,,,,,,,,,,,,,,,"CN-",,,,,,
"33555",,,,,,,,,,,,,,,,,,,,,,,,,,,,,,"Shalini","B G","","",,,,,,,,,,,"LR",,,,,,,,,,,,,,,,,,,,,,,,,,,,,,,,,,,,,,,,,,,,,,,,,,,,,,,,,,,,,,,,,,,,,,,,,,,,,,,,,,,,,,,,"HK-",,,,,,
"33555",,,,,,,,,,,,,,,,,,,,,,,,,,,,,,"Mohan Raju","J S","","",,,,,,,,,,,"LS",,,,,,,,,,,,,,,,,,,,,,,,,,,,,,,,,,,,,,,,,,,,,,,,,,,,,,,,,,,,,,,,,,,,,,,,,,,,,,,,,,,,,,,,"IL-",,,,,,
"33555",,,,,,,,,,,,,,,,,,,,,,,,,,,,,,,,,,,,,,,,,,,,"LT.",,,,,,,,,,,,,,,,,,,,,,,,,,,,,,,,,,,,,,,,,,,,,,,,,,,,,,,,,,,,,,,,,,,,,,,,,,,,,,,,,,,,,,,,"IN-",,,,,,
"33555",,,,,,,,,,,,,,,,,,,,,,,,,,,,,,,,,,,,,,,,,,,,,,,,,,,,,,,,,,,,,,,,,,,,,,,,,,,,,,,,,,,,,,,,,,,,,,,,,,,,,,,,,,,,,,,,,,,,,,,,,,,,,,,,,,,,"TH-",,,,,,
"33555",,,,,,,,,,,,,,,,,,,,,,,,,,,,,,,,,,,,,,,,,,,,,,,,,,,,,,,,,,,,,,,,,,,,,,,,,,,,,,,,,,,,,,,,,,,,,,,,,,,,,,,,,,,,,,,,,,,,,,,,,,,,,,,,,,,,"TW-",,,,,,
"4984","2","archive","148",,,"disk0/00/00/49/84","2004-07-09","2014-10-02 11:58:47","2012-12-14 18:04:40","book",,,"show",,,,"","","","","","","","","","",,,,"Fatima","Nasim","","","","",,,,,"","","Library & information science research in pakistani universities","pub","A.","","public",,,"Theses, Library and Information Science, Pakistan
Library education, Research, automation, library materials",,"It presents bibliographic information on the master and doctoral theses submitted to six universities in Pakistan up to 2003. Although the compilers feel that this list is still not as comprehensive as it should have been, but it is first work of its kind in Pakistan and serves the purpose to a great extent. A total of 855 entries of theses are arranged under 16 subject categories.
Web Designing by Naveed ul Haq Hashmi","2003",,,,,,"Pakistan Bibliographical Working Group (Karachi, Pakistan)",,,,,,,,,,,,,"FALSE",,,,,,,,"",,"","",,"","",,,,,,"",,,,,,,"",,,,,"",,,,,"","",,,,,"","",,,,,"","","",,,,,,,"en","FALSE",,"PK-",,"http://hdl.handle.net/10760/4984",,,"info:eu-repo/semantics/book",
"4984",,,,,,,,,,,,,,,,,,,,,,,,,,,,,,"Mahmood","Khalid","","",,,,,,,,,,,,,,,,,,,,,,,,,,,,,,,,,,,,,,,,,,,,,,,,,,,,,,,,,,,,,,,,,,,,,,,,,,,,,,,,,,,,,,,,,,,,,,,,,,,"AE-",,,,,,
