"eprintid","rev_number","eprint_status","userid","importid","source","dir","datestamp","lastmod","status_changed","type","succeeds","commentary","metadata_visibility","contact_email","latitude","longitude","relation_type","relation_uri","item_issues_id","item_issues_type","item_issues_description","item_issues_timestamp","item_issues_status","item_issues_reported_by","item_issues_resolved_by","item_issues_comment","item_issues_count","sword_depositor","sword_slug","creators_name.family","creators_name.given","creators_name.lineage","creators_name.honourific","creators_id","contributors_type","contributors_name.family","contributors_name.given","contributors_name.lineage","contributors_name.honourific","contributors_id","corp_creators","title","ispublished","subjects","divisions","full_text_status","monograph_type","pres_type","keywords","note","abstract","date","date_type","series","publication","volume","number","publisher","place_of_pub","pagerange","pages","event_title","event_location","event_dates","event_type","id_number","patent_applicant","institution","department","thesis_type","refereed","isbn","issn","book_title","editors_name.family","editors_name.given","editors_name.lineage","editors_name.honourific","editors_id","official_url","related_url_url","related_url_type","referencetext","funders","projects","output_media","exhibitors_name.family","exhibitors_name.given","exhibitors_name.lineage","exhibitors_name.honourific","exhibitors_id","num_pieces","composition_type","producers_name.family","producers_name.given","producers_name.lineage","producers_name.honourific","producers_id","conductors_name.family","conductors_name.given","conductors_name.lineage","conductors_name.honourific","conductors_id","lyricists_name.family","lyricists_name.given","lyricists_name.lineage","lyricists_name.honourific","lyricists_id","accompaniment","data_type","pedagogic_type","completion_time","task_purpose","skill_areas","copyright_holders","learning_level","gscholar_impact","gscholar_cluster","gscholar_datestamp","othersabs_othabstracts","othersabs_language","altloc","chapter","commref","linkdata","confdates","conference","confloc","linguabib","pubdom","reportno","countries","thesistype","handle","fp7_project","fp7_project_id","fp7_type","access_rights"
"25020","42","archive","8533",,,"disk0/00/02/50/20","2015-05-02 22:06:13","2015-05-06 05:55:52","2015-05-06 05:55:52","preprint",,,"show",,,,"","","","","","","","","","",,,,"Zapata-Ros","Miguel","","","mzapata@um.es","",,,,,"","","Gestión del aprendizaje y web social en la Educación Superior en línea / Learning management and social web in Higher Education online
",,"GG","","public",,,"Higher Education online, Web Social, Learning management ",,"This work can be understood as a response to the widespread use of the social web as a means of communication and a framework of respect and coexistence between students and teachers. As a result, this text emphasizes the need for a framework of a pedagogical model and an instructional design that integrate the social web. This paper also raises the need for an analysis of the necessary conditions for the validation of that model. Finally through a system based on experience, a series of responses to the failure of political institutions that consider modalities of integration is suggested, as well as their impact.

The paper provides the processed results and the conclusions drawn from research on the preferences of the early adopters of social web included in the learning management through instructional design practices.

The final purpose is to offer the university teaching community proposals, recommendations, models and the state-of-the-art in terms of teaching and development in the practice of innovative teachers
","2015-05-02",,,,,,,,,,,,,,,,,,,"FALSE",,,,"Zapata-Ros","Miguel","","","mzapata@um.es",,"","","Alexander, B. (2008). Web 2.0 and Emergent Multiliteracies. Theory into Practice 47(2), 150-160.
Allen, I. E., & Seaman, J. (2011). Going the distance: Online education in the United States, 2011. Sloan Consortium. PO Box 1238, Newburyport, MA 01950.
Anderson, T. (2006). Teaching a distance education course using educational social software. http://terrya.edublogs.org/2006/01/02/teaching-a-distance-education-course-using-educational-social-software/
Armstrong , J. and Franklin, T. (September 2008).  A review of current and developing international practice in the use of social networking (Web 2.0) in higher education. Franklin Consulting. http://www.franklin-consulting.co.uk/LinkedDocuments/the%20use%20of%20social%20networking%20in%20HE.pdf 
Durán, S. P., Mezquita, J. P. G., & García, T. J. (2013). Universitic 2013: situación actual de las TIC en el sistema universitario español: Diciembre 2013. Conferencia de Rectores de las Universidades Españolas, CRUE. 
Franklin, T. and van Harmelen ,M. (2007, 28 May) Web 2.0 for Content for Learning and Teaching in Higher Education. http://www.jisc.ac.uk/publications/reports/2007/web2andpolicyreport.aspx
Jenkins, H. (2009). Confronting the challenges of participatory culture: Media education for the 21st century. Mit Press. 
Johnson, L., Adams Becker, S., Estrada, V., and Freeman, A. (2015). NMC Horizon Report: 2015 Higher Education Edition. Austin, Texas: The New Media Consortium. http://cdn.nmc.org/media/2015-nmc-horizon-report-HE-EN.pdf) 
Keegan, D. (2005). The incorporation of mobile learning into mainstream education and training. http://mlearning.noe-kaleidoscope.org/public/mlearn2005/www.mlearn.org.za/CD/papers/keegan1.pdf
Kelly, B., 2008. Web 2.0 in Higher Education in the United Kingdom: Observations on the growth of Web 2.0 and social Web technologies. Franklin Consulting. Revisado en http://opus.bath.ac.uk/17702/ el 04/09/2013
Marwick, A.  (September 2008) Web 2.0 in Higher Education in the United States of America. En A review of current and developing international practice in the use of social networking (Web 2.0) in higher education (p.91-122). Franklin Consulting. http://www.franklin-consulting.co.uk/LinkedDocuments/the%20use%20of%20social%20networking%20in%20HE.pdf
O’Reilly, T. (2006). Levels of the Game: The Hierarchy of Web 2.0 Applications, July 17. http://radar.oreilly.com/archives/2006/07/levels-of-the-game-the-hierarc.html or http://tinyurl.com/5vgrak 
Ragins, B. R., & Kram, K. E. (2007). The handbook of mentoring at work: Theory, research, and practice. Sage Publications.
Reigeluth, Ch. M. y Frick, T. W. (1999). Investigación formativa: una metodología para crear y mejorar teorías de diseño. En C. M. Reigeluth (Ed.) Diseño de la instrucción. Teorías y modelos. Un nuevo paradigma de la teoría de la instrucción (Parte II, 181- 100). Madrid: Aula XXI. Santillana. 
Reigeluth, C. M., Watson, S. L., Watson, W. R., Dutta, P., Chen, Z., & Powell, N. (2008). Roles for technology in the information-age paradigm of education: Learning management systems. Educational Technology, 48(6), 32-39
Reigeluth, C. (2012).  Teoría instruccional y tecnología para el nuevo paradigma de la educación. RED, Revista de Educación a Distancia. Número 32. 30 de septiembre de 2012. Consultado el (dd/mm/aaa) en http://www.um.es/ead/red/32
Roblyer, M.D.  et al (2010) Findings on Facebook in higher education: A comparison of college faculty and student uses and perceptions of social networking sites. The Internet and Higher Education. http://www.sciencedirect.com/science/article/pii/S1096751610000278 
Roblyer, M. D., & Wiencke, W. (2003). Exploring the interaction equation: Validating a rubric to assess and encourage interaction in distance courses. The Journal of Asynchronous Learning Networks, 8(4), 24−37.
Rogers, E. M. (2010). Diffusion of innovations. Simon and Schuster.  https://studieninteressierte.uni-hohenheim.de/uploads/tx_uniscripts/25720/A7020_KIM_2011.pdf#page=37
Schwartz, H. (2009). Facebook: The new classroom commons? The Chronicle of Higher Education (pp. B13). October 2
The Stanford Persuasive Technology Lab (2007). The Stanford Facebook Class. http://credibilityserver.stanford.edu/captology/facebook/
Uceda, J., Mezquita, J. P. G., & Largo, F. L. (2011). Universitic 2011: descripción, gestión y gobierno de las TI en el SUE: julio 2011. Conferencia de Rectores de las Universidades Españolas, CRUE.
Zapata, M. (2010). La investigación formativa y la investigación basada en el diseño: Dos perspectivas de alcance. RED - Revista de Educación a Distancia. Número 22. 15 de mayo de 2010. Consultado el 29/08/13 en http://www.um.es/ead/red/22
Zapata-Ros, M. (2011a). Evaluación de la calidad en entornos sociales aprendizaje. RED. Revista de Educación a Distancia, (29) 1-10. Recuperado de http://www.redalyc.org/articulo.oa?id=54722116005 y http://www.um.es/ead/red/29/
Zapata-Ros, M. (2011b).  La investigación y la edición científica en la web social: La ciencia compartida. Revista de Educación a Distancia-DUSC Número 3. Consultado el 26/08/2013 en http://www.um.es/ead/reddusc/3/zapata_e_ciencia.pdf
Zapata-Ros, M., 2012. Calidad y entornos ubicuos de aprendizaje. RED, Revista de Educación a Distancia. Número 31.-  Revisado en http://www.um.es/ead/red/31/zapata_ros.pdf el 04/09/2013
Zapata-Ros, M. (2013a). Analítica de aprendizaje y personalización. Campus virtuales, 2(2), 88-118. http://www.uajournals.com/campusvirtuales/journal/3/7.pdf 
Zapata-Ros, M. (2013b). “Evaluación de la calidad en entornos de aprendizaje de la web social y con tecnología ubicua”. En  ENTORNOS VIRTUALES Y APRENDIZAJE. Nuevas perspectivas de estudio e investigaciones. Págs. 313-333. http://www.editorialeva.net/evya.html
Zapata-Ros, M. (2014a). Charles Reigeluth: la personalización del aprendizaje y el nuevo paradigma de la educación para la sociedad postindustrial del conocimiento. En Carreras, J. S., & Albert, M. E. (Eds.). Pensadores de ayer para problemas de hoy: teóricos de las ciencias sociales (Vol. 6) (pp. 153-191). Nau Llibres. 
Zapata-Ros, M. (2014b). Gestión del aprendizaje en Educación Superior y web social. RED, Revista de Educación a Distancia. Número 42. Número monográfico sobre ""Experiencias y tendencias en affordances educativas de campus virtuales universitarios"". 15 de septiembre de 2014. Consultado el (dd/mm/aaaa) en http://www.um.es/ead/red/42
","","",,,,,,"",,,,,,,"",,,,,"",,,,,"","",,,,,"","",,,,,"Este trabajo se puede entender como una respuesta al uso generalizado de la web social como un medio de comunicación y un marco de relación y de convivencia entre estudiantes y profesores. Como consecuencia hace énfasis en  la  necesidad de un marco de modelo pedagógico y de diseño instruccional que integre la web social. Plantea igualmente la necesidad de un análisis de las condiciones necesarias para la validación de ese modelo. Por último propone, a través de un análisis basado en experiencias, una serie de respuestas ante la insuficiencia de políticas instituciones que contemplen modalidades de integración y sus repercusiones. 
Ofrece los resultados procesados y las conclusiones obtenidas de una investigación sobre las preferencias de los adoptadores tempranos de web social incluida en la gestión del aprendizaje por prácticas de diseño instruccional. 
Con ello se ofrece a la comunidad docente universitaria propuestas, recomendaciones, modelos y el estado en cuanto a disposición docente y de desarrollo en la práctica de los profesores innovadores.
","es","",,,,,,,"es","TRUE",,"CO-",,"http://hdl.handle.net/10760/25020","no",,"info:eu-repo/semantics/other",
"25020",,,,,,,,,,,,,,,,,,,,,,,,,,,,,,,,,,,,,,,,,,,,"GH",,,,,,,,,,,,,,,,,,,,,,,,,,,,,,,,,,,,,,,,,,,,,,,,,,,,,,,,,,,,,,,,,,,,,,,,,,,,,,,,,,,,,,,,"EC-",,,,,,
"25020",,,,,,,,,,,,,,,,,,,,,,,,,,,,,,,,,,,,,,,,,,,,,,,,,,,,,,,,,,,,,,,,,,,,,,,,,,,,,,,,,,,,,,,,,,,,,,,,,,,,,,,,,,,,,,,,,,,,,,,,,,,,,,,,,,,,"ES-",,,,,,
"25020",,,,,,,,,,,,,,,,,,,,,,,,,,,,,,,,,,,,,,,,,,,,,,,,,,,,,,,,,,,,,,,,,,,,,,,,,,,,,,,,,,,,,,,,,,,,,,,,,,,,,,,,,,,,,,,,,,,,,,,,,,,,,,,,,,,,"GF-",,,,,,
"25020",,,,,,,,,,,,,,,,,,,,,,,,,,,,,,,,,,,,,,,,,,,,,,,,,,,,,,,,,,,,,,,,,,,,,,,,,,,,,,,,,,,,,,,,,,,,,,,,,,,,,,,,,,,,,,,,,,,,,,,,,,,,,,,,,,,,"GY-",,,,,,
"25020",,,,,,,,,,,,,,,,,,,,,,,,,,,,,,,,,,,,,,,,,,,,,,,,,,,,,,,,,,,,,,,,,,,,,,,,,,,,,,,,,,,,,,,,,,,,,,,,,,,,,,,,,,,,,,,,,,,,,,,,,,,,,,,,,,,,"PE-",,,,,,
"25020",,,,,,,,,,,,,,,,,,,,,,,,,,,,,,,,,,,,,,,,,,,,,,,,,,,,,,,,,,,,,,,,,,,,,,,,,,,,,,,,,,,,,,,,,,,,,,,,,,,,,,,,,,,,,,,,,,,,,,,,,,,,,,,,,,,,"PT-",,,,,,
"25020",,,,,,,,,,,,,,,,,,,,,,,,,,,,,,,,,,,,,,,,,,,,,,,,,,,,,,,,,,,,,,,,,,,,,,,,,,,,,,,,,,,,,,,,,,,,,,,,,,,,,,,,,,,,,,,,,,,,,,,,,,,,,,,,,,,,"PY-",,,,,,
"25020",,,,,,,,,,,,,,,,,,,,,,,,,,,,,,,,,,,,,,,,,,,,,,,,,,,,,,,,,,,,,,,,,,,,,,,,,,,,,,,,,,,,,,,,,,,,,,,,,,,,,,,,,,,,,,,,,,,,,,,,,,,,,,,,,,,,"SR-",,,,,,
"25020",,,,,,,,,,,,,,,,,,,,,,,,,,,,,,,,,,,,,,,,,,,,,,,,,,,,,,,,,,,,,,,,,,,,,,,,,,,,,,,,,,,,,,,,,,,,,,,,,,,,,,,,,,,,,,,,,,,,,,,,,,,,,,,,,,,,"UY-",,,,,,
"25020",,,,,,,,,,,,,,,,,,,,,,,,,,,,,,,,,,,,,,,,,,,,,,,,,,,,,,,,,,,,,,,,,,,,,,,,,,,,,,,,,,,,,,,,,,,,,,,,,,,,,,,,,,,,,,,,,,,,,,,,,,,,,,,,,,,,"VE-",,,,,,
