"eprintid","rev_number","eprint_status","userid","importid","source","dir","datestamp","lastmod","status_changed","type","succeeds","commentary","metadata_visibility","contact_email","latitude","longitude","relation_type","relation_uri","item_issues_id","item_issues_type","item_issues_description","item_issues_timestamp","item_issues_status","item_issues_reported_by","item_issues_resolved_by","item_issues_comment","item_issues_count","sword_depositor","sword_slug","creators_name.family","creators_name.given","creators_name.lineage","creators_name.honourific","creators_id","contributors_type","contributors_name.family","contributors_name.given","contributors_name.lineage","contributors_name.honourific","contributors_id","corp_creators","title","ispublished","subjects","divisions","full_text_status","monograph_type","pres_type","keywords","note","abstract","date","date_type","series","publication","volume","number","publisher","place_of_pub","pagerange","pages","event_title","event_location","event_dates","event_type","id_number","patent_applicant","institution","department","thesis_type","refereed","isbn","issn","book_title","editors_name.family","editors_name.given","editors_name.lineage","editors_name.honourific","editors_id","official_url","related_url_url","related_url_type","referencetext","funders","projects","output_media","exhibitors_name.family","exhibitors_name.given","exhibitors_name.lineage","exhibitors_name.honourific","exhibitors_id","num_pieces","composition_type","producers_name.family","producers_name.given","producers_name.lineage","producers_name.honourific","producers_id","conductors_name.family","conductors_name.given","conductors_name.lineage","conductors_name.honourific","conductors_id","lyricists_name.family","lyricists_name.given","lyricists_name.lineage","lyricists_name.honourific","lyricists_id","accompaniment","data_type","pedagogic_type","completion_time","task_purpose","skill_areas","copyright_holders","learning_level","gscholar_impact","gscholar_cluster","gscholar_datestamp","othersabs_othabstracts","othersabs_language","altloc","chapter","commref","linkdata","confdates","conference","confloc","linguabib","pubdom","reportno","countries","thesistype","handle","fp7_project","fp7_project_id","fp7_type","access_rights"
"29016","15","archive","26386",,,"disk0/00/02/90/16","2016-03-22 09:40:47","2016-03-22 09:40:47","2016-03-22 09:40:47","journale",,,"show",,,,"","","","","","","","","","",,,,"Benoumelghar","Hakim","","","","",,,,,"","","Les dépôts institutionnels et les archives ouvertes dans les universités et centres de recherche algériens : état des lieux recommandations","pub","HS","","public",,,"Open Archive , institutional repository , Higher Education , Scientific Research, Algeria",,"Since the creation of the first open archive in the United States in 1991 in the field of physics ( arxiv.org ) , an expansion of this type of experience is noticed through the scientific establishment of all countries supported by the supporters and the strongest supporters of open access to scientific publications such Steven Arnad . Developing countries have joined this movement including Arab countries such as Algeria . This article provides an overview of open archives and institutional repositories established in Algerian universities and research centers and prospects of their development.","2015-11",,,"Bulletin des bibliothèques de France",,,,,,,,,,,,,,,,"TRUE",,,,,,,,"",,"","","1)	Ben Romdhane M., Ouerfelli T.. L’offre des archives ouvertes dans le monde arabe : recensement et évaluation. Métiers de l’information, des bibliothèques et des archives à l’ère de la différenciation numérique : Actes du 15`eme Colloque International sur le Document Electronique (CIDE15), Nov 2012, Tunisia. Europea, pp.75-90.
En ligne : https://hal.archives-ouvertes.fr/sic_00829058/document
Consulté le 15 septembre 2015.
2)	Bosc, H. (2005), Archives ouvertes : quinze ans d’histoire. In : Les Archives Ouvertes : enjeux et pratiques. Guide à l’usage des professionnels de l’information, C. Aubry, J. Janik (eds.), Paris : ADBS. Pp 27-54
En ligne: http://archivesic.ccsd.cnrs.fr/sic_00119441/document
Consulté le 10 octobre 2015.

3)	Bourgois J.-M. L’avenir des bibliothèques et de l’édition dans le contexte de l’édition électronique.- In BBF 2000, t. 45, n° 6, p. 62-64.

4)	Calenge B. Contenus des bibliothèques numériques et bibliothéconomie.- In BBF 2000, t. 45, n° 4, p. 117-119.

5)	 Calenge B.- Technologies de l’information dans les universités.- In BBF 2001, t. 46, n° 1, p.107-109.

6)	Cédelle L. La numérisation dans les bibliothèques et les musées américains.- In BBF 2001, t. 46, n° 3, p. 101-104.

7)	Dany B. Dimensions organisationnelles des dépôts institutionnels : une approche sociotechnique. ""Partage de l'information dans un monde fragmente : Franchir les frontières"",39ème Congrès annuel de l'Association Canadienne des Sciences de l'Information, May 2007, Université McGill, Montréal (Canada).
En ligne : https://halshs.archives-ouvertes.fr/sic_00159335/document
Consulté le 13 septembre 2015.

8)	Digital Publishing and its Impact on the Publishing Industry in the Arab World
Digital Publishing and its Impact on the Publishing Industry in the Arab World.
 Publiée en ligne : 21 September 2011
Springer Science+Business Media, LLC 2011
9)	DOUKKALI S., ZAHIDI A. Mise en place d’une politique institutionnelle 
d’archives ouvertes.
En ligne : http://bibliometrie.imist.ma/images/stories/pdf/ReMabes_Archives_Ouvertes.pdf
Consulté le 5 octobre 2015.
10)	Epron B.  L’édition universitaire numérique : Panorama et perspectives en sciences humaines et sociales.- In BBF 2004, t. 49, no 3, pp. 49-54.


11)	Implementing digital archives: issues of trust
Gillian O., Brenda C., Hai Ping Liu
Publié en ligne: 9 October 2011
 Springer Science+Business Media B.V. 2011

12)	Mahé A. Bibliothèques et archives ouvertes. In BBF : 2011, t. 56, no 1, pp. 14-18

13)	Martin F., Bermès E. Le concept de collection numérique.- In BBF : 2010, t. 55, no 3, pp. 13-17.
14)	Mennessier A.-L. et al.- Valorisation de la production académique : collecte, conservation, diffusion. In BBF : 2011,1t. 56, no 1, pp. 26-33
15)	Rigeade M. Les archives ouvertes institutionnelles en France : état des lieux et perspectives. Mémoire pour l’obtention du diplôme de conservateur des bibliothèques, ENSSIB, 2012.- 100 p.
En ligne: http://www.enssib.fr/bibliotheque-numerique/documents/56708-les-archives-ouvertes-institutionnelles-en-france-etat-des-lieux-et-perspectives.pdf
          Consulté le 15 septembre 2015.

16)	Schöpfel  J., Prost H. Développement et Usage des Archives Ouvertes en France. 2e partie : Usage. 2010, 73 p.
En ligne : http://archivesic.ccsd.cnrs.fr/sic_00527043/document
Consulté le 15 septembre 2015.
","","",,,,,,"",,,,,,,"",,,,,"",,,,,"","",,,,,"","",,,,,"Depuis la création de la première archive ouverte aux Etats-Unis en 1991 dans le domaine de la physique ( arxiv.org), un foisonnement de ce type d’expérience est remarqué à travers les établissement scientifiques de tous les pays soutenu par les partisans et les fervents défenseurs du libre accès aux publications scientifique tels Steven Arnad. Les pays du Sud ont rallié ce mouvement y compris les pays du monde arabe tels que l’Algérie. Cet article dresse un état des lieux des archives ouvertes et dépôts institutionnels mis en place dans les universités et centres de recherche algériens et les perspectives de leur développement.","fr","http://bbf.enssib.fr/contributions/les-depots-institutionnels-et-les-archives-ouvertes-dans-les-universites-et-centres-de-recherche-algeriens",,,,,,,"fr","FALSE",,"DZ-",,"http://hdl.handle.net/10760/29016",,,"info:eu-repo/semantics/other",
"29016",,,,,,,,,,,,,,,,,,,,,,,,,,,,,,,,,,,,,,,,,,,,"L.",,,,,,,,,,,,,,,,,,,,,,,,,,,,,,,,,,,,,,,,,,,,,,,,,,,,,,,,,,,,,,,,,,,,,,,,,,,,,,,,,,,,,,,,,,,,,,
