"eprintid","rev_number","eprint_status","userid","importid","source","dir","datestamp","lastmod","status_changed","type","succeeds","commentary","metadata_visibility","contact_email","latitude","longitude","relation_type","relation_uri","item_issues_id","item_issues_type","item_issues_description","item_issues_timestamp","item_issues_status","item_issues_reported_by","item_issues_resolved_by","item_issues_comment","item_issues_count","sword_depositor","sword_slug","creators_name.family","creators_name.given","creators_name.lineage","creators_name.honourific","creators_id","contributors_type","contributors_name.family","contributors_name.given","contributors_name.lineage","contributors_name.honourific","contributors_id","corp_creators","title","ispublished","subjects","divisions","full_text_status","monograph_type","pres_type","keywords","note","abstract","date","date_type","series","publication","volume","number","publisher","place_of_pub","pagerange","pages","event_title","event_location","event_dates","event_type","id_number","patent_applicant","institution","department","thesis_type","refereed","isbn","issn","book_title","editors_name.family","editors_name.given","editors_name.lineage","editors_name.honourific","editors_id","official_url","related_url_url","related_url_type","referencetext","funders","projects","output_media","exhibitors_name.family","exhibitors_name.given","exhibitors_name.lineage","exhibitors_name.honourific","exhibitors_id","num_pieces","composition_type","producers_name.family","producers_name.given","producers_name.lineage","producers_name.honourific","producers_id","conductors_name.family","conductors_name.given","conductors_name.lineage","conductors_name.honourific","conductors_id","lyricists_name.family","lyricists_name.given","lyricists_name.lineage","lyricists_name.honourific","lyricists_id","accompaniment","data_type","pedagogic_type","completion_time","task_purpose","skill_areas","copyright_holders","learning_level","gscholar_impact","gscholar_cluster","gscholar_datestamp","othersabs_othabstracts","othersabs_language","altloc","chapter","commref","linkdata","confdates","conference","confloc","linguabib","pubdom","reportno","countries","thesistype","handle","fp7_project","fp7_project_id","fp7_type","access_rights"
"18920","26","archive","2748",,,"disk0/00/01/89/20","2013-04-02 08:10:09","2014-10-02 12:25:41","2013-04-02 08:10:09","confpaper",,,"show",,,,"","","","","","","","","","",,,,"Chisenga","Justin","","","","",,,,,"","","Social media and professional networking: a case of information professionals in the SCECSAL region","pub","GZ","","public",,,"social media, scecsal, information professionals, web 2.0, africa",,"The purpose of the study was to establish the extent to which library and information professionals in the Standing Conference of Eastern, Central and Southern Africa Library and Information Associations (SCECSAL) region are using social media applications for professional networking. The findings show that although the professionals are adopting social media applications, its use is more for social networking than professional networking purposes. Among those using the applications for professional networking, Social Networking Services (i.e. Facebook, LinkedIn, Google+ and MySpace) are their first choice applications; with Facebook being the most popular. They study also revealed that most of the professionals had taught themselves how to use social media. The major challenge faced in the use of social media was the lack of time in the effective use of the applications. The paper recommends that to enhance the use of social media for professional networking, social media must be integrated into individual networking activities and that library and information professionals and associations in the region should embrace social media applications.","2012-05",,,,,,"Kenya Library Association",,"340-352",,,,,,,,,,,"TRUE",,,,"Omondi","Byroenne","","","",,"","","Alcock, J. 2009. Online Professional Networking Using Web 2.0 Tools. Open Access, 52(3): 1-2.

American Marketing Association. 2009. 2009 AMA Social Media Survey: Results and Analysis. [Online]. Retrieved from: http://www.marketingpower.com/ResourceLibrary/Documents/AMA_Surveys/2009_AMA_Social_Media_Survey.pdf. [Accessed 20 March 2012].

AMN Healthcare. 2011. Use of Social Media and Mobile by Healthcare Professionals: 2011 Survey Results. [Online]. Retrieved from: http://www.amnhealthcare.com/uploadedFiles/AMNHealthcare/Industry-Research/Surveys/final.pdf. [Accessed 7 April 2012].

Association of American Geographers, 2012. Professional Networking: Who You Know Is As Important As What You Know. [Online]. Retrieved from: http://www.aag.org/galleries/jobs-careers-files/Networking_tip_sheet.pdf. [Accessed 7 April 2012].

Broughton, A., Higgins, T, Hicks, B. & Cox, A. 2009. Workplaces and Social Networking: the Implications for Employment Relations. Brighton: Institute for Employment Studies.

Cohen, H. 2011. 30 Social Media Definitions. [Online]. Retrieved from: http://heidicohen.com/social-media-definition/. [Accessed 9 April 2012].

Dye, J. 2007. Meet Generation C. EContent, 30(4): 38-43.

Essoungou, A-M. 2010. A Social Media Boom Begins in Africa: Using Mobile Phones, Africans Join the Global Conversation. Africa Renewal Online (December). [Online]. Retrieved from: http://www.un.org/en/africarenewal/vol24no4/social-media-boom.html. [Accessed 9 April 2012].

Ham, M. 2011. 'Can you and should you categorize social media?', V. Social, weblog post, 6 January 2011. [Online]. Retrieved from: http://www.v-social.co.uk/blog/view/2011/01/can-you-and-should-you-categorize-social-media. [Accessed 4 May 2012].

Henderson, A. & Bowley, R. 2010. Authentic Dialogue? The Role of “Friendship” in Social Media Recruitment Campaign. Journal of Communication Management, 14(3): 237-257.

Marchese, J. 2007. Defining Social Media. [Online]. Retrieved from: http://www.mediapost.com/publications/article/61442/. [Accessed 6 April 2012].
Mayfield, A. 2008. What is social media: an e-book. [Online]. Retrieved from: http://wwww.icrossing.co.uk/What_is_Social_Media_iCrossing_ebook.pdf) [Accessed 31 March 2012].

Musisi, J. S. 1998. The Standing Conference of Eastern, Central and Southern African Librarians (SCECSAL): It’s Impact in the Region. Maktaba: Journal of the Kenya Library Association, (July) Special Issue: 9-15.

Napier. 2011. Social Media and Engineers 2011. [Online]. Retrieved from: http://www.napier.co.uk/pdfs/do-engineers-use-social-media-2011.pdf. [Accessed 8 April 2012].

Olasina, G. 2011. The Use of Web 2.0 Tools and Social Networking Sites by Librarians, Information Professionals, and Other Professionals in Workplaces in Nigeria. PNLA Quarterly, 75(3): 11-39.

Red Rocket Media. 2011. The five biggest social media challenges. [Online]. Retrieved from: http://www.redrocketmedia.co.uk/wp-content/plugins/email-before-download/download.php?dl=78d5c65db15d7da64ad65deca51cffbf. [Accessed 3 May 2012].

Seibt, S. 2012. First Twitter map of Africa reveals a connected continent. France 24, 27 January 2012.  [Online]. Retrieved from: http://www.france24.com/en/20120127-africa-twitter-smartphone-map. [Accessed 30 April 2012].

Stepanova, E. 2011. The Role of Information Communication Technologies in the “Arab Spring”: Implications Beyond the Region. PONARS Eurasia Policy Memo No. 159, May 2011. [Online]. Retrieved from: http://www.gwu.edu/~ieresgwu/assets/docs/ponars/pepm_159.pdf. [Accessed 2 May 2012].

Yates, D. & Paquette, S. 2011. Emergency knowledge management and social media technologies: A case study of the 2010 Haitian earthquake. International Journal of Information Management, 31: 6-13. 

","","",,,,,,"",,,,,,,"",,,,,"",,,,,"","",,,,,"","",,,,,"","","",,,,"4-8 June 2012","XXth Standing Conference of Eastern, Cemtral and Southern Africa Library and Information Associations (SCECSAL)","Nairobi, Kenya","en","FALSE",,"BW-",,"http://hdl.handle.net/10760/18920",,,"info:eu-repo/semantics/other",
"18920",,,,,,,,,,,,,,,,,,,,,,,,,,,,,,"Chande-Mallya","Rehema","","",,,,,,,,,,,,,,,,,,,,,,,,,,,,,,,,,,,,,,,,,,"Onyango","Christine","","",,,,,,,,,,,,,,,,,,,,,,,,,,,,,,,,,,,,,,,,,,,,,,,,,,,,,,"KE-",,,,,,
"18920",,,,,,,,,,,,,,,,,,,,,,,,,,,,,,,,,,,,,,,,,,,,,,,,,,,,,,,,,,,,,,,,,,,,,,,,,,,,,,,,,,,,,,,,,,,,,,,,,,,,,,,,,,,,,,,,,,,,,,,,,,,,,,,,,,,,"LS-",,,,,,
"18920",,,,,,,,,,,,,,,,,,,,,,,,,,,,,,,,,,,,,,,,,,,,,,,,,,,,,,,,,,,,,,,,,,,,,,,,,,,,,,,,,,,,,,,,,,,,,,,,,,,,,,,,,,,,,,,,,,,,,,,,,,,,,,,,,,,,"MW-",,,,,,
"18920",,,,,,,,,,,,,,,,,,,,,,,,,,,,,,,,,,,,,,,,,,,,,,,,,,,,,,,,,,,,,,,,,,,,,,,,,,,,,,,,,,,,,,,,,,,,,,,,,,,,,,,,,,,,,,,,,,,,,,,,,,,,,,,,,,,,"NA-",,,,,,
"18920",,,,,,,,,,,,,,,,,,,,,,,,,,,,,,,,,,,,,,,,,,,,,,,,,,,,,,,,,,,,,,,,,,,,,,,,,,,,,,,,,,,,,,,,,,,,,,,,,,,,,,,,,,,,,,,,,,,,,,,,,,,,,,,,,,,,"SZ-",,,,,,
"18920",,,,,,,,,,,,,,,,,,,,,,,,,,,,,,,,,,,,,,,,,,,,,,,,,,,,,,,,,,,,,,,,,,,,,,,,,,,,,,,,,,,,,,,,,,,,,,,,,,,,,,,,,,,,,,,,,,,,,,,,,,,,,,,,,,,,"TZ-",,,,,,
"18920",,,,,,,,,,,,,,,,,,,,,,,,,,,,,,,,,,,,,,,,,,,,,,,,,,,,,,,,,,,,,,,,,,,,,,,,,,,,,,,,,,,,,,,,,,,,,,,,,,,,,,,,,,,,,,,,,,,,,,,,,,,,,,,,,,,,"UG-",,,,,,
"18920",,,,,,,,,,,,,,,,,,,,,,,,,,,,,,,,,,,,,,,,,,,,,,,,,,,,,,,,,,,,,,,,,,,,,,,,,,,,,,,,,,,,,,,,,,,,,,,,,,,,,,,,,,,,,,,,,,,,,,,,,,,,,,,,,,,,"ZA-",,,,,,
"18920",,,,,,,,,,,,,,,,,,,,,,,,,,,,,,,,,,,,,,,,,,,,,,,,,,,,,,,,,,,,,,,,,,,,,,,,,,,,,,,,,,,,,,,,,,,,,,,,,,,,,,,,,,,,,,,,,,,,,,,,,,,,,,,,,,,,"ZM-",,,,,,
"18920",,,,,,,,,,,,,,,,,,,,,,,,,,,,,,,,,,,,,,,,,,,,,,,,,,,,,,,,,,,,,,,,,,,,,,,,,,,,,,,,,,,,,,,,,,,,,,,,,,,,,,,,,,,,,,,,,,,,,,,,,,,,,,,,,,,,"ZW-",,,,,,
"10167","2","archive","504",,,"disk0/00/01/01/67","2007-08-08","2014-10-02 12:08:58","2012-12-17 17:21:27","report",,,"show",,,,"","","","","","","","","","",,,,"Mchombu","Kingo","","","","",,,,,"","","Libraries, literacy and poverty reduction: a key to African development","pub","D.","","public",,,"Africa; libraries; literacy; poverty",,"The role that libraries in Africa could play in reducing poverty has not been sufficiently recognised and hence the necessary policy developments and investment in the library network have not yet been made. Policy makers and donors, recognising the link between poverty reduction and literacy, have given centre stage to textbooks in policies to increase literacy and student achievement levels. Yet textbooks are the beginning of the solution, not the complete answer. Libraries sustain literacy and do so on a reuse basis providing a costeffective means of support for a whole community of readers who seek information for tackling their own problems. This paper, written by a respected and experienced African educator and librarian, points the way ahead for Africa with affordable and achievable library strategies to enable the poorest communities to participate in their own development. [report archived with permission of both authors]","2006",,,,,,,,,,,,,,,,,,,"TRUE",,,,,,,,"",,"","","Abadzi, H. (2004) Strategies and Policies for Literacy Background paper for the Education For All Global Monitoring Report 2005. http://portal.unesco.org/education/en/file_download.php/5f222d91a143f8655488cea41e3ace6bAba dzi,+H.+Strategies+and+policies+for+literacy.doc 

Aboyade, B. O. (1984) Communication potentials of the library for non-literate; An experiment in providing information services in a rural setting Libri, vol 34, no. 3 pp.243-262

Adam, L. (2002) An Information – Driven Community Paradigm and an Organic Growth Towards Adoption of Information and Communication Technologies: the case of Illubabor Community Libraries in Ethiopia. Addis Ababa: Oxfam Canada (unpublished report)

Bibliotecas rurales de Cajamarca, Peru (1996) Proceso y argumentos. Cajarmaca, Peru: Acku Quinde. Translated from Spanish to English by staff of CODE. Blair, Tony, Right Hon (2000) Speech on Knowledge Economy, 11 September, http://www.opengov.uk

Bunch, A. (1982) Community information services: their origin, scope and development. London: Bingley

Correia, A. M. R. (2002) Information Literacy for an Active and Effective Citizenship White Paper prepared for UNESCO, the U.S. National Commission on Libraries and Information Science, and the National Forum on Information Literacy http://www.nclis.gov/libinter/infolitconf&meet/papers/correia-fullpaper.pdf

Genesse R. (1996) Most salient observations on the work of La red de las bibilotecas rurales and Acku Quinde in Cajamarca, Peru. (Mimeo)

Mchombu K. (1993) Information Needs and Seeking Patterns for Rural Peoples Development in Africa. Gaborone, Botswana: Print and Publishing Co.

Mchombu K. (2004) Sharing Knowledge 2 Handbook. Ottawa: Oxfam Canada

Mchombu, K. (2003) Information dissemination for development: an impact study. In: Information Development Journal, vol 19, no 3 p111-126

Ministry of Gender, Labour and Social Development, Uganda (2003) The social development sector strategic investment plan 2003 - 2008 http://www.mglsd.go.ug/policies_mslgd.htm

Montagnes, I. (2001) Education for All 2000 Assessment, Thematic Studies: Textbooks and Learning Materials 1990-99 UNESCO, ADEA, p27

Muela-Meza, Z. M. (2005) Information needed to cope with crisis in the lives of individuals and communities : an assessment of the roles public libraries and voluntary sector agencies play in the provision of such information. Information for Social Change (UK) (21). Available online at: http://eprints.rclis.org/archive/00004744/.

Ortiz, A. (1996) Bibliotecas Rurales de Cajamarca, P.E.E progresso y argumentos Incjales que Indecenies. Cajarmaca: Acku Quinde and CODE

Pradervand, P. (1980) Knowledge is Power International Development Review, vol, 22 no 1 Tadesse, E. and Genesse, R. (2002) Civil Society in the Horn of Africa: Two stories Addis Ababa: Image Enterprise for Oxfam Canada","","",,,,,,"",,,,,,,"",,,,,"",,,,,"","",,,,,"","",,,,,"","","",,,,,,,"en","FALSE",,"GB-",,"http://hdl.handle.net/10760/10167",,,"info:eu-repo/semantics/other",
"10167",,,,,,,,,,,,,,,,,,,,,,,,,,,,,,"Cadbury","Nicola","","",,,,,,,,,,,"BC",,,,,,,,,,,,,,,,,,,,,,,,,,,,,,,,,,,,,,,,,,,,,,,,,,,,,,,,,,,,,,,,,,,,,,,,,,,,,,,,,,,,,,,,"NA-",,,,,,
"10167",,,,,,,,,,,,,,,,,,,,,,,,,,,,,,,,,,,,,,,,,,,,"CE",,,,,,,,,,,,,,,,,,,,,,,,,,,,,,,,,,,,,,,,,,,,,,,,,,,,,,,,,,,,,,,,,,,,,,,,,,,,,,,,,,,,,,,,,,,,,,
