"eprintid","rev_number","eprint_status","userid","importid","source","dir","datestamp","lastmod","status_changed","type","succeeds","commentary","metadata_visibility","contact_email","latitude","longitude","relation_type","relation_uri","item_issues_id","item_issues_type","item_issues_description","item_issues_timestamp","item_issues_status","item_issues_reported_by","item_issues_resolved_by","item_issues_comment","item_issues_count","sword_depositor","sword_slug","creators_name.family","creators_name.given","creators_name.lineage","creators_name.honourific","creators_id","contributors_type","contributors_name.family","contributors_name.given","contributors_name.lineage","contributors_name.honourific","contributors_id","corp_creators","title","ispublished","subjects","divisions","full_text_status","monograph_type","pres_type","keywords","note","abstract","date","date_type","series","publication","volume","number","publisher","place_of_pub","pagerange","pages","event_title","event_location","event_dates","event_type","id_number","patent_applicant","institution","department","thesis_type","refereed","isbn","issn","book_title","editors_name.family","editors_name.given","editors_name.lineage","editors_name.honourific","editors_id","official_url","related_url_url","related_url_type","referencetext","funders","projects","output_media","exhibitors_name.family","exhibitors_name.given","exhibitors_name.lineage","exhibitors_name.honourific","exhibitors_id","num_pieces","composition_type","producers_name.family","producers_name.given","producers_name.lineage","producers_name.honourific","producers_id","conductors_name.family","conductors_name.given","conductors_name.lineage","conductors_name.honourific","conductors_id","lyricists_name.family","lyricists_name.given","lyricists_name.lineage","lyricists_name.honourific","lyricists_id","accompaniment","data_type","pedagogic_type","completion_time","task_purpose","skill_areas","copyright_holders","learning_level","gscholar_impact","gscholar_cluster","gscholar_datestamp","othersabs_othabstracts","othersabs_language","altloc","chapter","commref","linkdata","confdates","conference","confloc","linguabib","pubdom","reportno","countries","thesistype","handle","fp7_project","fp7_project_id","fp7_type","access_rights"
"7563","2","archive","504",,,"disk0/00/00/75/63","2007-07-19","2014-10-02 12:03:15","2012-12-14 19:02:33","book",,,"show",,,,"","","","","","","","","","",,,,"Story","Alan","","","","",,,,,"","","The copy/south dossier : issues in the economics, politics, and ideology of copyright in the global south","pub","ED","","public",,,"Intellectual Property; Copyright; WIPO; Global South; Resistance to copyright; Anti-copyright activism, Propiedad intelectual, Sur Global, Resistencia al copyright, Activismo anti-copyright",,"The aim of the dossier is to open up debate on the real impact of copyright laws affecting the people of the more than 150 developing countries in the Global South, many of whom have never read a book, have no access to the Internet and are facing an indeterminate future. The dossier highlights issues that are not only unique to the Global South, but also focuses on those issues that affect both sides of the North - South divide. This dossier is addressed to the general public, researchers, educators, librarians, activists, and organizations concerned about access to knowledge who want to learn more about the global role of copyright and, in particular, copyright's largely negative role in developing countries of the global South. In more than 50 articles totalling 215 pages, we, in the Copy/South Research Group, who have researched and debated these issues over the past 12 months, have tried to critically analyse and assess a wide range of copyright-related issues that impact on the daily lives (and future lives) of those who live in the global South.","2006",,,,,,"Copy/South Research Group",,,,,,,,,,,,,"FALSE",,,,"Story","Alan","","","",,"","",,"","",,,,,,"",,,,,,,"",,,,,"",,,,,"","",,,,,"","",,,,,"","","",,,,,,,"en","FALSE",,"PH-",,"http://hdl.handle.net/10760/7563",,,"info:eu-repo/semantics/book",
"7563",,,,,,,,,,,,,,,,,,,,,,,,,,,,,,"Darch","Colin","","",,,,,,,,,,,"B.",,,,,,,,,,,,,,,,,,,,,,,,,,,,,,,"Darch","Colin","","",,,,,,,,,,,,,,,,,,,,,,,,,,,,,,,,,,,,,,,,,,,,,,,,,,,,,,"ZA-",,,,,,
"7563",,,,,,,,,,,,,,,,,,,,,,,,,,,,,,"Halbert","Debora","","",,,,,,,,,,,,,,,,,,,,,,,,,,,,,,,,,,,,,,,,,,"Halbert","Debora","","",,,,,,,,,,,,,,,,,,,,,,,,,,,,,,,,,,,,,,,,,,,,,,,,,,,,,,"NL-",,,,,,
"7563",,,,,,,,,,,,,,,,,,,,,,,,,,,,,,"Mannan","Adam","","",,,,,,,,,,,,,,,,,,,,,,,,,,,,,,,,,,,,,,,,,,,,,,,,,,,,,,,,,,,,,,,,,,,,,,,,,,,,,,,,,,,,,,,,,,,,,,,,,,,"IE-",,,,,,
"7563",,,,,,,,,,,,,,,,,,,,,,,,,,,,,,"Ngenda","Akalemwa","","",,,,,,,,,,,,,,,,,,,,,,,,,,,,,,,,,,,,,,,,,,,,,,,,,,,,,,,,,,,,,,,,,,,,,,,,,,,,,,,,,,,,,,,,,,,,,,,,,,,"SN-",,,,,,
"7563",,,,,,,,,,,,,,,,,,,,,,,,,,,,,,"Busaniche","Beatriz","","",,,,,,,,,,,,,,,,,,,,,,,,,,,,,,,,,,,,,,,,,,,,,,,,,,,,,,,,,,,,,,,,,,,,,,,,,,,,,,,,,,,,,,,,,,,,,,,,,,,"US-",,,,,,
"7563",,,,,,,,,,,,,,,,,,,,,,,,,,,,,,"Nicholson","Denise","","",,,,,,,,,,,,,,,,,,,,,,,,,,,,,,,,,,,,,,,,,,,,,,,,,,,,,,,,,,,,,,,,,,,,,,,,,,,,,,,,,,,,,,,,,,,,,,,,,,,"MX-",,,,,,
"7563",,,,,,,,,,,,,,,,,,,,,,,,,,,,,,"Heinz","Federico","","",,,,,,,,,,,,,,,,,,,,,,,,,,,,,,,,,,,,,,,,,,,,,,,,,,,,,,,,,,,,,,,,,,,,,,,,,,,,,,,,,,,,,,,,,,,,,,,,,,,"AR-",,,,,,
"7563",,,,,,,,,,,,,,,,,,,,,,,,,,,,,,"De Beer","Jennifer A.","","",,,,,,,,,,,,,,,,,,,,,,,,,,,,,,,,,,,,,,,,,,,,,,,,,,,,,,,,,,,,,,,,,,,,,,,,,,,,,,,,,,,,,,,,,,,,,,,,,,,"IN-",,,,,,
"7563",,,,,,,,,,,,,,,,,,,,,,,,,,,,,,"Mugambi","Norah","","",,,,,,,,,,,,,,,,,,,,,,,,,,,,,,,,,,,,,,,,,,,,,,,,,,,,,,,,,,,,,,,,,,,,,,,,,,,,,,,,,,,,,,,,,,,,,,,,,,,"LB-",,,,,,
"7563",,,,,,,,,,,,,,,,,,,,,,,,,,,,,,"Smiers","Joost","","",,,,,,,,,,,,,,,,,,,,,,,,,,,,,,,,,,,,,,,,,,,,,,,,,,,,,,,,,,,,,,,,,,,,,,,,,,,,,,,,,,,,,,,,,,,,,,,,,,,"GB-",,,,,,
"7563",,,,,,,,,,,,,,,,,,,,,,,,,,,,,,"Torres-Reyes","José Antonio","","",,,,,,,,,,,,,,,,,,,,,,,,,,,,,,,,,,,,,,,,,,,,,,,,,,,,,,,,,,,,,,,,,,,,,,,,,,,,,,,,,,,,,,,,,,,,,,,,,,,"ZM-",,,,,,
"7563",,,,,,,,,,,,,,,,,,,,,,,,,,,,,,"Triana Cordoví","Juan Publio","","",,,,,,,,,,,,,,,,,,,,,,,,,,,,,,,,,,,,,,,,,,,,,,,,,,,,,,,,,,,,,,,,,,,,,,,,,,,,,,,,,,,,,,,,,,,,,,,,,,,"KE-",,,,,,
"7563",,,,,,,,,,,,,,,,,,,,,,,,,,,,,,"Liang","Lawrence","","",,,,,,,,,,,,,,,,,,,,,,,,,,,,,,,,,,,,,,,,,,,,,,,,,,,,,,,,,,,,,,,,,,,,,,,,,,,,,,,,,,,,,,,,,,,,,,,,,,,"BR-",,,,,,
"7563",,,,,,,,,,,,,,,,,,,,,,,,,,,,,,"Stephan","Maud","","",,,,,,,,,,,,,,,,,,,,,,,,,,,,,,,,,,,,,,,,,,,,,,,,,,,,,,,,,,,,,,,,,,,,,,,,,,,,,,,,,,,,,,,,,,,,,,,,,,,,,,,,,
"7563",,,,,,,,,,,,,,,,,,,,,,,,,,,,,,"Verzola","Roberto","","",,,,,,,,,,,,,,,,,,,,,,,,,,,,,,,,,,,,,,,,,,,,,,,,,,,,,,,,,,,,,,,,,,,,,,,,,,,,,,,,,,,,,,,,,,,,,,,,,,,,,,,,,
"7563",,,,,,,,,,,,,,,,,,,,,,,,,,,,,,"Lemos","Ronaldo","","",,,,,,,,,,,,,,,,,,,,,,,,,,,,,,,,,,,,,,,,,,,,,,,,,,,,,,,,,,,,,,,,,,,,,,,,,,,,,,,,,,,,,,,,,,,,,,,,,,,,,,,,,
"7563",,,,,,,,,,,,,,,,,,,,,,,,,,,,,,"Jha","Shishir Kumar","","",,,,,,,,,,,,,,,,,,,,,,,,,,,,,,,,,,,,,,,,,,,,,,,,,,,,,,,,,,,,,,,,,,,,,,,,,,,,,,,,,,,,,,,,,,,,,,,,,,,,,,,,,
"7563",,,,,,,,,,,,,,,,,,,,,,,,,,,,,,"Muela-Meza","Zapopan Martín","","",,,,,,,,,,,,,,,,,,,,,,,,,,,,,,,,,,,,,,,,,,,,,,,,,,,,,,,,,,,,,,,,,,,,,,,,,,,,,,,,,,,,,,,,,,,,,,,,,,,,,,,,,
"7563",,,,,,,,,,,,,,,,,,,,,,,,,,,,,,"Pereira de Souza","Carlos Affonso","","",,,,,,,,,,,,,,,,,,,,,,,,,,,,,,,,,,,,,,,,,,,,,,,,,,,,,,,,,,,,,,,,,,,,,,,,,,,,,,,,,,,,,,,,,,,,,,,,,,,,,,,,,
"7563",,,,,,,,,,,,,,,,,,,,,,,,,,,,,,"Ndiaye","Papa Toumané","","",,,,,,,,,,,,,,,,,,,,,,,,,,,,,,,,,,,,,,,,,,,,,,,,,,,,,,,,,,,,,,,,,,,,,,,,,,,,,,,,,,,,,,,,,,,,,,,,,,,,,,,,,
"7563",,,,,,,,,,,,,,,,,,,,,,,,,,,,,,"Yar","Majid","","",,,,,,,,,,,,,,,,,,,,,,,,,,,,,,,,,,,,,,,,,,,,,,,,,,,,,,,,,,,,,,,,,,,,,,,,,,,,,,,,,,,,,,,,,,,,,,,,,,,,,,,,,
"7563",,,,,,,,,,,,,,,,,,,,,,,,,,,,,,"Hackett","Teresa","","",,,,,,,,,,,,,,,,,,,,,,,,,,,,,,,,,,,,,,,,,,,,,,,,,,,,,,,,,,,,,,,,,,,,,,,,,,,,,,,,,,,,,,,,,,,,,,,,,,,,,,,,,
"11451","2","archive","504",,,"disk0/00/01/14/51","2008-04-28","2014-10-02 12:11:19","2012-12-14 20:49:05","book",,,"show",,,,"","","","","","","","","","",,,,"Story","Alan","","","","",,,,,"","","El dossier copia/sur: problemas económicos, políticos, e ideológicos del copyright (derecho de autor) en el sur global","pub","ED","","public",,,"[Palabras clave]
Propiedad Intelectual; Copyright; Derecho de autor; OMPI-Organizacion Mundial de la Propiedad Intelectual; sur global; resistencia contra el copyright; activismo anti-copyright.
[Keywords]
Intellectual Property; Copyright; WIPO; Global South; Resistance against copyright; Anti-copyright activism",,"In 2005, a group of scholars and activists, mostly from the global South, created the Copy/South Research Group to analyse, criticise, and confront the oppressive nature of current global copyright regimes, such as those
defended by the World Intellectual Property Organisation, and similar ones around the globe. In May 2006, 22 of us, including 15 people from the global South, published THE COPY/SOUTH DOSSIER: Issues in the economics, politics, and ideology of copyright in the global South.
The aim of the Dossier was to open up a critical and radical debate on the real impact of copyright laws and how they affect the daily lives of people living in more than 150 developing countries of the global South. We also highlighted issues that are not unique to the Global South, but also affect both sides of the North-South divide. This publication of more than 50 articles was addressed to researchers, educators, librarians, musicians, activists, organizations concerned about access to knowledge, and all of those who want to learn more about the oppressive global role of copyright laws and, in particular, their largely negative role in the developing countries of the global South.
Given the democratic objectives of the Copy/South Research Group, the Dossier was not restricted by copyright. Therefore, it has been accessed openly and freely in both electronic and paper formats by thousands of readers from around the world in English. But English is not spoken by all citizens in the global South. With this in mind, the entire 200-page Dossier was translated into Spanish in late 2007 by an enthusiastic team of voluntary translators from Argentina, Bolivia, Cuba, Mexico, Spain, and Venezuela.
As for this Spanish version, made with the support of the Intellectual Property Automous Service (SAPI), from the Bolivarian Republic of Venezuela, we must acknowledge the prior SAPI's General Director Eduardo Samán for promoting the making of this translation. Besides the general revision of Gerardo Cárdenas and his labor as main translator, some other volunteers translated or revised important sections of the Spanish edition: María Jesús
Morillo (Spain), Oscar Pérez Peña and Gilda Gil (Cuba), Edgardo Civallero (Argentina) and Rafael Carreño (Venezuela), who coordinated the process of translation in 2007. Also it is worth to mention the additional colaboration of Ana Lía López (Bolivia), Richard Castro, Rafael Bellota and Carmen Chirinos (Venezuela), Zapopan Muela and Gonzalo Lara (Mexico), and Lilian Álvarez (Cuba).
But what is still more extraordinary about this Spanish translation is that it was completely coordinated and edited by the Servicio Autonomo de la Propiedad Intelectual (SAPI) of the democratic government of the Venezuelan Bolivarian Republic. The Dossier provides “useful material to introduce this topic to teachers and students” and does a good job of “summarizing a complex and conflicting situation” for developing countries, Jumersi La Rosa, SAPI’s new director, said last week in announcing the release of the Spanish edition. She has written a special
new introduction for the Spanish-language edition.
The Copy South Research Group is very pleased that the radical message of resistance found in the Dossier can now be read by thousands of Spanish-language speakers who are questioning the current copyright regime and who hopefully will be ignited by the ideas in the Dossier to take up
the fight against oppressive regimes based on copyright.
You can get a copy of the Dossier in Spanish and English by downloading it, free of charge, at http://www.copysouth.org . We also still have a limited number of printed and bound copies of the English-language version of the Dossier. If you would to be mailed a copy of the English-language version, which contains eight posters, send us an e-mail (contact@copysouth.org) and include your full postal details. COPY/SOUTH RESEARCH GROUP, 28 April 2008.","2008",,,,,,"Copy/South Research Group",,,,,,,,,,,,,"FALSE",,,,"Halbert","Debora","","","",,"","",,"","",,,,,,"",,,,,,,"",,,,,"",,,,,"","",,,,,"","",,,,,"En 2005, un grupo de académicos y activistas, principalmente del Sur global, crearon el Grupo de Investigación Copia Sur para analizar, criticar, y confrontar la naturaleza de los regímenes globales de copyright (derechos de autor), tales como aquellos defendidos por la Organización Mundial de la Propiedad Intelectual y otras similares alrededor del mundo. En mayo de 2006, 22 de nosotros, incluyendo 15 miembros del Sur global, publicamos el DOSSIER COPIA/SUR: Problemas económicos, políticos e ideológicos del copyright (derechos de autor) en el Sur global.
El propósito del Dossier fue abrir un debate crítico y radical sobre el impacto real de las leyes del copyright y como afectan las vidas diarias de la gente que vive en más de 150 países en desarrollo del Sur global. También resaltamos los problemas que no son únicos del Sur global, sino también que afectan ambos lados de la brecha Norte-Sur. Esta publicación de más de 50 artículos ha sido creada para investigadores, educadores, bibliotecarios, músicos, activistas y organizaciones preocupadas por el acceso al conocimiento, y para todos aquellos que quieran saber más sobre el rol de las leyes del copyright, y en particular su rol inmensamente negativo en los países en desarrollo del Sur global.
Dado los objetivos democráticos del Grupo de Investigación del Sur Global, el Dossier no está restringido por el copyright. Por lo tanto, ha sido accesado abierta y libremente tanto en formatos electrónicos como en papel por miles de lectores de alrededor del mundo en inglés. Pero el inglés no es hablado por todos los ciudadanos del Sur global. Con esto en mente, las 200 páginas del Dossier fueron traducidas al español a finales del 2007 por un equipo entusiasta de traductores voluntarios de Argentina, Boliva, Cuba, México, España y Venezuela.
En cuanto a la presente versión en español, realizada con el apoyo del Servicio Autónomo de la Propiedad Intelectual (SAPI), de la República Bolivariana de Venezuela, debemos reconocer la iniciativa del anterior Director General Eduardo Samán al promover la realización de esta
traducción, que luego desemboca en una publicación masiva. Además de la revisión general de Gerardo Cárdenas y su labor como principal traductor, también participaron en esta actividad varios voluntarios que tradujeron o revisaron importantes secciones de la obra: María Jesús
Morillo (España), Oscar Pérez Peña y Gilda Gil (Cuba), Edgardo Civallero (Argentina) y Rafael Carreño (Venezuela), quién coordinó el proceso de traducción en 2007. También se puede mencionar la colaboración adicional de Ana Lía López (Bolivia), Richard Castro, Rafael Bellota y Carmen Chirinos (Venezuela), Zapopan Muela y Gonzalo Lara (México) y Lilian Álvarez (Cuba).
Pero lo que es aún más extraordinario acerca de la traducción en español es que fue completamente coordinada y editada por el Servicio Autónomo de la Propiedad Intelectual (SAPI) del gobierno democrático de la República Venezolana Bolivariana. El Dossier provee “material útil para introducir este tópico a los profesores y estudiantes” y realiza un buen trabajo de “resumir una situación compleja y conflictiva” para los países en desarrollo, como lo dijo Jumersi La Rosa, nueva directora del SAPI, la semana pasada al anunciar el lanzamiento de la edición en español del Dossier. Ella ha escrito una nueva introducción especial para la edición en idioma español. 
El Grupo de Investigación Copia/Sur  está muy complacido de que el mensaje radical de resistencia encontrado en el Dossier puede ahora ser leído por miles de hispanoparlantes quienes están cuestionando el régimen actual del copyright y de quienes se espera que sean encendidos por las ideas del Dossier para que emprendan la lucha contra los regímenes opresivos basados en el copyright.
Tú puedes obtener una copia del Dossier en español e inglés descargándolo, gratuitamente, aquí: http://www.copysouth.org . También contamos aún con cierta cantidad limitada de copias impresas en rústica de la versión inglesa original del Dossier. Si quisieras que te fuera enviada por correo postal una copia de la edición inglesa, que contiene ocho carteles, envíanos un mensaje a este correo electrónico (contact@copysouth.org) e incluye los detalles de tu dirección postal. GRUPO DE INVESTIGACIÓN COPIA/SUR 28 abril 2008","es","",,,,,,,"es","FALSE",,"PH-",,"http://hdl.handle.net/10760/11451",,,"info:eu-repo/semantics/book",
"11451",,,,,,,,,,,,,,,,,,,,,,,,,,,,,,"Darch","Colin","","",,,,,,,,,,,"B.",,,,,,,,,,,,,,,,,,,,,,,,,,,,,,,"Carreño","Rafael","","",,,,,,,,,,,,,,,,,,,,,,,,,,,,,,,,,,,,,,,,,,,,,,,,,,,,,,"ZA-",,,,,,
"11451",,,,,,,,,,,,,,,,,,,,,,,,,,,,,,"Halbert","Debora","","",,,,,,,,,,,,,,,,,,,,,,,,,,,,,,,,,,,,,,,,,,"Servicio Autónomo de la Propiedad Intellectual","República Bolivariana de Venezuela","","",,,,,,,,,,,,,,,,,,,,,,,,,,,,,,,,,,,,,,,,,,,,,,,,,,,,,,"NL-",,,,,,
"11451",,,,,,,,,,,,,,,,,,,,,,,,,,,,,,"Mannan","Adam","","",,,,,,,,,,,,,,,,,,,,,,,,,,,,,,,,,,,,,,,,,,"Story","Alan","","",,,,,,,,,,,,,,,,,,,,,,,,,,,,,,,,,,,,,,,,,,,,,,,,,,,,,,"IE-",,,,,,
"11451",,,,,,,,,,,,,,,,,,,,,,,,,,,,,,"Ngenda","Akalemwa","","",,,,,,,,,,,,,,,,,,,,,,,,,,,,,,,,,,,,,,,,,,"Darch","Colin","","",,,,,,,,,,,,,,,,,,,,,,,,,,,,,,,,,,,,,,,,,,,,,,,,,,,,,,"SN-",,,,,,
"11451",,,,,,,,,,,,,,,,,,,,,,,,,,,,,,"Busaniche","Beatriz","","",,,,,,,,,,,,,,,,,,,,,,,,,,,,,,,,,,,,,,,,,,,,,,,,,,,,,,,,,,,,,,,,,,,,,,,,,,,,,,,,,,,,,,,,,,,,,,,,,,,"US-",,,,,,
"11451",,,,,,,,,,,,,,,,,,,,,,,,,,,,,,"Nicholson","Denise","","",,,,,,,,,,,,,,,,,,,,,,,,,,,,,,,,,,,,,,,,,,,,,,,,,,,,,,,,,,,,,,,,,,,,,,,,,,,,,,,,,,,,,,,,,,,,,,,,,,,"LB-",,,,,,
"11451",,,,,,,,,,,,,,,,,,,,,,,,,,,,,,"Heinz","Federico","","",,,,,,,,,,,,,,,,,,,,,,,,,,,,,,,,,,,,,,,,,,,,,,,,,,,,,,,,,,,,,,,,,,,,,,,,,,,,,,,,,,,,,,,,,,,,,,,,,,,"IN-",,,,,,
"11451",,,,,,,,,,,,,,,,,,,,,,,,,,,,,,"De Beer","Jennifer A.","","",,,,,,,,,,,,,,,,,,,,,,,,,,,,,,,,,,,,,,,,,,,,,,,,,,,,,,,,,,,,,,,,,,,,,,,,,,,,,,,,,,,,,,,,,,,,,,,,,,,"MX-",,,,,,
"11451",,,,,,,,,,,,,,,,,,,,,,,,,,,,,,"Mugambi","Norah","","",,,,,,,,,,,,,,,,,,,,,,,,,,,,,,,,,,,,,,,,,,,,,,,,,,,,,,,,,,,,,,,,,,,,,,,,,,,,,,,,,,,,,,,,,,,,,,,,,,,"AR-",,,,,,
"11451",,,,,,,,,,,,,,,,,,,,,,,,,,,,,,"Smiers","Joost","","",,,,,,,,,,,,,,,,,,,,,,,,,,,,,,,,,,,,,,,,,,,,,,,,,,,,,,,,,,,,,,,,,,,,,,,,,,,,,,,,,,,,,,,,,,,,,,,,,,,"GB-",,,,,,
"11451",,,,,,,,,,,,,,,,,,,,,,,,,,,,,,"Torres-Reyes","José Antonio","","",,,,,,,,,,,,,,,,,,,,,,,,,,,,,,,,,,,,,,,,,,,,,,,,,,,,,,,,,,,,,,,,,,,,,,,,,,,,,,,,,,,,,,,,,,,,,,,,,,,"ZM-",,,,,,
"11451",,,,,,,,,,,,,,,,,,,,,,,,,,,,,,"Triana Cordoví","Juan Publio","","",,,,,,,,,,,,,,,,,,,,,,,,,,,,,,,,,,,,,,,,,,,,,,,,,,,,,,,,,,,,,,,,,,,,,,,,,,,,,,,,,,,,,,,,,,,,,,,,,,,"KE-",,,,,,
"11451",,,,,,,,,,,,,,,,,,,,,,,,,,,,,,"Liang","Lawrence","","",,,,,,,,,,,,,,,,,,,,,,,,,,,,,,,,,,,,,,,,,,,,,,,,,,,,,,,,,,,,,,,,,,,,,,,,,,,,,,,,,,,,,,,,,,,,,,,,,,,"BR-",,,,,,
"11451",,,,,,,,,,,,,,,,,,,,,,,,,,,,,,"Stephan","Maud","","",,,,,,,,,,,,,,,,,,,,,,,,,,,,,,,,,,,,,,,,,,,,,,,,,,,,,,,,,,,,,,,,,,,,,,,,,,,,,,,,,,,,,,,,,,,,,,,,,,,"VE-",,,,,,
"11451",,,,,,,,,,,,,,,,,,,,,,,,,,,,,,"Verzola","Roberto","","",,,,,,,,,,,,,,,,,,,,,,,,,,,,,,,,,,,,,,,,,,,,,,,,,,,,,,,,,,,,,,,,,,,,,,,,,,,,,,,,,,,,,,,,,,,,,,,,,,,,,,,,,
"11451",,,,,,,,,,,,,,,,,,,,,,,,,,,,,,"Lemos","Ronaldo","","",,,,,,,,,,,,,,,,,,,,,,,,,,,,,,,,,,,,,,,,,,,,,,,,,,,,,,,,,,,,,,,,,,,,,,,,,,,,,,,,,,,,,,,,,,,,,,,,,,,,,,,,,
"11451",,,,,,,,,,,,,,,,,,,,,,,,,,,,,,"Jha","Shishir Kumar","","",,,,,,,,,,,,,,,,,,,,,,,,,,,,,,,,,,,,,,,,,,,,,,,,,,,,,,,,,,,,,,,,,,,,,,,,,,,,,,,,,,,,,,,,,,,,,,,,,,,,,,,,,
"11451",,,,,,,,,,,,,,,,,,,,,,,,,,,,,,"Muela-Meza","Zapopan Martín","","",,,,,,,,,,,,,,,,,,,,,,,,,,,,,,,,,,,,,,,,,,,,,,,,,,,,,,,,,,,,,,,,,,,,,,,,,,,,,,,,,,,,,,,,,,,,,,,,,,,,,,,,,
"11451",,,,,,,,,,,,,,,,,,,,,,,,,,,,,,"Pereira de Souza","Carlos Affonso","","",,,,,,,,,,,,,,,,,,,,,,,,,,,,,,,,,,,,,,,,,,,,,,,,,,,,,,,,,,,,,,,,,,,,,,,,,,,,,,,,,,,,,,,,,,,,,,,,,,,,,,,,,
"11451",,,,,,,,,,,,,,,,,,,,,,,,,,,,,,"Ndiaye","Papa Toumané","","",,,,,,,,,,,,,,,,,,,,,,,,,,,,,,,,,,,,,,,,,,,,,,,,,,,,,,,,,,,,,,,,,,,,,,,,,,,,,,,,,,,,,,,,,,,,,,,,,,,,,,,,,
"11451",,,,,,,,,,,,,,,,,,,,,,,,,,,,,,"Yar","Majid","","",,,,,,,,,,,,,,,,,,,,,,,,,,,,,,,,,,,,,,,,,,,,,,,,,,,,,,,,,,,,,,,,,,,,,,,,,,,,,,,,,,,,,,,,,,,,,,,,,,,,,,,,,
"11451",,,,,,,,,,,,,,,,,,,,,,,,,,,,,,"Hackett","Teresa","","",,,,,,,,,,,,,,,,,,,,,,,,,,,,,,,,,,,,,,,,,,,,,,,,,,,,,,,,,,,,,,,,,,,,,,,,,,,,,,,,,,,,,,,,,,,,,,,,,,,,,,,,,
"11451",,,,,,,,,,,,,,,,,,,,,,,,,,,,,,"La-Rosa","Jumersi","","",,,,,,,,,,,,,,,,,,,,,,,,,,,,,,,,,,,,,,,,,,,,,,,,,,,,,,,,,,,,,,,,,,,,,,,,,,,,,,,,,,,,,,,,,,,,,,,,,,,,,,,,,
"11451",,,,,,,,,,,,,,,,,,,,,,,,,,,,,,"Research Group","Copy/South","","",,,,,,,,,,,,,,,,,,,,,,,,,,,,,,,,,,,,,,,,,,,,,,,,,,,,,,,,,,,,,,,,,,,,,,,,,,,,,,,,,,,,,,,,,,,,,,,,,,,,,,,,,
